[gd_scene load_steps=5 format=2]

[ext_resource path="res://blokoj/taskoj/skriptoj/taskoj.gd" type="Script" id=1]
[ext_resource path="res://kerno/fenestroj/tipo_a1.tscn" type="PackedScene" id=2]
[ext_resource path="res://blokoj/taskoj/skriptoj/http_TaskojRequest.gd" type="Script" id=3]
[ext_resource path="res://blokoj/taskoj/skriptoj/http_request.gd" type="Script" id=4]

[node name="Taskoj" instance=ExtResource( 2 )]
script = ExtResource( 1 )

[node name="MarginContainer" parent="canvas" index="0"]
visible = false

[node name="Label" parent="canvas/MarginContainer/VBoxContainer" index="0"]
text = "Проекты"

[node name="HTTPProjektoRequestFind" type="HTTPRequest" parent="." index="1"]
script = ExtResource( 4 )

[node name="HTTPTaskojRequestFind" type="HTTPRequest" parent="." index="2"]
script = ExtResource( 3 )
[connection signal="item_selected" from="canvas/MarginContainer/VBoxContainer/scroll/ItemList" to="." method="_on_ItemList_item_selected"]
[connection signal="request_completed" from="HTTPProjektoRequestFind" to="HTTPProjektoRequestFind" method="_on_HTTPProjektoRequestFind_request_completed"]
[connection signal="request_completed" from="HTTPTaskojRequestFind" to="HTTPTaskojRequestFind" method="_on_HTTPTaskojRequestFind_request_completed"]
