[gd_scene load_steps=7 format=2]

[ext_resource path="res://blokoj/kosmosxipoj/scenoj/baseSpaceship/Cabine_002.material" type="Material" id=1]
[ext_resource path="res://blokoj/kosmosxipoj/skriptoj/moduloj/modulo.gd" type="Script" id=2]
[ext_resource path="res://blokoj/kosmosxipoj/scenoj/baseSpaceship/backdoor.material" type="Material" id=3]
[ext_resource path="res://blokoj/kosmosxipoj/scenoj/baseSpaceship/Cabine.material" type="Material" id=4]

[sub_resource type="BoxShape" id=2]
extents = Vector3( 3.94345, 1.82996, 1.85188 )

[sub_resource type="ArrayMesh" id=1]
resource_name = "Cargo"
surfaces/0 = {
"aabb": AABB( -4, -2, -2, 8, 4, 4.00001 ),
"array_data": PoolByteArray( 102, 102, 118, 192, 205, 204, 236, 63, 0, 0, 0, 64, 240, 16, 124, 0, 0, 125, 240, 127, 236, 56, 204, 28, 102, 102, 118, 64, 205, 204, 236, 191, 0, 0, 0, 64, 16, 240, 124, 0, 0, 125, 16, 127, 38, 54, 217, 51, 102, 102, 118, 192, 205, 204, 236, 191, 0, 0, 0, 64, 240, 240, 124, 0, 0, 125, 16, 127, 38, 54, 204, 28, 102, 102, 118, 192, 205, 204, 236, 63, 0, 0, 0, 64, 240, 16, 124, 0, 0, 125, 240, 127, 236, 56, 204, 28, 102, 102, 118, 64, 205, 204, 236, 63, 0, 0, 0, 64, 16, 16, 124, 0, 0, 125, 240, 127, 236, 56, 217, 51, 102, 102, 118, 64, 205, 204, 236, 191, 0, 0, 0, 64, 16, 240, 124, 0, 0, 125, 16, 127, 38, 54, 217, 51, 0, 0, 128, 64, 205, 204, 236, 63, 205, 204, 236, 63, 124, 16, 16, 0, 240, 125, 0, 127, 236, 56, 38, 52, 0, 0, 128, 64, 205, 204, 236, 191, 205, 204, 236, 191, 124, 240, 240, 0, 16, 125, 0, 127, 38, 54, 217, 55, 0, 0, 128, 64, 205, 204, 236, 191, 205, 204, 236, 63, 124, 240, 16, 0, 16, 125, 0, 127, 38, 54, 38, 52, 0, 0, 128, 64, 205, 204, 236, 63, 205, 204, 236, 63, 124, 16, 16, 0, 240, 125, 0, 127, 236, 56, 38, 52, 0, 0, 128, 64, 205, 204, 236, 63, 205, 204, 236, 191, 124, 16, 240, 0, 240, 125, 0, 127, 236, 56, 217, 55, 0, 0, 128, 64, 205, 204, 236, 191, 205, 204, 236, 191, 124, 240, 240, 0, 16, 125, 0, 127, 38, 54, 217, 55, 102, 102, 118, 64, 0, 0, 0, 64, 205, 204, 236, 63, 16, 124, 16, 0, 131, 16, 0, 127, 9, 57, 38, 52, 102, 102, 118, 192, 0, 0, 0, 64, 205, 204, 236, 191, 240, 124, 240, 0, 131, 240, 0, 127, 246, 58, 217, 55, 102, 102, 118, 64, 0, 0, 0, 64, 205, 204, 236, 191, 16, 124, 240, 0, 131, 16, 0, 127, 9, 57, 217, 55, 102, 102, 118, 64, 0, 0, 0, 64, 205, 204, 236, 63, 16, 124, 16, 0, 131, 16, 0, 127, 9, 57, 38, 52, 102, 102, 118, 192, 0, 0, 0, 64, 205, 204, 236, 63, 240, 124, 16, 0, 131, 240, 0, 127, 246, 58, 38, 52, 102, 102, 118, 192, 0, 0, 0, 64, 205, 204, 236, 191, 240, 124, 240, 0, 131, 240, 0, 127, 246, 58, 217, 55, 0, 0, 128, 192, 205, 204, 236, 63, 205, 204, 236, 191, 132, 16, 240, 0, 16, 125, 0, 127, 236, 56, 19, 58, 0, 0, 128, 192, 205, 204, 236, 191, 205, 204, 236, 63, 132, 240, 16, 0, 240, 125, 0, 127, 38, 54, 236, 59, 0, 0, 128, 192, 205, 204, 236, 191, 205, 204, 236, 191, 132, 240, 240, 0, 240, 125, 0, 127, 38, 54, 19, 58, 0, 0, 128, 192, 205, 204, 236, 63, 205, 204, 236, 191, 132, 16, 240, 0, 16, 125, 0, 127, 236, 56, 19, 58, 0, 0, 128, 192, 205, 204, 236, 63, 205, 204, 236, 63, 132, 16, 16, 0, 16, 125, 0, 127, 236, 56, 236, 59, 0, 0, 128, 192, 205, 204, 236, 191, 205, 204, 236, 63, 132, 240, 16, 0, 240, 125, 0, 127, 38, 54, 236, 59, 102, 102, 118, 64, 205, 204, 236, 63, 0, 0, 0, 192, 16, 16, 132, 0, 0, 125, 16, 127, 236, 56, 9, 56, 102, 102, 118, 192, 205, 204, 236, 191, 0, 0, 0, 192, 240, 240, 132, 0, 0, 125, 240, 127, 38, 54, 246, 57, 102, 102, 118, 64, 205, 204, 236, 191, 0, 0, 0, 192, 16, 240, 132, 0, 0, 125, 240, 127, 38, 54, 9, 56, 102, 102, 118, 64, 205, 204, 236, 63, 0, 0, 0, 192, 16, 16, 132, 0, 0, 125, 16, 127, 236, 56, 9, 56, 102, 102, 118, 192, 205, 204, 236, 63, 0, 0, 0, 192, 240, 16, 132, 0, 0, 125, 16, 127, 236, 56, 246, 57, 102, 102, 118, 192, 205, 204, 236, 191, 0, 0, 0, 192, 240, 240, 132, 0, 0, 125, 240, 127, 38, 54, 246, 57, 150, 49, 123, 192, 88, 111, 253, 191, 204, 204, 236, 63, 194, 147, 15, 0, 110, 194, 1, 127, 19, 48, 38, 52, 102, 102, 118, 192, 88, 111, 253, 191, 44, 99, 246, 63, 241, 147, 62, 0, 125, 239, 0, 127, 38, 48, 19, 52, 102, 102, 118, 192, 0, 0, 0, 192, 205, 204, 236, 63, 240, 132, 16, 0, 125, 240, 0, 127, 38, 48, 38, 52, 167, 253, 122, 192, 126, 241, 250, 191, 77, 251, 245, 63, 200, 158, 56, 0, 112, 200, 14, 127, 20, 48, 20, 52, 102, 102, 118, 192, 88, 111, 253, 191, 44, 99, 246, 63, 241, 147, 62, 0, 125, 239, 0, 127, 38, 48, 19, 52, 150, 49, 123, 192, 88, 111, 253, 191, 204, 204, 236, 63, 194, 147, 15, 0, 110, 194, 1, 127, 19, 48, 38, 52, 167, 253, 122, 192, 126, 241, 250, 191, 77, 251, 245, 63, 200, 158, 56, 0, 112, 200, 14, 127, 20, 48, 20, 52, 102, 102, 118, 192, 44, 99, 246, 191, 88, 111, 253, 63, 241, 194, 109, 0, 125, 243, 10, 127, 38, 48, 0, 52, 102, 102, 118, 192, 88, 111, 253, 191, 44, 99, 246, 63, 241, 147, 62, 0, 125, 239, 0, 127, 38, 48, 19, 52, 167, 253, 122, 192, 77, 251, 245, 191, 126, 241, 250, 63, 200, 200, 98, 0, 111, 208, 36, 127, 20, 48, 0, 52, 102, 102, 118, 192, 44, 99, 246, 191, 88, 111, 253, 63, 241, 194, 109, 0, 125, 243, 10, 127, 38, 48, 0, 52, 167, 253, 122, 192, 126, 241, 250, 191, 77, 251, 245, 63, 200, 158, 56, 0, 112, 200, 14, 127, 20, 48, 20, 52, 167, 253, 122, 192, 77, 251, 245, 191, 126, 241, 250, 63, 200, 200, 98, 0, 233, 113, 52, 127, 20, 54, 2, 25, 102, 102, 118, 192, 205, 204, 236, 191, 0, 0, 0, 64, 240, 240, 124, 0, 0, 125, 16, 127, 38, 54, 204, 28, 102, 102, 118, 192, 44, 99, 246, 191, 88, 111, 253, 63, 241, 194, 109, 0, 252, 110, 62, 127, 19, 54, 204, 28, 150, 49, 123, 192, 204, 204, 236, 191, 88, 111, 253, 63, 194, 241, 109, 0, 0, 125, 17, 127, 38, 54, 206, 24, 102, 102, 118, 192, 205, 204, 236, 191, 0, 0, 0, 64, 240, 240, 124, 0, 0, 125, 16, 127, 38, 54, 204, 28, 167, 253, 122, 192, 77, 251, 245, 191, 126, 241, 250, 63, 200, 200, 98, 0, 233, 113, 52, 127, 20, 54, 2, 25, 172, 183, 126, 192, 204, 204, 236, 191, 44, 99, 246, 63, 147, 241, 62, 0, 246, 125, 13, 127, 38, 54, 0, 0, 167, 253, 122, 192, 77, 251, 245, 191, 126, 241, 250, 63, 200, 200, 98, 0, 233, 113, 52, 127, 20, 54, 2, 25, 191, 120, 125, 192, 77, 251, 245, 191, 77, 251, 245, 63, 158, 200, 56, 0, 201, 113, 17, 127, 20, 54, 0, 0, 172, 183, 126, 192, 204, 204, 236, 191, 44, 99, 246, 63, 147, 241, 62, 0, 246, 125, 13, 127, 38, 54, 0, 0, 150, 49, 123, 192, 204, 204, 236, 191, 88, 111, 253, 63, 194, 241, 109, 0, 0, 125, 17, 127, 38, 54, 206, 24, 167, 253, 122, 192, 77, 251, 245, 191, 126, 241, 250, 63, 200, 200, 98, 0, 233, 113, 52, 127, 20, 54, 2, 25, 0, 0, 128, 192, 205, 204, 236, 191, 205, 204, 236, 63, 132, 240, 16, 0, 240, 125, 0, 127, 38, 54, 236, 59, 191, 120, 125, 192, 77, 251, 245, 191, 77, 251, 245, 63, 158, 200, 56, 0, 193, 109, 0, 127, 20, 54, 245, 59, 172, 183, 126, 192, 44, 99, 246, 191, 204, 204, 236, 63, 147, 194, 15, 0, 194, 110, 1, 127, 19, 54, 236, 59, 0, 0, 128, 192, 205, 204, 236, 191, 205, 204, 236, 63, 132, 240, 16, 0, 240, 125, 0, 127, 38, 54, 236, 59, 172, 183, 126, 192, 204, 204, 236, 191, 44, 99, 246, 63, 147, 241, 62, 0, 239, 125, 0, 127, 38, 54, 246, 59, 191, 120, 125, 192, 77, 251, 245, 191, 77, 251, 245, 63, 158, 200, 56, 0, 193, 109, 0, 127, 20, 54, 245, 59, 172, 183, 126, 192, 44, 99, 246, 191, 204, 204, 236, 63, 147, 194, 15, 0, 194, 110, 1, 127, 19, 54, 236, 59, 167, 253, 122, 192, 126, 241, 250, 191, 77, 251, 245, 63, 200, 158, 56, 0, 151, 68, 13, 127, 0, 54, 245, 59, 150, 49, 123, 192, 88, 111, 253, 191, 204, 204, 236, 63, 194, 147, 15, 0, 146, 63, 4, 127, 0, 54, 236, 59, 172, 183, 126, 192, 44, 99, 246, 191, 204, 204, 236, 63, 147, 194, 15, 0, 194, 110, 1, 127, 19, 54, 236, 59, 191, 120, 125, 192, 77, 251, 245, 191, 77, 251, 245, 63, 158, 200, 56, 0, 193, 109, 0, 127, 20, 54, 245, 59, 167, 253, 122, 192, 126, 241, 250, 191, 77, 251, 245, 63, 200, 158, 56, 0, 151, 68, 13, 127, 0, 54, 245, 59, 167, 253, 122, 192, 126, 241, 250, 191, 77, 251, 245, 63, 200, 158, 56, 0, 112, 200, 14, 127, 20, 48, 20, 52, 191, 120, 125, 192, 77, 251, 245, 191, 77, 251, 245, 63, 158, 200, 56, 0, 68, 151, 13, 127, 0, 48, 20, 52, 167, 253, 122, 192, 77, 251, 245, 191, 126, 241, 250, 63, 200, 200, 98, 0, 111, 208, 36, 127, 20, 48, 0, 52, 167, 253, 122, 192, 77, 251, 245, 63, 126, 241, 250, 63, 200, 56, 98, 0, 253, 108, 191, 127, 245, 56, 2, 25, 102, 102, 118, 192, 205, 204, 236, 63, 0, 0, 0, 64, 240, 16, 124, 0, 0, 125, 240, 127, 236, 56, 204, 28, 150, 49, 123, 192, 204, 204, 236, 63, 88, 111, 253, 63, 194, 15, 109, 0, 2, 125, 240, 127, 236, 56, 206, 24, 167, 253, 122, 192, 77, 251, 245, 63, 126, 241, 250, 63, 200, 56, 98, 0, 253, 108, 191, 127, 245, 56, 2, 25, 102, 102, 118, 192, 44, 99, 246, 63, 88, 111, 253, 63, 241, 62, 109, 0, 1, 110, 194, 127, 246, 56, 204, 28, 102, 102, 118, 192, 205, 204, 236, 63, 0, 0, 0, 64, 240, 16, 124, 0, 0, 125, 240, 127, 236, 56, 204, 28, 167, 253, 122, 192, 126, 241, 250, 63, 77, 251, 245, 63, 200, 98, 56, 0, 13, 68, 151, 127, 0, 57, 2, 25, 102, 102, 118, 192, 44, 99, 246, 63, 88, 111, 253, 63, 241, 62, 109, 0, 1, 110, 194, 127, 246, 56, 204, 28, 167, 253, 122, 192, 77, 251, 245, 63, 126, 241, 250, 63, 200, 56, 98, 0, 253, 108, 191, 127, 245, 56, 2, 25, 167, 253, 122, 192, 126, 241, 250, 63, 77, 251, 245, 63, 200, 98, 56, 0, 13, 68, 151, 127, 0, 57, 2, 25, 102, 102, 118, 192, 88, 111, 253, 63, 44, 99, 246, 63, 241, 109, 62, 0, 4, 63, 146, 127, 0, 57, 204, 28, 102, 102, 118, 192, 44, 99, 246, 63, 88, 111, 253, 63, 241, 62, 109, 0, 1, 110, 194, 127, 246, 56, 204, 28, 150, 49, 123, 192, 88, 111, 253, 63, 204, 204, 236, 63, 194, 109, 15, 0, 146, 194, 0, 127, 251, 58, 38, 52, 102, 102, 118, 192, 88, 111, 253, 63, 44, 99, 246, 63, 241, 109, 62, 0, 131, 240, 254, 127, 246, 58, 19, 52, 167, 253, 122, 192, 126, 241, 250, 63, 77, 251, 245, 63, 200, 98, 56, 0, 147, 193, 0, 127, 250, 58, 20, 52, 150, 49, 123, 192, 88, 111, 253, 63, 204, 204, 236, 63, 194, 109, 15, 0, 146, 194, 0, 127, 251, 58, 38, 52, 102, 102, 118, 192, 0, 0, 0, 64, 205, 204, 236, 63, 240, 124, 16, 0, 131, 240, 0, 127, 246, 58, 38, 52, 102, 102, 118, 192, 88, 111, 253, 63, 44, 99, 246, 63, 241, 109, 62, 0, 131, 240, 254, 127, 246, 58, 19, 52, 172, 183, 126, 192, 44, 99, 246, 63, 204, 204, 236, 63, 147, 62, 15, 0, 193, 146, 252, 127, 0, 59, 38, 52, 167, 253, 122, 192, 126, 241, 250, 63, 77, 251, 245, 63, 200, 98, 56, 0, 147, 193, 0, 127, 250, 58, 20, 52, 191, 120, 125, 192, 77, 251, 245, 63, 77, 251, 245, 63, 158, 56, 56, 0, 188, 151, 243, 127, 0, 59, 20, 52, 150, 49, 123, 192, 88, 111, 253, 63, 204, 204, 236, 63, 194, 109, 15, 0, 146, 194, 0, 127, 251, 58, 38, 52, 167, 253, 122, 192, 126, 241, 250, 63, 77, 251, 245, 63, 200, 98, 56, 0, 147, 193, 0, 127, 250, 58, 20, 52, 172, 183, 126, 192, 44, 99, 246, 63, 204, 204, 236, 63, 147, 62, 15, 0, 193, 146, 252, 127, 0, 59, 38, 52, 0, 0, 128, 192, 205, 204, 236, 63, 205, 204, 236, 63, 132, 16, 16, 0, 16, 125, 0, 127, 236, 56, 236, 59, 191, 120, 125, 192, 77, 251, 245, 63, 77, 251, 245, 63, 158, 56, 56, 0, 57, 112, 243, 127, 245, 56, 245, 59, 172, 183, 126, 192, 204, 204, 236, 63, 44, 99, 246, 63, 147, 15, 62, 0, 14, 126, 252, 127, 236, 56, 246, 59, 172, 183, 126, 192, 44, 99, 246, 63, 204, 204, 236, 63, 147, 62, 15, 0, 62, 110, 252, 127, 246, 56, 236, 59, 191, 120, 125, 192, 77, 251, 245, 63, 77, 251, 245, 63, 158, 56, 56, 0, 57, 112, 243, 127, 245, 56, 245, 59, 0, 0, 128, 192, 205, 204, 236, 63, 205, 204, 236, 63, 132, 16, 16, 0, 16, 125, 0, 127, 236, 56, 236, 59, 172, 183, 126, 192, 204, 204, 236, 63, 44, 99, 246, 63, 147, 15, 62, 0, 14, 126, 252, 127, 236, 56, 246, 59, 167, 253, 122, 192, 77, 251, 245, 63, 126, 241, 250, 63, 200, 56, 98, 0, 36, 113, 212, 127, 245, 56, 0, 60, 150, 49, 123, 192, 204, 204, 236, 63, 88, 111, 253, 63, 194, 15, 109, 0, 254, 125, 237, 127, 236, 56, 0, 60, 191, 120, 125, 192, 77, 251, 245, 63, 77, 251, 245, 63, 158, 56, 56, 0, 57, 112, 243, 127, 245, 56, 245, 59, 167, 253, 122, 192, 77, 251, 245, 63, 126, 241, 250, 63, 200, 56, 98, 0, 36, 113, 212, 127, 245, 56, 0, 60, 172, 183, 126, 192, 204, 204, 236, 63, 44, 99, 246, 63, 147, 15, 62, 0, 14, 126, 252, 127, 236, 56, 246, 59, 167, 253, 122, 192, 77, 251, 245, 63, 126, 241, 250, 63, 200, 56, 98, 0, 253, 108, 191, 127, 245, 56, 2, 25, 191, 120, 125, 192, 77, 251, 245, 63, 77, 251, 245, 63, 158, 56, 56, 0, 0, 89, 167, 127, 245, 56, 0, 0, 167, 253, 122, 192, 126, 241, 250, 63, 77, 251, 245, 63, 200, 98, 56, 0, 13, 68, 151, 127, 0, 57, 2, 25, 102, 102, 118, 192, 88, 111, 253, 191, 44, 99, 246, 191, 241, 147, 194, 0, 125, 240, 254, 127, 38, 48, 236, 55, 150, 49, 123, 192, 88, 111, 253, 191, 204, 204, 236, 191, 194, 147, 241, 0, 110, 194, 0, 127, 19, 48, 217, 55, 102, 102, 118, 192, 0, 0, 0, 192, 205, 204, 236, 191, 240, 132, 240, 0, 125, 240, 0, 127, 38, 48, 217, 55, 102, 102, 118, 192, 88, 111, 253, 191, 44, 99, 246, 191, 241, 147, 194, 0, 125, 240, 254, 127, 38, 48, 236, 55, 167, 253, 122, 192, 126, 241, 250, 191, 77, 251, 245, 191, 200, 158, 200, 0, 108, 191, 4, 127, 20, 48, 235, 55, 150, 49, 123, 192, 88, 111, 253, 191, 204, 204, 236, 191, 194, 147, 241, 0, 110, 194, 0, 127, 19, 48, 217, 55, 167, 253, 122, 192, 126, 241, 250, 191, 77, 251, 245, 191, 200, 158, 200, 0, 108, 191, 4, 127, 20, 48, 235, 55, 172, 183, 126, 192, 44, 99, 246, 191, 204, 204, 236, 191, 147, 194, 241, 0, 63, 146, 252, 127, 0, 48, 217, 55, 150, 49, 123, 192, 88, 111, 253, 191, 204, 204, 236, 191, 194, 147, 241, 0, 110, 194, 0, 127, 19, 48, 217, 55, 191, 120, 125, 192, 77, 251, 245, 191, 77, 251, 245, 191, 158, 200, 200, 0, 68, 151, 243, 127, 0, 48, 235, 55, 172, 183, 126, 192, 44, 99, 246, 191, 204, 204, 236, 191, 147, 194, 241, 0, 63, 146, 252, 127, 0, 48, 217, 55, 167, 253, 122, 192, 126, 241, 250, 191, 77, 251, 245, 191, 200, 158, 200, 0, 108, 191, 4, 127, 20, 48, 235, 55, 191, 120, 125, 192, 77, 251, 245, 191, 77, 251, 245, 191, 158, 200, 200, 0, 200, 112, 242, 127, 20, 54, 10, 58, 0, 0, 128, 192, 205, 204, 236, 191, 205, 204, 236, 191, 132, 240, 240, 0, 240, 125, 0, 127, 38, 54, 19, 58, 172, 183, 126, 192, 44, 99, 246, 191, 204, 204, 236, 191, 147, 194, 241, 0, 194, 110, 252, 127, 19, 54, 19, 58, 172, 183, 126, 192, 204, 204, 236, 191, 44, 99, 246, 191, 147, 241, 194, 0, 242, 126, 251, 127, 38, 54, 9, 58, 0, 0, 128, 192, 205, 204, 236, 191, 205, 204, 236, 191, 132, 240, 240, 0, 240, 125, 0, 127, 38, 54, 19, 58, 191, 120, 125, 192, 77, 251, 245, 191, 77, 251, 245, 191, 158, 200, 200, 0, 200, 112, 242, 127, 20, 54, 10, 58, 167, 253, 122, 192, 77, 251, 245, 191, 126, 241, 250, 191, 200, 200, 158, 0, 245, 112, 198, 127, 20, 54, 250, 57, 172, 183, 126, 192, 204, 204, 236, 191, 44, 99, 246, 191, 147, 241, 194, 0, 242, 126, 251, 127, 38, 54, 9, 58, 191, 120, 125, 192, 77, 251, 245, 191, 77, 251, 245, 191, 158, 200, 200, 0, 200, 112, 242, 127, 20, 54, 10, 58, 150, 49, 123, 192, 204, 204, 236, 191, 88, 111, 253, 191, 194, 241, 147, 0, 0, 125, 239, 127, 38, 54, 251, 57, 172, 183, 126, 192, 204, 204, 236, 191, 44, 99, 246, 191, 147, 241, 194, 0, 242, 126, 251, 127, 38, 54, 9, 58, 167, 253, 122, 192, 77, 251, 245, 191, 126, 241, 250, 191, 200, 200, 158, 0, 245, 112, 198, 127, 20, 54, 250, 57, 102, 102, 118, 192, 205, 204, 236, 191, 0, 0, 0, 192, 240, 240, 132, 0, 0, 125, 240, 127, 38, 54, 246, 57, 167, 253, 122, 192, 77, 251, 245, 191, 126, 241, 250, 191, 200, 200, 158, 0, 245, 112, 198, 127, 20, 54, 250, 57, 102, 102, 118, 192, 44, 99, 246, 191, 88, 111, 253, 191, 241, 194, 147, 0, 255, 110, 194, 127, 19, 54, 246, 57, 102, 102, 118, 192, 205, 204, 236, 191, 0, 0, 0, 192, 240, 240, 132, 0, 0, 125, 240, 127, 38, 54, 246, 57, 150, 49, 123, 192, 204, 204, 236, 191, 88, 111, 253, 191, 194, 241, 147, 0, 0, 125, 239, 127, 38, 54, 251, 57, 167, 253, 122, 192, 77, 251, 245, 191, 126, 241, 250, 191, 200, 200, 158, 0, 245, 112, 198, 127, 20, 54, 250, 57, 102, 102, 118, 192, 44, 99, 246, 191, 88, 111, 253, 191, 241, 194, 147, 0, 255, 110, 194, 127, 19, 54, 246, 57, 167, 253, 122, 192, 126, 241, 250, 191, 77, 251, 245, 191, 200, 158, 200, 0, 243, 68, 151, 127, 0, 54, 250, 57, 102, 102, 118, 192, 88, 111, 253, 191, 44, 99, 246, 191, 241, 147, 194, 0, 252, 63, 146, 127, 0, 54, 246, 57, 102, 102, 118, 192, 44, 99, 246, 191, 88, 111, 253, 191, 241, 194, 147, 0, 255, 110, 194, 127, 19, 54, 246, 57, 167, 253, 122, 192, 77, 251, 245, 191, 126, 241, 250, 191, 200, 200, 158, 0, 245, 112, 198, 127, 20, 54, 250, 57, 167, 253, 122, 192, 126, 241, 250, 191, 77, 251, 245, 191, 200, 158, 200, 0, 243, 68, 151, 127, 0, 54, 250, 57, 167, 253, 122, 192, 126, 241, 250, 191, 77, 251, 245, 191, 200, 158, 200, 0, 108, 191, 4, 127, 20, 48, 235, 55, 167, 253, 122, 192, 77, 251, 245, 191, 126, 241, 250, 191, 200, 200, 158, 0, 89, 167, 0, 127, 20, 48, 0, 56, 191, 120, 125, 192, 77, 251, 245, 191, 77, 251, 245, 191, 158, 200, 200, 0, 68, 151, 243, 127, 0, 48, 235, 55, 102, 102, 118, 192, 88, 111, 253, 63, 44, 99, 246, 191, 241, 109, 194, 0, 131, 239, 0, 127, 246, 58, 236, 55, 150, 49, 123, 192, 88, 111, 253, 63, 204, 204, 236, 191, 194, 109, 241, 0, 146, 194, 1, 127, 251, 58, 217, 55, 167, 253, 122, 192, 126, 241, 250, 63, 77, 251, 245, 191, 200, 98, 200, 0, 144, 200, 14, 127, 250, 58, 235, 55, 102, 102, 118, 192, 0, 0, 0, 64, 205, 204, 236, 191, 240, 124, 240, 0, 131, 240, 0, 127, 246, 58, 217, 55, 150, 49, 123, 192, 88, 111, 253, 63, 204, 204, 236, 191, 194, 109, 241, 0, 146, 194, 1, 127, 251, 58, 217, 55, 102, 102, 118, 192, 88, 111, 253, 63, 44, 99, 246, 191, 241, 109, 194, 0, 131, 239, 0, 127, 246, 58, 236, 55, 102, 102, 118, 192, 44, 99, 246, 63, 88, 111, 253, 191, 241, 62, 147, 0, 131, 243, 10, 127, 246, 58, 0, 56, 167, 253, 122, 192, 126, 241, 250, 63, 77, 251, 245, 191, 200, 98, 200, 0, 144, 200, 14, 127, 250, 58, 235, 55, 167, 253, 122, 192, 77, 251, 245, 63, 126, 241, 250, 191, 200, 56, 158, 0, 145, 208, 36, 127, 250, 58, 0, 56, 102, 102, 118, 192, 88, 111, 253, 63, 44, 99, 246, 191, 241, 109, 194, 0, 131, 239, 0, 127, 246, 58, 236, 55, 167, 253, 122, 192, 126, 241, 250, 63, 77, 251, 245, 191, 200, 98, 200, 0, 144, 200, 14, 127, 250, 58, 235, 55, 102, 102, 118, 192, 44, 99, 246, 63, 88, 111, 253, 191, 241, 62, 147, 0, 131, 243, 10, 127, 246, 58, 0, 56, 102, 102, 118, 192, 205, 204, 236, 63, 0, 0, 0, 192, 240, 16, 132, 0, 0, 125, 16, 127, 236, 56, 246, 57, 167, 253, 122, 192, 77, 251, 245, 63, 126, 241, 250, 191, 200, 56, 158, 0, 24, 113, 51, 127, 245, 56, 250, 57, 150, 49, 123, 192, 204, 204, 236, 63, 88, 111, 253, 191, 194, 15, 147, 0, 0, 125, 17, 127, 236, 56, 251, 57, 102, 102, 118, 192, 44, 99, 246, 63, 88, 111, 253, 191, 241, 62, 147, 0, 4, 110, 62, 127, 246, 56, 246, 57, 167, 253, 122, 192, 77, 251, 245, 63, 126, 241, 250, 191, 200, 56, 158, 0, 24, 113, 51, 127, 245, 56, 250, 57, 102, 102, 118, 192, 205, 204, 236, 63, 0, 0, 0, 192, 240, 16, 132, 0, 0, 125, 16, 127, 236, 56, 246, 57, 167, 253, 122, 192, 77, 251, 245, 63, 126, 241, 250, 191, 200, 56, 158, 0, 24, 113, 51, 127, 245, 56, 250, 57, 172, 183, 126, 192, 204, 204, 236, 63, 44, 99, 246, 191, 147, 15, 194, 0, 14, 126, 5, 127, 236, 56, 9, 58, 150, 49, 123, 192, 204, 204, 236, 63, 88, 111, 253, 191, 194, 15, 147, 0, 0, 125, 17, 127, 236, 56, 251, 57, 167, 253, 122, 192, 77, 251, 245, 63, 126, 241, 250, 191, 200, 56, 158, 0, 24, 113, 51, 127, 245, 56, 250, 57, 191, 120, 125, 192, 77, 251, 245, 63, 77, 251, 245, 191, 158, 56, 200, 0, 61, 111, 4, 127, 245, 56, 10, 58, 172, 183, 126, 192, 204, 204, 236, 63, 44, 99, 246, 191, 147, 15, 194, 0, 14, 126, 5, 127, 236, 56, 9, 58, 191, 120, 125, 192, 77, 251, 245, 63, 77, 251, 245, 191, 158, 56, 200, 0, 61, 111, 4, 127, 245, 56, 10, 58, 0, 0, 128, 192, 205, 204, 236, 63, 205, 204, 236, 191, 132, 16, 240, 0, 16, 125, 0, 127, 236, 56, 19, 58, 172, 183, 126, 192, 204, 204, 236, 63, 44, 99, 246, 191, 147, 15, 194, 0, 14, 126, 5, 127, 236, 56, 9, 58, 191, 120, 125, 192, 77, 251, 245, 63, 77, 251, 245, 191, 158, 56, 200, 0, 61, 111, 4, 127, 245, 56, 10, 58, 172, 183, 126, 192, 44, 99, 246, 63, 204, 204, 236, 191, 147, 62, 241, 0, 62, 110, 1, 127, 246, 56, 19, 58, 0, 0, 128, 192, 205, 204, 236, 63, 205, 204, 236, 191, 132, 16, 240, 0, 16, 125, 0, 127, 236, 56, 19, 58, 167, 253, 122, 192, 126, 241, 250, 63, 77, 251, 245, 191, 200, 98, 200, 0, 105, 68, 13, 127, 0, 57, 10, 58, 172, 183, 126, 192, 44, 99, 246, 63, 204, 204, 236, 191, 147, 62, 241, 0, 62, 110, 1, 127, 246, 56, 19, 58, 191, 120, 125, 192, 77, 251, 245, 63, 77, 251, 245, 191, 158, 56, 200, 0, 61, 111, 4, 127, 245, 56, 10, 58, 167, 253, 122, 192, 126, 241, 250, 63, 77, 251, 245, 191, 200, 98, 200, 0, 105, 68, 13, 127, 0, 57, 10, 58, 150, 49, 123, 192, 88, 111, 253, 63, 204, 204, 236, 191, 194, 109, 241, 0, 110, 63, 4, 127, 0, 57, 19, 58, 172, 183, 126, 192, 44, 99, 246, 63, 204, 204, 236, 191, 147, 62, 241, 0, 62, 110, 1, 127, 246, 56, 19, 58, 167, 253, 122, 192, 126, 241, 250, 63, 77, 251, 245, 191, 200, 98, 200, 0, 144, 200, 14, 127, 250, 58, 235, 55, 191, 120, 125, 192, 77, 251, 245, 63, 77, 251, 245, 191, 158, 56, 200, 0, 188, 151, 13, 127, 0, 59, 235, 55, 167, 253, 122, 192, 77, 251, 245, 63, 126, 241, 250, 191, 200, 56, 158, 0, 145, 208, 36, 127, 250, 58, 0, 56, 102, 102, 118, 64, 88, 111, 253, 191, 44, 99, 246, 63, 15, 147, 62, 0, 125, 16, 254, 127, 236, 53, 19, 52, 150, 49, 123, 64, 88, 111, 253, 191, 204, 204, 236, 63, 62, 147, 15, 0, 110, 62, 0, 127, 246, 53, 38, 52, 102, 102, 118, 64, 0, 0, 0, 192, 205, 204, 236, 63, 16, 132, 16, 0, 125, 16, 0, 127, 236, 53, 38, 52, 102, 102, 118, 64, 88, 111, 253, 191, 44, 99, 246, 63, 15, 147, 62, 0, 125, 16, 254, 127, 236, 53, 19, 52, 167, 253, 122, 64, 126, 241, 250, 191, 77, 251, 245, 63, 56, 158, 56, 0, 109, 63, 0, 127, 245, 53, 20, 52, 150, 49, 123, 64, 88, 111, 253, 191, 204, 204, 236, 63, 62, 147, 15, 0, 110, 62, 0, 127, 246, 53, 38, 52, 167, 253, 122, 64, 126, 241, 250, 191, 77, 251, 245, 63, 56, 158, 56, 0, 109, 63, 0, 127, 245, 53, 20, 52, 172, 183, 126, 64, 44, 99, 246, 191, 204, 204, 236, 63, 109, 194, 15, 0, 62, 110, 0, 127, 19, 54, 38, 52, 150, 49, 123, 64, 88, 111, 253, 191, 204, 204, 236, 63, 62, 147, 15, 0, 110, 62, 0, 127, 246, 53, 38, 52, 191, 120, 125, 64, 77, 251, 245, 191, 77, 251, 245, 63, 98, 200, 56, 0, 61, 111, 4, 127, 20, 54, 20, 52, 172, 183, 126, 64, 44, 99, 246, 191, 204, 204, 236, 63, 109, 194, 15, 0, 62, 110, 0, 127, 19, 54, 38, 52, 167, 253, 122, 64, 126, 241, 250, 191, 77, 251, 245, 63, 56, 158, 56, 0, 109, 63, 0, 127, 245, 53, 20, 52, 191, 120, 125, 64, 77, 251, 245, 191, 77, 251, 245, 63, 98, 200, 56, 0, 61, 111, 4, 127, 20, 54, 20, 52, 0, 0, 128, 64, 205, 204, 236, 191, 205, 204, 236, 63, 124, 240, 16, 0, 16, 125, 0, 127, 38, 54, 38, 52, 172, 183, 126, 64, 44, 99, 246, 191, 204, 204, 236, 63, 109, 194, 15, 0, 62, 110, 0, 127, 19, 54, 38, 52, 172, 183, 126, 64, 204, 204, 236, 191, 44, 99, 246, 63, 109, 241, 62, 0, 14, 126, 5, 127, 38, 54, 19, 52, 0, 0, 128, 64, 205, 204, 236, 191, 205, 204, 236, 63, 124, 240, 16, 0, 16, 125, 0, 127, 38, 54, 38, 52, 191, 120, 125, 64, 77, 251, 245, 191, 77, 251, 245, 63, 98, 200, 56, 0, 61, 111, 4, 127, 20, 54, 20, 52, 167, 253, 122, 64, 77, 251, 245, 191, 126, 241, 250, 63, 56, 200, 98, 0, 11, 112, 58, 127, 20, 54, 235, 51, 172, 183, 126, 64, 204, 204, 236, 191, 44, 99, 246, 63, 109, 241, 62, 0, 14, 126, 5, 127, 38, 54, 19, 52, 191, 120, 125, 64, 77, 251, 245, 191, 77, 251, 245, 63, 98, 200, 56, 0, 61, 111, 4, 127, 20, 54, 20, 52, 150, 49, 123, 64, 204, 204, 236, 191, 88, 111, 253, 63, 62, 241, 109, 0, 1, 125, 17, 127, 38, 54, 236, 51, 172, 183, 126, 64, 204, 204, 236, 191, 44, 99, 246, 63, 109, 241, 62, 0, 14, 126, 5, 127, 38, 54, 19, 52, 167, 253, 122, 64, 77, 251, 245, 191, 126, 241, 250, 63, 56, 200, 98, 0, 11, 112, 58, 127, 20, 54, 235, 51, 102, 102, 118, 64, 205, 204, 236, 191, 0, 0, 0, 64, 16, 240, 124, 0, 0, 125, 16, 127, 38, 54, 217, 51, 167, 253, 122, 64, 77, 251, 245, 191, 126, 241, 250, 63, 56, 200, 98, 0, 11, 112, 58, 127, 20, 54, 235, 51, 102, 102, 118, 64, 44, 99, 246, 191, 88, 111, 253, 63, 15, 194, 109, 0, 1, 110, 62, 127, 19, 54, 217, 51, 102, 102, 118, 64, 205, 204, 236, 191, 0, 0, 0, 64, 16, 240, 124, 0, 0, 125, 16, 127, 38, 54, 217, 51, 150, 49, 123, 64, 204, 204, 236, 191, 88, 111, 253, 63, 62, 241, 109, 0, 1, 125, 17, 127, 38, 54, 236, 51, 167, 253, 122, 64, 77, 251, 245, 191, 126, 241, 250, 63, 56, 200, 98, 0, 11, 112, 58, 127, 20, 54, 235, 51, 102, 102, 118, 64, 44, 99, 246, 191, 88, 111, 253, 63, 15, 194, 109, 0, 1, 110, 62, 127, 19, 54, 217, 51, 167, 253, 122, 64, 126, 241, 250, 191, 77, 251, 245, 63, 56, 158, 56, 0, 13, 68, 105, 127, 0, 54, 235, 51, 102, 102, 118, 64, 88, 111, 253, 191, 44, 99, 246, 63, 15, 147, 62, 0, 4, 63, 110, 127, 0, 54, 217, 51, 102, 102, 118, 64, 44, 99, 246, 191, 88, 111, 253, 63, 15, 194, 109, 0, 1, 110, 62, 127, 19, 54, 217, 51, 167, 253, 122, 64, 77, 251, 245, 191, 126, 241, 250, 63, 56, 200, 98, 0, 11, 112, 58, 127, 20, 54, 235, 51, 167, 253, 122, 64, 126, 241, 250, 191, 77, 251, 245, 63, 56, 158, 56, 0, 13, 68, 105, 127, 0, 54, 235, 51, 167, 253, 122, 64, 126, 241, 250, 191, 77, 251, 245, 63, 56, 158, 56, 0, 105, 68, 13, 127, 245, 53, 20, 52, 167, 253, 122, 64, 77, 251, 245, 191, 126, 241, 250, 63, 56, 200, 98, 0, 89, 89, 0, 127, 245, 53, 0, 52, 191, 120, 125, 64, 77, 251, 245, 191, 77, 251, 245, 63, 98, 200, 56, 0, 68, 105, 243, 127, 0, 54, 20, 52, 102, 102, 118, 64, 88, 111, 253, 63, 44, 99, 246, 63, 15, 109, 62, 0, 131, 17, 0, 127, 9, 57, 19, 52, 150, 49, 123, 64, 88, 111, 253, 63, 204, 204, 236, 63, 62, 109, 15, 0, 146, 62, 0, 127, 4, 57, 38, 52, 167, 253, 122, 64, 126, 241, 250, 63, 77, 251, 245, 63, 56, 98, 56, 0, 145, 60, 6, 127, 5, 57, 20, 52, 102, 102, 118, 64, 0, 0, 0, 64, 205, 204, 236, 63, 16, 124, 16, 0, 131, 16, 0, 127, 9, 57, 38, 52, 150, 49, 123, 64, 88, 111, 253, 63, 204, 204, 236, 63, 62, 109, 15, 0, 146, 62, 0, 127, 4, 57, 38, 52, 102, 102, 118, 64, 88, 111, 253, 63, 44, 99, 246, 63, 15, 109, 62, 0, 131, 17, 0, 127, 9, 57, 19, 52, 102, 102, 118, 64, 44, 99, 246, 63, 88, 111, 253, 63, 15, 62, 109, 0, 131, 13, 10, 127, 9, 57, 0, 52, 167, 253, 122, 64, 126, 241, 250, 63, 77, 251, 245, 63, 56, 98, 56, 0, 145, 60, 6, 127, 5, 57, 20, 52, 167, 253, 122, 64, 77, 251, 245, 63, 126, 241, 250, 63, 56, 56, 98, 0, 145, 48, 36, 127, 5, 57, 0, 52, 102, 102, 118, 64, 88, 111, 253, 63, 44, 99, 246, 63, 15, 109, 62, 0, 131, 17, 0, 127, 9, 57, 19, 52, 167, 253, 122, 64, 126, 241, 250, 63, 77, 251, 245, 63, 56, 98, 56, 0, 145, 60, 6, 127, 5, 57, 20, 52, 102, 102, 118, 64, 44, 99, 246, 63, 88, 111, 253, 63, 15, 62, 109, 0, 131, 13, 10, 127, 9, 57, 0, 52, 102, 102, 118, 64, 205, 204, 236, 63, 0, 0, 0, 64, 16, 16, 124, 0, 0, 125, 240, 127, 236, 56, 217, 51, 167, 253, 122, 64, 77, 251, 245, 63, 126, 241, 250, 63, 56, 56, 98, 0, 232, 113, 205, 127, 245, 56, 235, 51, 150, 49, 123, 64, 204, 204, 236, 63, 88, 111, 253, 63, 62, 15, 109, 0, 0, 125, 239, 127, 236, 56, 236, 51, 102, 102, 118, 64, 44, 99, 246, 63, 88, 111, 253, 63, 15, 62, 109, 0, 252, 110, 194, 127, 246, 56, 217, 51, 167, 253, 122, 64, 77, 251, 245, 63, 126, 241, 250, 63, 56, 56, 98, 0, 232, 113, 205, 127, 245, 56, 235, 51, 102, 102, 118, 64, 205, 204, 236, 63, 0, 0, 0, 64, 16, 16, 124, 0, 0, 125, 240, 127, 236, 56, 217, 51, 167, 253, 122, 64, 77, 251, 245, 63, 126, 241, 250, 63, 56, 56, 98, 0, 232, 113, 205, 127, 245, 56, 235, 51, 172, 183, 126, 64, 204, 204, 236, 63, 44, 99, 246, 63, 109, 15, 62, 0, 242, 126, 251, 127, 236, 56, 19, 52, 150, 49, 123, 64, 204, 204, 236, 63, 88, 111, 253, 63, 62, 15, 109, 0, 0, 125, 239, 127, 236, 56, 236, 51, 167, 253, 122, 64, 77, 251, 245, 63, 126, 241, 250, 63, 56, 56, 98, 0, 232, 113, 205, 127, 245, 56, 235, 51, 191, 120, 125, 64, 77, 251, 245, 63, 77, 251, 245, 63, 98, 56, 56, 0, 195, 111, 252, 127, 245, 56, 20, 52, 172, 183, 126, 64, 204, 204, 236, 63, 44, 99, 246, 63, 109, 15, 62, 0, 242, 126, 251, 127, 236, 56, 19, 52, 191, 120, 125, 64, 77, 251, 245, 63, 77, 251, 245, 63, 98, 56, 56, 0, 195, 111, 252, 127, 245, 56, 20, 52, 0, 0, 128, 64, 205, 204, 236, 63, 205, 204, 236, 63, 124, 16, 16, 0, 240, 125, 0, 127, 236, 56, 38, 52, 172, 183, 126, 64, 204, 204, 236, 63, 44, 99, 246, 63, 109, 15, 62, 0, 242, 126, 251, 127, 236, 56, 19, 52, 191, 120, 125, 64, 77, 251, 245, 63, 77, 251, 245, 63, 98, 56, 56, 0, 195, 111, 252, 127, 245, 56, 20, 52, 172, 183, 126, 64, 44, 99, 246, 63, 204, 204, 236, 63, 109, 62, 15, 0, 194, 110, 0, 127, 246, 56, 38, 52, 0, 0, 128, 64, 205, 204, 236, 63, 205, 204, 236, 63, 124, 16, 16, 0, 240, 125, 0, 127, 236, 56, 38, 52, 167, 253, 122, 64, 126, 241, 250, 63, 77, 251, 245, 63, 56, 98, 56, 0, 145, 60, 6, 127, 5, 57, 20, 52, 172, 183, 126, 64, 44, 99, 246, 63, 204, 204, 236, 63, 109, 62, 15, 0, 194, 110, 0, 127, 246, 56, 38, 52, 191, 120, 125, 64, 77, 251, 245, 63, 77, 251, 245, 63, 98, 56, 56, 0, 195, 111, 252, 127, 245, 56, 20, 52, 167, 253, 122, 64, 126, 241, 250, 63, 77, 251, 245, 63, 56, 98, 56, 0, 145, 60, 6, 127, 5, 57, 20, 52, 150, 49, 123, 64, 88, 111, 253, 63, 204, 204, 236, 63, 62, 109, 15, 0, 146, 62, 0, 127, 4, 57, 38, 52, 172, 183, 126, 64, 44, 99, 246, 63, 204, 204, 236, 63, 109, 62, 15, 0, 194, 110, 0, 127, 246, 56, 38, 52, 167, 253, 122, 64, 126, 241, 250, 63, 77, 251, 245, 63, 56, 98, 56, 0, 145, 60, 6, 127, 5, 57, 20, 52, 191, 120, 125, 64, 77, 251, 245, 63, 77, 251, 245, 63, 98, 56, 56, 0, 188, 105, 13, 127, 0, 57, 20, 52, 167, 253, 122, 64, 77, 251, 245, 63, 126, 241, 250, 63, 56, 56, 98, 0, 145, 48, 36, 127, 5, 57, 0, 52, 150, 49, 123, 64, 88, 111, 253, 191, 204, 204, 236, 191, 62, 147, 241, 0, 110, 62, 0, 127, 246, 53, 217, 55, 102, 102, 118, 64, 88, 111, 253, 191, 44, 99, 246, 191, 15, 147, 194, 0, 125, 17, 0, 127, 236, 53, 236, 55, 102, 102, 118, 64, 0, 0, 0, 192, 205, 204, 236, 191, 16, 132, 240, 0, 125, 16, 0, 127, 236, 53, 217, 55, 167, 253, 122, 64, 126, 241, 250, 191, 77, 251, 245, 191, 56, 158, 200, 0, 111, 60, 6, 127, 245, 53, 235, 55, 102, 102, 118, 64, 88, 111, 253, 191, 44, 99, 246, 191, 15, 147, 194, 0, 125, 17, 0, 127, 236, 53, 236, 55, 150, 49, 123, 64, 88, 111, 253, 191, 204, 204, 236, 191, 62, 147, 241, 0, 110, 62, 0, 127, 246, 53, 217, 55, 167, 253, 122, 64, 126, 241, 250, 191, 77, 251, 245, 191, 56, 158, 200, 0, 111, 60, 6, 127, 245, 53, 235, 55, 102, 102, 118, 64, 44, 99, 246, 191, 88, 111, 253, 191, 15, 194, 147, 0, 125, 13, 10, 127, 236, 53, 0, 56, 102, 102, 118, 64, 88, 111, 253, 191, 44, 99, 246, 191, 15, 147, 194, 0, 125, 17, 0, 127, 236, 53, 236, 55, 167, 253, 122, 64, 77, 251, 245, 191, 126, 241, 250, 191, 56, 200, 158, 0, 111, 48, 36, 127, 245, 53, 0, 56, 102, 102, 118, 64, 44, 99, 246, 191, 88, 111, 253, 191, 15, 194, 147, 0, 125, 13, 10, 127, 236, 53, 0, 56, 167, 253, 122, 64, 126, 241, 250, 191, 77, 251, 245, 191, 56, 158, 200, 0, 111, 60, 6, 127, 245, 53, 235, 55, 167, 253, 122, 64, 77, 251, 245, 191, 126, 241, 250, 191, 56, 200, 158, 0, 24, 113, 205, 127, 20, 54, 5, 56, 102, 102, 118, 64, 205, 204, 236, 191, 0, 0, 0, 192, 16, 240, 132, 0, 0, 125, 240, 127, 38, 54, 9, 56, 102, 102, 118, 64, 44, 99, 246, 191, 88, 111, 253, 191, 15, 194, 147, 0, 4, 110, 194, 127, 19, 54, 9, 56, 150, 49, 123, 64, 204, 204, 236, 191, 88, 111, 253, 191, 62, 241, 147, 0, 0, 125, 239, 127, 38, 54, 4, 56, 102, 102, 118, 64, 205, 204, 236, 191, 0, 0, 0, 192, 16, 240, 132, 0, 0, 125, 240, 127, 38, 54, 9, 56, 167, 253, 122, 64, 77, 251, 245, 191, 126, 241, 250, 191, 56, 200, 158, 0, 24, 113, 205, 127, 20, 54, 5, 56, 172, 183, 126, 64, 204, 204, 236, 191, 44, 99, 246, 191, 109, 241, 194, 0, 14, 126, 251, 127, 38, 54, 236, 55, 167, 253, 122, 64, 77, 251, 245, 191, 126, 241, 250, 191, 56, 200, 158, 0, 24, 113, 205, 127, 20, 54, 5, 56, 191, 120, 125, 64, 77, 251, 245, 191, 77, 251, 245, 191, 98, 200, 200, 0, 61, 111, 252, 127, 20, 54, 235, 55, 172, 183, 126, 64, 204, 204, 236, 191, 44, 99, 246, 191, 109, 241, 194, 0, 14, 126, 251, 127, 38, 54, 236, 55, 150, 49, 123, 64, 204, 204, 236, 191, 88, 111, 253, 191, 62, 241, 147, 0, 0, 125, 239, 127, 38, 54, 4, 56, 167, 253, 122, 64, 77, 251, 245, 191, 126, 241, 250, 191, 56, 200, 158, 0, 24, 113, 205, 127, 20, 54, 5, 56, 0, 0, 128, 64, 205, 204, 236, 191, 205, 204, 236, 191, 124, 240, 240, 0, 16, 125, 0, 127, 38, 54, 217, 55, 191, 120, 125, 64, 77, 251, 245, 191, 77, 251, 245, 191, 98, 200, 200, 0, 61, 111, 252, 127, 20, 54, 235, 55, 172, 183, 126, 64, 44, 99, 246, 191, 204, 204, 236, 191, 109, 194, 241, 0, 62, 110, 0, 127, 19, 54, 217, 55, 0, 0, 128, 64, 205, 204, 236, 191, 205, 204, 236, 191, 124, 240, 240, 0, 16, 125, 0, 127, 38, 54, 217, 55, 172, 183, 126, 64, 204, 204, 236, 191, 44, 99, 246, 191, 109, 241, 194, 0, 14, 126, 251, 127, 38, 54, 236, 55, 191, 120, 125, 64, 77, 251, 245, 191, 77, 251, 245, 191, 98, 200, 200, 0, 61, 111, 252, 127, 20, 54, 235, 55, 172, 183, 126, 64, 44, 99, 246, 191, 204, 204, 236, 191, 109, 194, 241, 0, 62, 110, 0, 127, 19, 54, 217, 55, 167, 253, 122, 64, 126, 241, 250, 191, 77, 251, 245, 191, 56, 158, 200, 0, 111, 60, 6, 127, 245, 53, 235, 55, 150, 49, 123, 64, 88, 111, 253, 191, 204, 204, 236, 191, 62, 147, 241, 0, 110, 62, 0, 127, 246, 53, 217, 55, 172, 183, 126, 64, 44, 99, 246, 191, 204, 204, 236, 191, 109, 194, 241, 0, 62, 110, 0, 127, 19, 54, 217, 55, 191, 120, 125, 64, 77, 251, 245, 191, 77, 251, 245, 191, 98, 200, 200, 0, 61, 111, 252, 127, 20, 54, 235, 55, 167, 253, 122, 64, 126, 241, 250, 191, 77, 251, 245, 191, 56, 158, 200, 0, 111, 60, 6, 127, 245, 53, 235, 55, 167, 253, 122, 64, 126, 241, 250, 191, 77, 251, 245, 191, 56, 158, 200, 0, 111, 60, 6, 127, 245, 53, 235, 55, 191, 120, 125, 64, 77, 251, 245, 191, 77, 251, 245, 191, 98, 200, 200, 0, 68, 105, 13, 127, 0, 54, 235, 55, 167, 253, 122, 64, 77, 251, 245, 191, 126, 241, 250, 191, 56, 200, 158, 0, 111, 48, 36, 127, 245, 53, 0, 56, 150, 49, 123, 64, 88, 111, 253, 63, 204, 204, 236, 191, 62, 109, 241, 0, 146, 62, 0, 127, 4, 57, 217, 55, 102, 102, 118, 64, 88, 111, 253, 63, 44, 99, 246, 191, 15, 109, 194, 0, 131, 16, 254, 127, 9, 57, 236, 55, 167, 253, 122, 64, 126, 241, 250, 63, 77, 251, 245, 191, 56, 98, 200, 0, 147, 63, 0, 127, 5, 57, 235, 55, 150, 49, 123, 64, 88, 111, 253, 63, 204, 204, 236, 191, 62, 109, 241, 0, 146, 62, 0, 127, 4, 57, 217, 55, 102, 102, 118, 64, 0, 0, 0, 64, 205, 204, 236, 191, 16, 124, 240, 0, 131, 16, 0, 127, 9, 57, 217, 55, 102, 102, 118, 64, 88, 111, 253, 63, 44, 99, 246, 191, 15, 109, 194, 0, 131, 16, 254, 127, 9, 57, 236, 55, 172, 183, 126, 64, 44, 99, 246, 63, 204, 204, 236, 191, 109, 62, 241, 0, 194, 110, 0, 127, 246, 56, 217, 55, 167, 253, 122, 64, 126, 241, 250, 63, 77, 251, 245, 191, 56, 98, 200, 0, 147, 63, 0, 127, 5, 57, 235, 55, 191, 120, 125, 64, 77, 251, 245, 63, 77, 251, 245, 191, 98, 56, 200, 0, 195, 111, 4, 127, 245, 56, 235, 55, 150, 49, 123, 64, 88, 111, 253, 63, 204, 204, 236, 191, 62, 109, 241, 0, 146, 62, 0, 127, 4, 57, 217, 55, 167, 253, 122, 64, 126, 241, 250, 63, 77, 251, 245, 191, 56, 98, 200, 0, 147, 63, 0, 127, 5, 57, 235, 55, 172, 183, 126, 64, 44, 99, 246, 63, 204, 204, 236, 191, 109, 62, 241, 0, 194, 110, 0, 127, 246, 56, 217, 55, 0, 0, 128, 64, 205, 204, 236, 63, 205, 204, 236, 191, 124, 16, 240, 0, 240, 125, 0, 127, 236, 56, 217, 55, 191, 120, 125, 64, 77, 251, 245, 63, 77, 251, 245, 191, 98, 56, 200, 0, 195, 111, 4, 127, 245, 56, 235, 55, 172, 183, 126, 64, 204, 204, 236, 63, 44, 99, 246, 191, 109, 15, 194, 0, 242, 126, 5, 127, 236, 56, 236, 55, 172, 183, 126, 64, 44, 99, 246, 63, 204, 204, 236, 191, 109, 62, 241, 0, 194, 110, 0, 127, 246, 56, 217, 55, 191, 120, 125, 64, 77, 251, 245, 63, 77, 251, 245, 191, 98, 56, 200, 0, 195, 111, 4, 127, 245, 56, 235, 55, 0, 0, 128, 64, 205, 204, 236, 63, 205, 204, 236, 191, 124, 16, 240, 0, 240, 125, 0, 127, 236, 56, 217, 55, 172, 183, 126, 64, 204, 204, 236, 63, 44, 99, 246, 191, 109, 15, 194, 0, 242, 126, 5, 127, 236, 56, 236, 55, 167, 253, 122, 64, 77, 251, 245, 63, 126, 241, 250, 191, 56, 56, 158, 0, 245, 112, 58, 127, 245, 56, 5, 56, 150, 49, 123, 64, 204, 204, 236, 63, 88, 111, 253, 191, 62, 15, 147, 0, 0, 125, 17, 127, 236, 56, 4, 56, 191, 120, 125, 64, 77, 251, 245, 63, 77, 251, 245, 191, 98, 56, 200, 0, 195, 111, 4, 127, 245, 56, 235, 55, 167, 253, 122, 64, 77, 251, 245, 63, 126, 241, 250, 191, 56, 56, 158, 0, 245, 112, 58, 127, 245, 56, 5, 56, 172, 183, 126, 64, 204, 204, 236, 63, 44, 99, 246, 191, 109, 15, 194, 0, 242, 126, 5, 127, 236, 56, 236, 55, 167, 253, 122, 64, 77, 251, 245, 63, 126, 241, 250, 191, 56, 56, 158, 0, 245, 112, 58, 127, 245, 56, 5, 56, 102, 102, 118, 64, 205, 204, 236, 63, 0, 0, 0, 192, 16, 16, 132, 0, 0, 125, 16, 127, 236, 56, 9, 56, 150, 49, 123, 64, 204, 204, 236, 63, 88, 111, 253, 191, 62, 15, 147, 0, 0, 125, 17, 127, 236, 56, 4, 56, 167, 253, 122, 64, 77, 251, 245, 63, 126, 241, 250, 191, 56, 56, 158, 0, 245, 112, 58, 127, 245, 56, 5, 56, 102, 102, 118, 64, 44, 99, 246, 63, 88, 111, 253, 191, 15, 62, 147, 0, 255, 110, 62, 127, 246, 56, 9, 56, 102, 102, 118, 64, 205, 204, 236, 63, 0, 0, 0, 192, 16, 16, 132, 0, 0, 125, 16, 127, 236, 56, 9, 56, 167, 253, 122, 64, 126, 241, 250, 63, 77, 251, 245, 191, 56, 98, 200, 0, 243, 68, 105, 127, 0, 57, 5, 56, 102, 102, 118, 64, 44, 99, 246, 63, 88, 111, 253, 191, 15, 62, 147, 0, 255, 110, 62, 127, 246, 56, 9, 56, 167, 253, 122, 64, 77, 251, 245, 63, 126, 241, 250, 191, 56, 56, 158, 0, 245, 112, 58, 127, 245, 56, 5, 56, 167, 253, 122, 64, 126, 241, 250, 63, 77, 251, 245, 191, 56, 98, 200, 0, 243, 68, 105, 127, 0, 57, 5, 56, 102, 102, 118, 64, 88, 111, 253, 63, 44, 99, 246, 191, 15, 109, 194, 0, 252, 63, 110, 127, 0, 57, 9, 56, 102, 102, 118, 64, 44, 99, 246, 63, 88, 111, 253, 191, 15, 62, 147, 0, 255, 110, 62, 127, 246, 56, 9, 56, 167, 253, 122, 64, 126, 241, 250, 63, 77, 251, 245, 191, 56, 98, 200, 0, 151, 68, 13, 127, 5, 57, 235, 55, 167, 253, 122, 64, 77, 251, 245, 63, 126, 241, 250, 191, 56, 56, 158, 0, 167, 89, 0, 127, 5, 57, 0, 56, 191, 120, 125, 64, 77, 251, 245, 63, 77, 251, 245, 191, 98, 56, 200, 0, 188, 105, 243, 127, 0, 57, 235, 55, 150, 49, 123, 192, 88, 111, 253, 191, 204, 204, 236, 191, 194, 147, 241, 0, 110, 194, 0, 127, 19, 48, 217, 55, 102, 102, 118, 192, 0, 0, 0, 192, 205, 204, 236, 63, 240, 132, 16, 0, 125, 240, 0, 127, 38, 48, 38, 52, 102, 102, 118, 192, 0, 0, 0, 192, 205, 204, 236, 191, 240, 132, 240, 0, 125, 240, 0, 127, 38, 48, 217, 55, 150, 49, 123, 192, 88, 111, 253, 191, 204, 204, 236, 191, 194, 147, 241, 0, 110, 194, 0, 127, 19, 48, 217, 55, 150, 49, 123, 192, 88, 111, 253, 191, 204, 204, 236, 63, 194, 147, 15, 0, 110, 194, 1, 127, 19, 48, 38, 52, 102, 102, 118, 192, 0, 0, 0, 192, 205, 204, 236, 63, 240, 132, 16, 0, 125, 240, 0, 127, 38, 48, 38, 52, 172, 183, 126, 192, 44, 99, 246, 191, 204, 204, 236, 191, 147, 194, 241, 0, 63, 146, 252, 127, 0, 48, 217, 55, 150, 49, 123, 192, 88, 111, 253, 191, 204, 204, 236, 63, 194, 147, 15, 0, 110, 194, 1, 127, 19, 48, 38, 52, 150, 49, 123, 192, 88, 111, 253, 191, 204, 204, 236, 191, 194, 147, 241, 0, 110, 194, 0, 127, 19, 48, 217, 55, 172, 183, 126, 192, 44, 99, 246, 191, 204, 204, 236, 191, 147, 194, 241, 0, 63, 146, 252, 127, 0, 48, 217, 55, 172, 183, 126, 192, 44, 99, 246, 191, 204, 204, 236, 63, 147, 194, 15, 0, 63, 146, 4, 127, 0, 48, 38, 52, 150, 49, 123, 192, 88, 111, 253, 191, 204, 204, 236, 63, 194, 147, 15, 0, 110, 194, 1, 127, 19, 48, 38, 52, 0, 0, 128, 192, 205, 204, 236, 191, 205, 204, 236, 191, 132, 240, 240, 0, 240, 125, 0, 127, 38, 54, 19, 58, 172, 183, 126, 192, 44, 99, 246, 191, 204, 204, 236, 63, 147, 194, 15, 0, 194, 110, 1, 127, 19, 54, 236, 59, 172, 183, 126, 192, 44, 99, 246, 191, 204, 204, 236, 191, 147, 194, 241, 0, 194, 110, 252, 127, 19, 54, 19, 58, 0, 0, 128, 192, 205, 204, 236, 191, 205, 204, 236, 191, 132, 240, 240, 0, 240, 125, 0, 127, 38, 54, 19, 58, 0, 0, 128, 192, 205, 204, 236, 191, 205, 204, 236, 63, 132, 240, 16, 0, 240, 125, 0, 127, 38, 54, 236, 59, 172, 183, 126, 192, 44, 99, 246, 191, 204, 204, 236, 63, 147, 194, 15, 0, 194, 110, 1, 127, 19, 54, 236, 59, 150, 49, 123, 192, 204, 204, 236, 191, 88, 111, 253, 63, 194, 241, 109, 0, 0, 125, 17, 127, 38, 54, 206, 24, 102, 102, 118, 192, 205, 204, 236, 63, 0, 0, 0, 64, 240, 16, 124, 0, 0, 125, 240, 127, 236, 56, 204, 28, 102, 102, 118, 192, 205, 204, 236, 191, 0, 0, 0, 64, 240, 240, 124, 0, 0, 125, 16, 127, 38, 54, 204, 28, 150, 49, 123, 192, 204, 204, 236, 63, 88, 111, 253, 63, 194, 15, 109, 0, 2, 125, 240, 127, 236, 56, 206, 24, 102, 102, 118, 192, 205, 204, 236, 63, 0, 0, 0, 64, 240, 16, 124, 0, 0, 125, 240, 127, 236, 56, 204, 28, 150, 49, 123, 192, 204, 204, 236, 191, 88, 111, 253, 63, 194, 241, 109, 0, 0, 125, 17, 127, 38, 54, 206, 24, 172, 183, 126, 192, 204, 204, 236, 63, 44, 99, 246, 63, 147, 15, 62, 0, 13, 126, 249, 127, 236, 56, 0, 0, 150, 49, 123, 192, 204, 204, 236, 191, 88, 111, 253, 63, 194, 241, 109, 0, 0, 125, 17, 127, 38, 54, 206, 24, 172, 183, 126, 192, 204, 204, 236, 191, 44, 99, 246, 63, 147, 241, 62, 0, 246, 125, 13, 127, 38, 54, 0, 0, 172, 183, 126, 192, 204, 204, 236, 63, 44, 99, 246, 63, 147, 15, 62, 0, 13, 126, 249, 127, 236, 56, 0, 0, 150, 49, 123, 192, 204, 204, 236, 63, 88, 111, 253, 63, 194, 15, 109, 0, 2, 125, 240, 127, 236, 56, 206, 24, 150, 49, 123, 192, 204, 204, 236, 191, 88, 111, 253, 63, 194, 241, 109, 0, 0, 125, 17, 127, 38, 54, 206, 24, 0, 0, 128, 192, 205, 204, 236, 63, 205, 204, 236, 63, 132, 16, 16, 0, 16, 125, 0, 127, 236, 56, 236, 59, 172, 183, 126, 192, 204, 204, 236, 191, 44, 99, 246, 63, 147, 241, 62, 0, 239, 125, 0, 127, 38, 54, 246, 59, 0, 0, 128, 192, 205, 204, 236, 191, 205, 204, 236, 63, 132, 240, 16, 0, 240, 125, 0, 127, 38, 54, 236, 59, 0, 0, 128, 192, 205, 204, 236, 63, 205, 204, 236, 63, 132, 16, 16, 0, 16, 125, 0, 127, 236, 56, 236, 59, 172, 183, 126, 192, 204, 204, 236, 63, 44, 99, 246, 63, 147, 15, 62, 0, 14, 126, 252, 127, 236, 56, 246, 59, 172, 183, 126, 192, 204, 204, 236, 191, 44, 99, 246, 63, 147, 241, 62, 0, 239, 125, 0, 127, 38, 54, 246, 59, 102, 102, 118, 192, 0, 0, 0, 64, 205, 204, 236, 191, 240, 124, 240, 0, 131, 240, 0, 127, 246, 58, 217, 55, 150, 49, 123, 192, 88, 111, 253, 63, 204, 204, 236, 63, 194, 109, 15, 0, 146, 194, 0, 127, 251, 58, 38, 52, 150, 49, 123, 192, 88, 111, 253, 63, 204, 204, 236, 191, 194, 109, 241, 0, 146, 194, 1, 127, 251, 58, 217, 55, 102, 102, 118, 192, 0, 0, 0, 64, 205, 204, 236, 191, 240, 124, 240, 0, 131, 240, 0, 127, 246, 58, 217, 55, 102, 102, 118, 192, 0, 0, 0, 64, 205, 204, 236, 63, 240, 124, 16, 0, 131, 240, 0, 127, 246, 58, 38, 52, 150, 49, 123, 192, 88, 111, 253, 63, 204, 204, 236, 63, 194, 109, 15, 0, 146, 194, 0, 127, 251, 58, 38, 52, 150, 49, 123, 192, 88, 111, 253, 63, 204, 204, 236, 191, 194, 109, 241, 0, 146, 194, 1, 127, 251, 58, 217, 55, 172, 183, 126, 192, 44, 99, 246, 63, 204, 204, 236, 63, 147, 62, 15, 0, 193, 146, 252, 127, 0, 59, 38, 52, 172, 183, 126, 192, 44, 99, 246, 63, 204, 204, 236, 191, 147, 62, 241, 0, 193, 146, 4, 127, 0, 59, 217, 55, 150, 49, 123, 192, 88, 111, 253, 63, 204, 204, 236, 191, 194, 109, 241, 0, 146, 194, 1, 127, 251, 58, 217, 55, 150, 49, 123, 192, 88, 111, 253, 63, 204, 204, 236, 63, 194, 109, 15, 0, 146, 194, 0, 127, 251, 58, 38, 52, 172, 183, 126, 192, 44, 99, 246, 63, 204, 204, 236, 63, 147, 62, 15, 0, 193, 146, 252, 127, 0, 59, 38, 52, 172, 183, 126, 192, 44, 99, 246, 63, 204, 204, 236, 191, 147, 62, 241, 0, 62, 110, 1, 127, 246, 56, 19, 58, 0, 0, 128, 192, 205, 204, 236, 63, 205, 204, 236, 63, 132, 16, 16, 0, 16, 125, 0, 127, 236, 56, 236, 59, 0, 0, 128, 192, 205, 204, 236, 63, 205, 204, 236, 191, 132, 16, 240, 0, 16, 125, 0, 127, 236, 56, 19, 58, 172, 183, 126, 192, 44, 99, 246, 63, 204, 204, 236, 191, 147, 62, 241, 0, 62, 110, 1, 127, 246, 56, 19, 58, 172, 183, 126, 192, 44, 99, 246, 63, 204, 204, 236, 63, 147, 62, 15, 0, 62, 110, 252, 127, 246, 56, 236, 59, 0, 0, 128, 192, 205, 204, 236, 63, 205, 204, 236, 63, 132, 16, 16, 0, 16, 125, 0, 127, 236, 56, 236, 59, 102, 102, 118, 192, 205, 204, 236, 63, 0, 0, 0, 192, 240, 16, 132, 0, 0, 125, 16, 127, 236, 56, 246, 57, 150, 49, 123, 192, 204, 204, 236, 191, 88, 111, 253, 191, 194, 241, 147, 0, 0, 125, 239, 127, 38, 54, 251, 57, 102, 102, 118, 192, 205, 204, 236, 191, 0, 0, 0, 192, 240, 240, 132, 0, 0, 125, 240, 127, 38, 54, 246, 57, 102, 102, 118, 192, 205, 204, 236, 63, 0, 0, 0, 192, 240, 16, 132, 0, 0, 125, 16, 127, 236, 56, 246, 57, 150, 49, 123, 192, 204, 204, 236, 63, 88, 111, 253, 191, 194, 15, 147, 0, 0, 125, 17, 127, 236, 56, 251, 57, 150, 49, 123, 192, 204, 204, 236, 191, 88, 111, 253, 191, 194, 241, 147, 0, 0, 125, 239, 127, 38, 54, 251, 57, 150, 49, 123, 192, 204, 204, 236, 63, 88, 111, 253, 191, 194, 15, 147, 0, 0, 125, 17, 127, 236, 56, 251, 57, 172, 183, 126, 192, 204, 204, 236, 191, 44, 99, 246, 191, 147, 241, 194, 0, 242, 126, 251, 127, 38, 54, 9, 58, 150, 49, 123, 192, 204, 204, 236, 191, 88, 111, 253, 191, 194, 241, 147, 0, 0, 125, 239, 127, 38, 54, 251, 57, 150, 49, 123, 192, 204, 204, 236, 63, 88, 111, 253, 191, 194, 15, 147, 0, 0, 125, 17, 127, 236, 56, 251, 57, 172, 183, 126, 192, 204, 204, 236, 63, 44, 99, 246, 191, 147, 15, 194, 0, 14, 126, 5, 127, 236, 56, 9, 58, 172, 183, 126, 192, 204, 204, 236, 191, 44, 99, 246, 191, 147, 241, 194, 0, 242, 126, 251, 127, 38, 54, 9, 58, 172, 183, 126, 192, 204, 204, 236, 191, 44, 99, 246, 191, 147, 241, 194, 0, 242, 126, 251, 127, 38, 54, 9, 58, 0, 0, 128, 192, 205, 204, 236, 63, 205, 204, 236, 191, 132, 16, 240, 0, 16, 125, 0, 127, 236, 56, 19, 58, 0, 0, 128, 192, 205, 204, 236, 191, 205, 204, 236, 191, 132, 240, 240, 0, 240, 125, 0, 127, 38, 54, 19, 58, 172, 183, 126, 192, 204, 204, 236, 63, 44, 99, 246, 191, 147, 15, 194, 0, 14, 126, 5, 127, 236, 56, 9, 58, 0, 0, 128, 192, 205, 204, 236, 63, 205, 204, 236, 191, 132, 16, 240, 0, 16, 125, 0, 127, 236, 56, 19, 58, 172, 183, 126, 192, 204, 204, 236, 191, 44, 99, 246, 191, 147, 241, 194, 0, 242, 126, 251, 127, 38, 54, 9, 58, 102, 102, 118, 64, 88, 111, 253, 191, 44, 99, 246, 191, 15, 147, 194, 0, 125, 17, 0, 127, 236, 53, 236, 55, 102, 102, 118, 192, 0, 0, 0, 192, 205, 204, 236, 191, 240, 132, 240, 0, 125, 240, 0, 127, 38, 48, 217, 55, 102, 102, 118, 64, 0, 0, 0, 192, 205, 204, 236, 191, 16, 132, 240, 0, 125, 16, 0, 127, 236, 53, 217, 55, 102, 102, 118, 64, 88, 111, 253, 191, 44, 99, 246, 191, 15, 147, 194, 0, 125, 17, 0, 127, 236, 53, 236, 55, 102, 102, 118, 192, 88, 111, 253, 191, 44, 99, 246, 191, 241, 147, 194, 0, 125, 240, 254, 127, 38, 48, 236, 55, 102, 102, 118, 192, 0, 0, 0, 192, 205, 204, 236, 191, 240, 132, 240, 0, 125, 240, 0, 127, 38, 48, 217, 55, 102, 102, 118, 64, 44, 99, 246, 191, 88, 111, 253, 191, 15, 194, 147, 0, 125, 13, 10, 127, 236, 53, 0, 56, 102, 102, 118, 192, 88, 111, 253, 191, 44, 99, 246, 191, 241, 147, 194, 0, 125, 240, 254, 127, 38, 48, 236, 55, 102, 102, 118, 64, 88, 111, 253, 191, 44, 99, 246, 191, 15, 147, 194, 0, 125, 17, 0, 127, 236, 53, 236, 55, 102, 102, 118, 64, 44, 99, 246, 191, 88, 111, 253, 191, 15, 194, 147, 0, 125, 13, 10, 127, 236, 53, 0, 56, 102, 102, 118, 192, 44, 99, 246, 191, 88, 111, 253, 191, 241, 194, 147, 0, 126, 249, 243, 127, 38, 48, 0, 56, 102, 102, 118, 192, 88, 111, 253, 191, 44, 99, 246, 191, 241, 147, 194, 0, 125, 240, 254, 127, 38, 48, 236, 55, 102, 102, 118, 64, 205, 204, 236, 191, 0, 0, 0, 192, 16, 240, 132, 0, 0, 125, 240, 127, 38, 54, 9, 56, 102, 102, 118, 192, 44, 99, 246, 191, 88, 111, 253, 191, 241, 194, 147, 0, 255, 110, 194, 127, 19, 54, 246, 57, 102, 102, 118, 64, 44, 99, 246, 191, 88, 111, 253, 191, 15, 194, 147, 0, 4, 110, 194, 127, 19, 54, 9, 56, 102, 102, 118, 64, 205, 204, 236, 191, 0, 0, 0, 192, 16, 240, 132, 0, 0, 125, 240, 127, 38, 54, 9, 56, 102, 102, 118, 192, 205, 204, 236, 191, 0, 0, 0, 192, 240, 240, 132, 0, 0, 125, 240, 127, 38, 54, 246, 57, 102, 102, 118, 192, 44, 99, 246, 191, 88, 111, 253, 191, 241, 194, 147, 0, 255, 110, 194, 127, 19, 54, 246, 57, 102, 102, 118, 64, 0, 0, 0, 64, 205, 204, 236, 191, 16, 124, 240, 0, 131, 16, 0, 127, 9, 57, 217, 55, 102, 102, 118, 192, 88, 111, 253, 63, 44, 99, 246, 191, 241, 109, 194, 0, 131, 239, 0, 127, 246, 58, 236, 55, 102, 102, 118, 64, 88, 111, 253, 63, 44, 99, 246, 191, 15, 109, 194, 0, 131, 16, 254, 127, 9, 57, 236, 55, 102, 102, 118, 64, 0, 0, 0, 64, 205, 204, 236, 191, 16, 124, 240, 0, 131, 16, 0, 127, 9, 57, 217, 55, 102, 102, 118, 192, 0, 0, 0, 64, 205, 204, 236, 191, 240, 124, 240, 0, 131, 240, 0, 127, 246, 58, 217, 55, 102, 102, 118, 192, 88, 111, 253, 63, 44, 99, 246, 191, 241, 109, 194, 0, 131, 239, 0, 127, 246, 58, 236, 55, 102, 102, 118, 64, 88, 111, 253, 63, 44, 99, 246, 191, 15, 109, 194, 0, 131, 16, 254, 127, 9, 57, 236, 55, 102, 102, 118, 192, 44, 99, 246, 63, 88, 111, 253, 191, 241, 62, 147, 0, 131, 243, 10, 127, 246, 58, 0, 56, 102, 102, 118, 64, 44, 99, 246, 63, 88, 111, 253, 191, 15, 62, 147, 0, 130, 7, 243, 127, 9, 57, 0, 56, 102, 102, 118, 64, 88, 111, 253, 63, 44, 99, 246, 191, 15, 109, 194, 0, 131, 16, 254, 127, 9, 57, 236, 55, 102, 102, 118, 192, 88, 111, 253, 63, 44, 99, 246, 191, 241, 109, 194, 0, 131, 239, 0, 127, 246, 58, 236, 55, 102, 102, 118, 192, 44, 99, 246, 63, 88, 111, 253, 191, 241, 62, 147, 0, 131, 243, 10, 127, 246, 58, 0, 56, 102, 102, 118, 64, 44, 99, 246, 63, 88, 111, 253, 191, 15, 62, 147, 0, 255, 110, 62, 127, 246, 56, 9, 56, 102, 102, 118, 192, 205, 204, 236, 63, 0, 0, 0, 192, 240, 16, 132, 0, 0, 125, 16, 127, 236, 56, 246, 57, 102, 102, 118, 64, 205, 204, 236, 63, 0, 0, 0, 192, 16, 16, 132, 0, 0, 125, 16, 127, 236, 56, 9, 56, 102, 102, 118, 64, 44, 99, 246, 63, 88, 111, 253, 191, 15, 62, 147, 0, 255, 110, 62, 127, 246, 56, 9, 56, 102, 102, 118, 192, 44, 99, 246, 63, 88, 111, 253, 191, 241, 62, 147, 0, 4, 110, 62, 127, 246, 56, 246, 57, 102, 102, 118, 192, 205, 204, 236, 63, 0, 0, 0, 192, 240, 16, 132, 0, 0, 125, 16, 127, 236, 56, 246, 57, 0, 0, 128, 64, 205, 204, 236, 63, 205, 204, 236, 191, 124, 16, 240, 0, 240, 125, 0, 127, 236, 56, 217, 55, 172, 183, 126, 64, 204, 204, 236, 191, 44, 99, 246, 191, 109, 241, 194, 0, 14, 126, 251, 127, 38, 54, 236, 55, 0, 0, 128, 64, 205, 204, 236, 191, 205, 204, 236, 191, 124, 240, 240, 0, 16, 125, 0, 127, 38, 54, 217, 55, 0, 0, 128, 64, 205, 204, 236, 63, 205, 204, 236, 191, 124, 16, 240, 0, 240, 125, 0, 127, 236, 56, 217, 55, 172, 183, 126, 64, 204, 204, 236, 63, 44, 99, 246, 191, 109, 15, 194, 0, 242, 126, 5, 127, 236, 56, 236, 55, 172, 183, 126, 64, 204, 204, 236, 191, 44, 99, 246, 191, 109, 241, 194, 0, 14, 126, 251, 127, 38, 54, 236, 55, 172, 183, 126, 64, 204, 204, 236, 63, 44, 99, 246, 191, 109, 15, 194, 0, 242, 126, 5, 127, 236, 56, 236, 55, 150, 49, 123, 64, 204, 204, 236, 191, 88, 111, 253, 191, 62, 241, 147, 0, 0, 125, 239, 127, 38, 54, 4, 56, 172, 183, 126, 64, 204, 204, 236, 191, 44, 99, 246, 191, 109, 241, 194, 0, 14, 126, 251, 127, 38, 54, 236, 55, 172, 183, 126, 64, 204, 204, 236, 63, 44, 99, 246, 191, 109, 15, 194, 0, 242, 126, 5, 127, 236, 56, 236, 55, 150, 49, 123, 64, 204, 204, 236, 63, 88, 111, 253, 191, 62, 15, 147, 0, 0, 125, 17, 127, 236, 56, 4, 56, 150, 49, 123, 64, 204, 204, 236, 191, 88, 111, 253, 191, 62, 241, 147, 0, 0, 125, 239, 127, 38, 54, 4, 56, 150, 49, 123, 64, 204, 204, 236, 191, 88, 111, 253, 191, 62, 241, 147, 0, 0, 125, 239, 127, 38, 54, 4, 56, 102, 102, 118, 64, 205, 204, 236, 63, 0, 0, 0, 192, 16, 16, 132, 0, 0, 125, 16, 127, 236, 56, 9, 56, 102, 102, 118, 64, 205, 204, 236, 191, 0, 0, 0, 192, 16, 240, 132, 0, 0, 125, 240, 127, 38, 54, 9, 56, 150, 49, 123, 64, 204, 204, 236, 63, 88, 111, 253, 191, 62, 15, 147, 0, 0, 125, 17, 127, 236, 56, 4, 56, 102, 102, 118, 64, 205, 204, 236, 63, 0, 0, 0, 192, 16, 16, 132, 0, 0, 125, 16, 127, 236, 56, 9, 56, 150, 49, 123, 64, 204, 204, 236, 191, 88, 111, 253, 191, 62, 241, 147, 0, 0, 125, 239, 127, 38, 54, 4, 56, 150, 49, 123, 64, 88, 111, 253, 191, 204, 204, 236, 63, 62, 147, 15, 0, 110, 62, 0, 127, 246, 53, 38, 52, 102, 102, 118, 64, 0, 0, 0, 192, 205, 204, 236, 191, 16, 132, 240, 0, 125, 16, 0, 127, 236, 53, 217, 55, 102, 102, 118, 64, 0, 0, 0, 192, 205, 204, 236, 63, 16, 132, 16, 0, 125, 16, 0, 127, 236, 53, 38, 52, 150, 49, 123, 64, 88, 111, 253, 191, 204, 204, 236, 63, 62, 147, 15, 0, 110, 62, 0, 127, 246, 53, 38, 52, 150, 49, 123, 64, 88, 111, 253, 191, 204, 204, 236, 191, 62, 147, 241, 0, 110, 62, 0, 127, 246, 53, 217, 55, 102, 102, 118, 64, 0, 0, 0, 192, 205, 204, 236, 191, 16, 132, 240, 0, 125, 16, 0, 127, 236, 53, 217, 55, 172, 183, 126, 64, 44, 99, 246, 191, 204, 204, 236, 63, 109, 194, 15, 0, 62, 110, 0, 127, 19, 54, 38, 52, 150, 49, 123, 64, 88, 111, 253, 191, 204, 204, 236, 191, 62, 147, 241, 0, 110, 62, 0, 127, 246, 53, 217, 55, 150, 49, 123, 64, 88, 111, 253, 191, 204, 204, 236, 63, 62, 147, 15, 0, 110, 62, 0, 127, 246, 53, 38, 52, 172, 183, 126, 64, 44, 99, 246, 191, 204, 204, 236, 63, 109, 194, 15, 0, 62, 110, 0, 127, 19, 54, 38, 52, 172, 183, 126, 64, 44, 99, 246, 191, 204, 204, 236, 191, 109, 194, 241, 0, 62, 110, 0, 127, 19, 54, 217, 55, 150, 49, 123, 64, 88, 111, 253, 191, 204, 204, 236, 191, 62, 147, 241, 0, 110, 62, 0, 127, 246, 53, 217, 55, 0, 0, 128, 64, 205, 204, 236, 191, 205, 204, 236, 63, 124, 240, 16, 0, 16, 125, 0, 127, 38, 54, 38, 52, 172, 183, 126, 64, 44, 99, 246, 191, 204, 204, 236, 191, 109, 194, 241, 0, 62, 110, 0, 127, 19, 54, 217, 55, 172, 183, 126, 64, 44, 99, 246, 191, 204, 204, 236, 63, 109, 194, 15, 0, 62, 110, 0, 127, 19, 54, 38, 52, 0, 0, 128, 64, 205, 204, 236, 191, 205, 204, 236, 63, 124, 240, 16, 0, 16, 125, 0, 127, 38, 54, 38, 52, 0, 0, 128, 64, 205, 204, 236, 191, 205, 204, 236, 191, 124, 240, 240, 0, 16, 125, 0, 127, 38, 54, 217, 55, 172, 183, 126, 64, 44, 99, 246, 191, 204, 204, 236, 191, 109, 194, 241, 0, 62, 110, 0, 127, 19, 54, 217, 55, 102, 102, 118, 64, 0, 0, 0, 64, 205, 204, 236, 63, 16, 124, 16, 0, 131, 16, 0, 127, 9, 57, 38, 52, 150, 49, 123, 64, 88, 111, 253, 63, 204, 204, 236, 191, 62, 109, 241, 0, 146, 62, 0, 127, 4, 57, 217, 55, 150, 49, 123, 64, 88, 111, 253, 63, 204, 204, 236, 63, 62, 109, 15, 0, 146, 62, 0, 127, 4, 57, 38, 52, 102, 102, 118, 64, 0, 0, 0, 64, 205, 204, 236, 63, 16, 124, 16, 0, 131, 16, 0, 127, 9, 57, 38, 52, 102, 102, 118, 64, 0, 0, 0, 64, 205, 204, 236, 191, 16, 124, 240, 0, 131, 16, 0, 127, 9, 57, 217, 55, 150, 49, 123, 64, 88, 111, 253, 63, 204, 204, 236, 191, 62, 109, 241, 0, 146, 62, 0, 127, 4, 57, 217, 55, 150, 49, 123, 64, 88, 111, 253, 63, 204, 204, 236, 63, 62, 109, 15, 0, 146, 62, 0, 127, 4, 57, 38, 52, 172, 183, 126, 64, 44, 99, 246, 63, 204, 204, 236, 191, 109, 62, 241, 0, 194, 110, 0, 127, 246, 56, 217, 55, 172, 183, 126, 64, 44, 99, 246, 63, 204, 204, 236, 63, 109, 62, 15, 0, 194, 110, 0, 127, 246, 56, 38, 52, 150, 49, 123, 64, 88, 111, 253, 63, 204, 204, 236, 63, 62, 109, 15, 0, 146, 62, 0, 127, 4, 57, 38, 52, 150, 49, 123, 64, 88, 111, 253, 63, 204, 204, 236, 191, 62, 109, 241, 0, 146, 62, 0, 127, 4, 57, 217, 55, 172, 183, 126, 64, 44, 99, 246, 63, 204, 204, 236, 191, 109, 62, 241, 0, 194, 110, 0, 127, 246, 56, 217, 55, 172, 183, 126, 64, 44, 99, 246, 63, 204, 204, 236, 63, 109, 62, 15, 0, 194, 110, 0, 127, 246, 56, 38, 52, 0, 0, 128, 64, 205, 204, 236, 63, 205, 204, 236, 191, 124, 16, 240, 0, 240, 125, 0, 127, 236, 56, 217, 55, 0, 0, 128, 64, 205, 204, 236, 63, 205, 204, 236, 63, 124, 16, 16, 0, 240, 125, 0, 127, 236, 56, 38, 52, 172, 183, 126, 64, 44, 99, 246, 63, 204, 204, 236, 63, 109, 62, 15, 0, 194, 110, 0, 127, 246, 56, 38, 52, 172, 183, 126, 64, 44, 99, 246, 63, 204, 204, 236, 191, 109, 62, 241, 0, 194, 110, 0, 127, 246, 56, 217, 55, 0, 0, 128, 64, 205, 204, 236, 63, 205, 204, 236, 191, 124, 16, 240, 0, 240, 125, 0, 127, 236, 56, 217, 55, 102, 102, 118, 64, 205, 204, 236, 63, 0, 0, 0, 64, 16, 16, 124, 0, 0, 125, 240, 127, 236, 56, 217, 51, 150, 49, 123, 64, 204, 204, 236, 191, 88, 111, 253, 63, 62, 241, 109, 0, 1, 125, 17, 127, 38, 54, 236, 51, 102, 102, 118, 64, 205, 204, 236, 191, 0, 0, 0, 64, 16, 240, 124, 0, 0, 125, 16, 127, 38, 54, 217, 51, 102, 102, 118, 64, 205, 204, 236, 63, 0, 0, 0, 64, 16, 16, 124, 0, 0, 125, 240, 127, 236, 56, 217, 51, 150, 49, 123, 64, 204, 204, 236, 63, 88, 111, 253, 63, 62, 15, 109, 0, 0, 125, 239, 127, 236, 56, 236, 51, 150, 49, 123, 64, 204, 204, 236, 191, 88, 111, 253, 63, 62, 241, 109, 0, 1, 125, 17, 127, 38, 54, 236, 51, 150, 49, 123, 64, 204, 204, 236, 63, 88, 111, 253, 63, 62, 15, 109, 0, 0, 125, 239, 127, 236, 56, 236, 51, 172, 183, 126, 64, 204, 204, 236, 191, 44, 99, 246, 63, 109, 241, 62, 0, 14, 126, 5, 127, 38, 54, 19, 52, 150, 49, 123, 64, 204, 204, 236, 191, 88, 111, 253, 63, 62, 241, 109, 0, 1, 125, 17, 127, 38, 54, 236, 51, 150, 49, 123, 64, 204, 204, 236, 63, 88, 111, 253, 63, 62, 15, 109, 0, 0, 125, 239, 127, 236, 56, 236, 51, 172, 183, 126, 64, 204, 204, 236, 63, 44, 99, 246, 63, 109, 15, 62, 0, 242, 126, 251, 127, 236, 56, 19, 52, 172, 183, 126, 64, 204, 204, 236, 191, 44, 99, 246, 63, 109, 241, 62, 0, 14, 126, 5, 127, 38, 54, 19, 52, 172, 183, 126, 64, 204, 204, 236, 191, 44, 99, 246, 63, 109, 241, 62, 0, 14, 126, 5, 127, 38, 54, 19, 52, 0, 0, 128, 64, 205, 204, 236, 63, 205, 204, 236, 63, 124, 16, 16, 0, 240, 125, 0, 127, 236, 56, 38, 52, 0, 0, 128, 64, 205, 204, 236, 191, 205, 204, 236, 63, 124, 240, 16, 0, 16, 125, 0, 127, 38, 54, 38, 52, 172, 183, 126, 64, 204, 204, 236, 63, 44, 99, 246, 63, 109, 15, 62, 0, 242, 126, 251, 127, 236, 56, 19, 52, 0, 0, 128, 64, 205, 204, 236, 63, 205, 204, 236, 63, 124, 16, 16, 0, 240, 125, 0, 127, 236, 56, 38, 52, 172, 183, 126, 64, 204, 204, 236, 191, 44, 99, 246, 63, 109, 241, 62, 0, 14, 126, 5, 127, 38, 54, 19, 52, 102, 102, 118, 192, 88, 111, 253, 191, 44, 99, 246, 63, 241, 147, 62, 0, 125, 239, 0, 127, 38, 48, 19, 52, 102, 102, 118, 64, 0, 0, 0, 192, 205, 204, 236, 63, 16, 132, 16, 0, 125, 16, 0, 127, 236, 53, 38, 52, 102, 102, 118, 192, 0, 0, 0, 192, 205, 204, 236, 63, 240, 132, 16, 0, 125, 240, 0, 127, 38, 48, 38, 52, 102, 102, 118, 192, 88, 111, 253, 191, 44, 99, 246, 63, 241, 147, 62, 0, 125, 239, 0, 127, 38, 48, 19, 52, 102, 102, 118, 64, 88, 111, 253, 191, 44, 99, 246, 63, 15, 147, 62, 0, 125, 16, 254, 127, 236, 53, 19, 52, 102, 102, 118, 64, 0, 0, 0, 192, 205, 204, 236, 63, 16, 132, 16, 0, 125, 16, 0, 127, 236, 53, 38, 52, 102, 102, 118, 192, 44, 99, 246, 191, 88, 111, 253, 63, 241, 194, 109, 0, 125, 243, 10, 127, 38, 48, 0, 52, 102, 102, 118, 64, 88, 111, 253, 191, 44, 99, 246, 63, 15, 147, 62, 0, 125, 16, 254, 127, 236, 53, 19, 52, 102, 102, 118, 192, 88, 111, 253, 191, 44, 99, 246, 63, 241, 147, 62, 0, 125, 239, 0, 127, 38, 48, 19, 52, 102, 102, 118, 192, 44, 99, 246, 191, 88, 111, 253, 63, 241, 194, 109, 0, 125, 243, 10, 127, 38, 48, 0, 52, 102, 102, 118, 64, 44, 99, 246, 191, 88, 111, 253, 63, 15, 194, 109, 0, 126, 7, 243, 127, 236, 53, 0, 52, 102, 102, 118, 64, 88, 111, 253, 191, 44, 99, 246, 63, 15, 147, 62, 0, 125, 16, 254, 127, 236, 53, 19, 52, 102, 102, 118, 192, 205, 204, 236, 191, 0, 0, 0, 64, 240, 240, 124, 0, 0, 125, 16, 127, 38, 54, 204, 28, 102, 102, 118, 64, 44, 99, 246, 191, 88, 111, 253, 63, 15, 194, 109, 0, 1, 110, 62, 127, 19, 54, 217, 51, 102, 102, 118, 192, 44, 99, 246, 191, 88, 111, 253, 63, 241, 194, 109, 0, 252, 110, 62, 127, 19, 54, 204, 28, 102, 102, 118, 192, 205, 204, 236, 191, 0, 0, 0, 64, 240, 240, 124, 0, 0, 125, 16, 127, 38, 54, 204, 28, 102, 102, 118, 64, 205, 204, 236, 191, 0, 0, 0, 64, 16, 240, 124, 0, 0, 125, 16, 127, 38, 54, 217, 51, 102, 102, 118, 64, 44, 99, 246, 191, 88, 111, 253, 63, 15, 194, 109, 0, 1, 110, 62, 127, 19, 54, 217, 51, 102, 102, 118, 192, 0, 0, 0, 64, 205, 204, 236, 63, 240, 124, 16, 0, 131, 240, 0, 127, 246, 58, 38, 52, 102, 102, 118, 64, 88, 111, 253, 63, 44, 99, 246, 63, 15, 109, 62, 0, 131, 17, 0, 127, 9, 57, 19, 52, 102, 102, 118, 192, 88, 111, 253, 63, 44, 99, 246, 63, 241, 109, 62, 0, 131, 240, 254, 127, 246, 58, 19, 52, 102, 102, 118, 192, 0, 0, 0, 64, 205, 204, 236, 63, 240, 124, 16, 0, 131, 240, 0, 127, 246, 58, 38, 52, 102, 102, 118, 64, 0, 0, 0, 64, 205, 204, 236, 63, 16, 124, 16, 0, 131, 16, 0, 127, 9, 57, 38, 52, 102, 102, 118, 64, 88, 111, 253, 63, 44, 99, 246, 63, 15, 109, 62, 0, 131, 17, 0, 127, 9, 57, 19, 52, 102, 102, 118, 192, 88, 111, 253, 63, 44, 99, 246, 63, 241, 109, 62, 0, 131, 240, 254, 127, 246, 58, 19, 52, 102, 102, 118, 64, 44, 99, 246, 63, 88, 111, 253, 63, 15, 62, 109, 0, 131, 13, 10, 127, 9, 57, 0, 52, 102, 102, 118, 192, 44, 99, 246, 63, 88, 111, 253, 63, 241, 62, 109, 0, 130, 249, 243, 127, 246, 58, 0, 52, 102, 102, 118, 192, 88, 111, 253, 63, 44, 99, 246, 63, 241, 109, 62, 0, 131, 240, 254, 127, 246, 58, 19, 52, 102, 102, 118, 64, 88, 111, 253, 63, 44, 99, 246, 63, 15, 109, 62, 0, 131, 17, 0, 127, 9, 57, 19, 52, 102, 102, 118, 64, 44, 99, 246, 63, 88, 111, 253, 63, 15, 62, 109, 0, 131, 13, 10, 127, 9, 57, 0, 52, 102, 102, 118, 192, 44, 99, 246, 63, 88, 111, 253, 63, 241, 62, 109, 0, 1, 110, 194, 127, 246, 56, 204, 28, 102, 102, 118, 64, 205, 204, 236, 63, 0, 0, 0, 64, 16, 16, 124, 0, 0, 125, 240, 127, 236, 56, 217, 51, 102, 102, 118, 192, 205, 204, 236, 63, 0, 0, 0, 64, 240, 16, 124, 0, 0, 125, 240, 127, 236, 56, 204, 28, 102, 102, 118, 192, 44, 99, 246, 63, 88, 111, 253, 63, 241, 62, 109, 0, 1, 110, 194, 127, 246, 56, 204, 28, 102, 102, 118, 64, 44, 99, 246, 63, 88, 111, 253, 63, 15, 62, 109, 0, 252, 110, 194, 127, 246, 56, 217, 51, 102, 102, 118, 64, 205, 204, 236, 63, 0, 0, 0, 64, 16, 16, 124, 0, 0, 125, 240, 127, 236, 56, 217, 51, 102, 102, 118, 192, 0, 0, 0, 192, 205, 204, 236, 63, 240, 132, 16, 0, 125, 240, 0, 127, 38, 48, 38, 52, 102, 102, 118, 64, 0, 0, 0, 192, 205, 204, 236, 191, 16, 132, 240, 0, 125, 16, 0, 127, 236, 53, 217, 55, 102, 102, 118, 192, 0, 0, 0, 192, 205, 204, 236, 191, 240, 132, 240, 0, 125, 240, 0, 127, 38, 48, 217, 55, 102, 102, 118, 192, 0, 0, 0, 192, 205, 204, 236, 63, 240, 132, 16, 0, 125, 240, 0, 127, 38, 48, 38, 52, 102, 102, 118, 64, 0, 0, 0, 192, 205, 204, 236, 63, 16, 132, 16, 0, 125, 16, 0, 127, 236, 53, 38, 52, 102, 102, 118, 64, 0, 0, 0, 192, 205, 204, 236, 191, 16, 132, 240, 0, 125, 16, 0, 127, 236, 53, 217, 55 ),
"array_index_data": PoolByteArray(  ),
"blend_shape_data": [  ],
"format": 97303,
"index_count": 0,
"material": ExtResource( 1 ),
"primitive": 4,
"skeleton_aabb": [  ],
"vertex_count": 564
}
surfaces/1 = {
"aabb": AABB( -4.01734, -1.81243, -1.78867, 0.2, 1, 3.6 ),
"array_data": PoolByteArray( 17, 142, 128, 192, 210, 253, 231, 191, 96, 115, 225, 63, 0, 129, 0, 0, 127, 0, 0, 127, 0, 60, 227, 59, 85, 79, 116, 192, 210, 253, 231, 191, 160, 140, 222, 191, 0, 129, 0, 0, 127, 0, 0, 127, 0, 60, 28, 35, 17, 142, 128, 192, 210, 253, 231, 191, 160, 140, 222, 191, 0, 129, 0, 0, 127, 0, 0, 127, 0, 60, 28, 35, 17, 142, 128, 192, 210, 253, 231, 191, 96, 115, 225, 63, 0, 129, 0, 0, 127, 0, 0, 127, 0, 60, 227, 59, 85, 79, 116, 192, 210, 253, 231, 191, 96, 115, 225, 63, 0, 129, 0, 0, 127, 0, 0, 127, 0, 60, 227, 59, 85, 79, 116, 192, 210, 253, 231, 191, 160, 140, 222, 191, 0, 129, 0, 0, 127, 0, 0, 127, 0, 60, 28, 35, 86, 79, 116, 192, 164, 251, 79, 191, 6, 243, 228, 191, 0, 0, 129, 0, 127, 0, 0, 127, 0, 0, 0, 0, 17, 142, 128, 192, 108, 151, 225, 191, 6, 243, 228, 191, 0, 0, 129, 0, 127, 0, 0, 127, 153, 59, 0, 0, 85, 79, 116, 192, 108, 151, 225, 191, 6, 243, 228, 191, 0, 0, 129, 0, 127, 0, 0, 127, 153, 59, 0, 0, 86, 79, 116, 192, 164, 251, 79, 191, 6, 243, 228, 191, 0, 0, 129, 0, 127, 0, 0, 127, 0, 0, 0, 0, 17, 142, 128, 192, 164, 251, 79, 191, 6, 243, 228, 191, 0, 0, 129, 0, 127, 0, 0, 127, 0, 0, 0, 0, 17, 142, 128, 192, 108, 151, 225, 191, 6, 243, 228, 191, 0, 0, 129, 0, 127, 0, 0, 127, 153, 59, 0, 0, 17, 142, 128, 192, 108, 151, 225, 191, 6, 243, 228, 191, 129, 0, 0, 0, 0, 129, 0, 129, 153, 59, 0, 0, 17, 142, 128, 192, 210, 253, 231, 191, 96, 115, 225, 63, 129, 0, 0, 0, 0, 129, 0, 129, 0, 60, 227, 59, 17, 142, 128, 192, 210, 253, 231, 191, 160, 140, 222, 191, 129, 0, 0, 0, 0, 129, 0, 129, 0, 60, 28, 35, 17, 142, 128, 192, 108, 151, 225, 191, 6, 243, 228, 191, 129, 0, 0, 0, 0, 129, 0, 129, 153, 59, 0, 0, 17, 142, 128, 192, 108, 151, 225, 191, 198, 217, 231, 63, 129, 0, 0, 0, 0, 129, 0, 129, 153, 59, 0, 60, 17, 142, 128, 192, 210, 253, 231, 191, 96, 115, 225, 63, 129, 0, 0, 0, 0, 129, 0, 129, 0, 60, 227, 59, 17, 142, 128, 192, 164, 251, 79, 191, 6, 243, 228, 191, 129, 0, 0, 0, 0, 129, 0, 129, 0, 0, 0, 0, 17, 142, 128, 192, 108, 151, 225, 191, 198, 217, 231, 63, 129, 0, 0, 0, 0, 129, 0, 129, 153, 59, 0, 60, 17, 142, 128, 192, 108, 151, 225, 191, 6, 243, 228, 191, 129, 0, 0, 0, 0, 129, 0, 129, 153, 59, 0, 0, 17, 142, 128, 192, 164, 251, 79, 191, 6, 243, 228, 191, 129, 0, 0, 0, 0, 129, 0, 129, 0, 0, 0, 0, 17, 142, 128, 192, 164, 251, 79, 191, 198, 217, 231, 63, 129, 0, 0, 0, 0, 129, 0, 129, 0, 0, 0, 60, 17, 142, 128, 192, 108, 151, 225, 191, 198, 217, 231, 63, 129, 0, 0, 0, 0, 129, 0, 129, 153, 59, 0, 60, 85, 79, 116, 192, 108, 151, 225, 191, 198, 217, 231, 63, 127, 0, 0, 0, 0, 129, 0, 127, 153, 59, 0, 60, 85, 79, 116, 192, 210, 253, 231, 191, 160, 140, 222, 191, 127, 0, 0, 0, 0, 129, 0, 127, 0, 60, 28, 35, 85, 79, 116, 192, 210, 253, 231, 191, 96, 115, 225, 63, 127, 0, 0, 0, 0, 129, 0, 127, 0, 60, 227, 59, 85, 79, 116, 192, 108, 151, 225, 191, 198, 217, 231, 63, 127, 0, 0, 0, 0, 129, 0, 127, 153, 59, 0, 60, 85, 79, 116, 192, 108, 151, 225, 191, 6, 243, 228, 191, 127, 0, 0, 0, 0, 129, 0, 127, 153, 59, 0, 0, 85, 79, 116, 192, 210, 253, 231, 191, 160, 140, 222, 191, 127, 0, 0, 0, 0, 129, 0, 127, 0, 60, 28, 35, 86, 79, 116, 192, 164, 251, 79, 191, 198, 217, 231, 63, 127, 0, 0, 0, 0, 129, 0, 127, 0, 0, 0, 60, 85, 79, 116, 192, 108, 151, 225, 191, 6, 243, 228, 191, 127, 0, 0, 0, 0, 129, 0, 127, 153, 59, 0, 0, 85, 79, 116, 192, 108, 151, 225, 191, 198, 217, 231, 63, 127, 0, 0, 0, 0, 129, 0, 127, 153, 59, 0, 60, 86, 79, 116, 192, 164, 251, 79, 191, 198, 217, 231, 63, 127, 0, 0, 0, 0, 129, 0, 127, 0, 0, 0, 60, 86, 79, 116, 192, 164, 251, 79, 191, 6, 243, 228, 191, 127, 0, 0, 0, 0, 129, 0, 127, 0, 0, 0, 0, 85, 79, 116, 192, 108, 151, 225, 191, 6, 243, 228, 191, 127, 0, 0, 0, 0, 129, 0, 127, 153, 59, 0, 0, 86, 79, 116, 192, 164, 251, 79, 191, 198, 217, 231, 63, 0, 127, 0, 0, 127, 0, 0, 127, 0, 0, 0, 60, 17, 142, 128, 192, 164, 251, 79, 191, 6, 243, 228, 191, 0, 127, 0, 0, 127, 0, 0, 127, 0, 0, 0, 0, 86, 79, 116, 192, 164, 251, 79, 191, 6, 243, 228, 191, 0, 127, 0, 0, 127, 0, 0, 127, 0, 0, 0, 0, 86, 79, 116, 192, 164, 251, 79, 191, 198, 217, 231, 63, 0, 127, 0, 0, 127, 0, 0, 127, 0, 0, 0, 60, 17, 142, 128, 192, 164, 251, 79, 191, 198, 217, 231, 63, 0, 127, 0, 0, 127, 0, 0, 127, 0, 0, 0, 60, 17, 142, 128, 192, 164, 251, 79, 191, 6, 243, 228, 191, 0, 127, 0, 0, 127, 0, 0, 127, 0, 0, 0, 0, 17, 142, 128, 192, 108, 151, 225, 191, 198, 217, 231, 63, 0, 167, 89, 0, 127, 0, 0, 129, 153, 59, 0, 60, 85, 79, 116, 192, 210, 253, 231, 191, 96, 115, 225, 63, 0, 167, 89, 0, 126, 0, 0, 129, 0, 60, 227, 59, 17, 142, 128, 192, 210, 253, 231, 191, 96, 115, 225, 63, 0, 167, 89, 0, 127, 0, 0, 129, 0, 60, 227, 59, 17, 142, 128, 192, 108, 151, 225, 191, 198, 217, 231, 63, 0, 167, 89, 0, 127, 0, 0, 129, 153, 59, 0, 60, 85, 79, 116, 192, 108, 151, 225, 191, 198, 217, 231, 63, 0, 167, 89, 0, 127, 0, 0, 129, 153, 59, 0, 60, 85, 79, 116, 192, 210, 253, 231, 191, 96, 115, 225, 63, 0, 167, 89, 0, 126, 0, 0, 129, 0, 60, 227, 59, 85, 79, 116, 192, 108, 151, 225, 191, 6, 243, 228, 191, 0, 167, 167, 0, 129, 0, 0, 127, 153, 59, 0, 0, 17, 142, 128, 192, 210, 253, 231, 191, 160, 140, 222, 191, 0, 167, 167, 0, 130, 0, 0, 127, 0, 60, 28, 35, 85, 79, 116, 192, 210, 253, 231, 191, 160, 140, 222, 191, 0, 167, 167, 0, 129, 0, 0, 127, 0, 60, 28, 35, 85, 79, 116, 192, 108, 151, 225, 191, 6, 243, 228, 191, 0, 167, 167, 0, 129, 0, 0, 127, 153, 59, 0, 0, 17, 142, 128, 192, 108, 151, 225, 191, 6, 243, 228, 191, 0, 167, 167, 0, 127, 0, 0, 127, 153, 59, 0, 0, 17, 142, 128, 192, 210, 253, 231, 191, 160, 140, 222, 191, 0, 167, 167, 0, 130, 0, 0, 127, 0, 60, 28, 35, 17, 142, 128, 192, 164, 251, 79, 191, 198, 217, 231, 63, 0, 0, 127, 0, 127, 0, 0, 129, 0, 0, 0, 60, 85, 79, 116, 192, 108, 151, 225, 191, 198, 217, 231, 63, 0, 0, 127, 0, 127, 0, 0, 129, 153, 59, 0, 60, 17, 142, 128, 192, 108, 151, 225, 191, 198, 217, 231, 63, 0, 0, 127, 0, 127, 0, 0, 129, 153, 59, 0, 60, 17, 142, 128, 192, 164, 251, 79, 191, 198, 217, 231, 63, 0, 0, 127, 0, 127, 0, 0, 129, 0, 0, 0, 60, 86, 79, 116, 192, 164, 251, 79, 191, 198, 217, 231, 63, 0, 0, 127, 0, 127, 0, 0, 129, 0, 0, 0, 60, 85, 79, 116, 192, 108, 151, 225, 191, 198, 217, 231, 63, 0, 0, 127, 0, 127, 0, 0, 129, 153, 59, 0, 60 ),
"array_index_data": PoolByteArray(  ),
"blend_shape_data": [  ],
"format": 97303,
"index_count": 0,
"material": ExtResource( 4 ),
"primitive": 4,
"skeleton_aabb": [  ],
"vertex_count": 60
}
surfaces/2 = {
"aabb": AABB( -4.01734, -0.812434, -1.78867, 0.2, 2.6, 3.6 ),
"array_data": PoolByteArray( 117, 212, 127, 192, 237, 193, 219, 63, 160, 140, 222, 191, 129, 0, 0, 0, 127, 0, 0, 127, 0, 0, 28, 35, 117, 212, 127, 192, 218, 46, 67, 191, 117, 76, 112, 191, 129, 0, 0, 0, 127, 0, 0, 127, 0, 0, 142, 51, 117, 212, 127, 192, 218, 46, 67, 191, 160, 140, 222, 191, 129, 0, 0, 0, 127, 0, 0, 127, 0, 0, 28, 35, 117, 212, 127, 192, 237, 193, 219, 63, 160, 140, 222, 191, 129, 0, 0, 0, 127, 0, 0, 127, 0, 0, 28, 35, 117, 212, 127, 192, 147, 104, 222, 63, 117, 76, 112, 191, 129, 0, 0, 0, 127, 0, 0, 127, 0, 0, 142, 51, 117, 212, 127, 192, 218, 46, 67, 191, 117, 76, 112, 191, 129, 0, 0, 0, 127, 0, 0, 127, 0, 0, 142, 51, 117, 212, 127, 192, 147, 104, 222, 63, 251, 229, 219, 191, 129, 0, 0, 0, 127, 0, 0, 127, 0, 0, 7, 37, 117, 212, 127, 192, 147, 104, 222, 63, 117, 76, 112, 191, 129, 0, 0, 0, 127, 0, 0, 127, 0, 0, 142, 51, 117, 212, 127, 192, 237, 193, 219, 63, 160, 140, 222, 191, 129, 0, 0, 0, 127, 0, 0, 127, 0, 0, 28, 35, 86, 79, 116, 192, 249, 206, 228, 63, 168, 127, 99, 191, 0, 127, 0, 0, 127, 0, 0, 127, 0, 0, 0, 52, 18, 142, 128, 192, 249, 206, 228, 63, 160, 140, 222, 191, 0, 127, 0, 0, 127, 0, 0, 127, 0, 0, 28, 35, 86, 79, 116, 192, 249, 206, 228, 63, 160, 140, 222, 191, 0, 127, 0, 0, 127, 0, 0, 127, 0, 0, 28, 35, 86, 79, 116, 192, 249, 206, 228, 63, 168, 127, 99, 191, 0, 127, 0, 0, 127, 0, 0, 127, 0, 0, 0, 52, 18, 142, 128, 192, 249, 206, 228, 63, 168, 127, 99, 191, 0, 127, 0, 0, 127, 0, 0, 127, 0, 0, 0, 52, 18, 142, 128, 192, 249, 206, 228, 63, 160, 140, 222, 191, 0, 127, 0, 0, 127, 0, 0, 127, 0, 0, 28, 35, 86, 79, 116, 192, 147, 104, 222, 63, 7, 243, 228, 191, 0, 0, 129, 0, 127, 0, 0, 127, 0, 0, 0, 0, 18, 142, 128, 192, 166, 251, 79, 191, 7, 243, 228, 191, 0, 0, 129, 0, 127, 0, 0, 127, 0, 0, 0, 0, 86, 79, 116, 192, 166, 251, 79, 191, 7, 243, 228, 191, 0, 0, 129, 0, 127, 0, 0, 127, 0, 0, 0, 0, 86, 79, 116, 192, 147, 104, 222, 63, 7, 243, 228, 191, 0, 0, 129, 0, 127, 0, 0, 127, 0, 0, 0, 0, 18, 142, 128, 192, 147, 104, 222, 63, 7, 243, 228, 191, 0, 0, 129, 0, 127, 0, 0, 127, 0, 0, 0, 0, 18, 142, 128, 192, 166, 251, 79, 191, 7, 243, 228, 191, 0, 0, 129, 0, 127, 0, 0, 127, 0, 0, 0, 0, 18, 142, 128, 192, 249, 206, 228, 63, 168, 127, 99, 191, 0, 0, 127, 0, 127, 0, 0, 129, 0, 0, 0, 52, 86, 79, 116, 192, 166, 251, 79, 191, 168, 127, 99, 191, 0, 0, 127, 0, 127, 0, 0, 129, 0, 0, 0, 52, 18, 142, 128, 192, 166, 251, 79, 191, 168, 127, 99, 191, 0, 0, 127, 0, 127, 0, 0, 129, 0, 0, 0, 52, 18, 142, 128, 192, 249, 206, 228, 63, 168, 127, 99, 191, 0, 0, 127, 0, 127, 0, 0, 129, 0, 0, 0, 52, 86, 79, 116, 192, 249, 206, 228, 63, 168, 127, 99, 191, 0, 0, 127, 0, 127, 0, 0, 129, 0, 0, 0, 52, 86, 79, 116, 192, 166, 251, 79, 191, 168, 127, 99, 191, 0, 0, 127, 0, 127, 0, 0, 129, 0, 0, 0, 52, 18, 142, 128, 192, 166, 251, 79, 191, 168, 127, 99, 191, 0, 129, 0, 0, 127, 0, 0, 127, 0, 0, 0, 52, 86, 79, 116, 192, 166, 251, 79, 191, 7, 243, 228, 191, 0, 129, 0, 0, 127, 0, 0, 127, 0, 0, 0, 0, 18, 142, 128, 192, 166, 251, 79, 191, 7, 243, 228, 191, 0, 129, 0, 0, 127, 0, 0, 127, 0, 0, 0, 0, 18, 142, 128, 192, 166, 251, 79, 191, 168, 127, 99, 191, 0, 129, 0, 0, 127, 0, 0, 127, 0, 0, 0, 52, 86, 79, 116, 192, 166, 251, 79, 191, 168, 127, 99, 191, 0, 129, 0, 0, 127, 0, 0, 127, 0, 0, 0, 52, 86, 79, 116, 192, 166, 251, 79, 191, 7, 243, 228, 191, 0, 129, 0, 0, 127, 0, 0, 127, 0, 0, 0, 0, 86, 79, 116, 192, 249, 206, 228, 63, 160, 140, 222, 191, 0, 89, 167, 0, 127, 0, 0, 127, 0, 0, 28, 35, 18, 142, 128, 192, 147, 104, 222, 63, 7, 243, 228, 191, 0, 89, 167, 0, 127, 0, 0, 127, 0, 0, 0, 0, 86, 79, 116, 192, 147, 104, 222, 63, 7, 243, 228, 191, 0, 89, 167, 0, 127, 0, 0, 127, 0, 0, 0, 0, 86, 79, 116, 192, 249, 206, 228, 63, 160, 140, 222, 191, 0, 89, 167, 0, 127, 0, 0, 127, 0, 0, 28, 35, 18, 142, 128, 192, 249, 206, 228, 63, 160, 140, 222, 191, 0, 89, 167, 0, 127, 0, 0, 127, 0, 0, 28, 35, 18, 142, 128, 192, 147, 104, 222, 63, 7, 243, 228, 191, 0, 89, 167, 0, 127, 0, 0, 127, 0, 0, 0, 0, 86, 79, 116, 192, 249, 206, 228, 63, 168, 127, 99, 191, 127, 0, 0, 0, 127, 0, 0, 129, 0, 0, 0, 52, 86, 79, 116, 192, 166, 251, 79, 191, 7, 243, 228, 191, 127, 0, 0, 0, 127, 0, 0, 129, 0, 0, 0, 0, 86, 79, 116, 192, 166, 251, 79, 191, 168, 127, 99, 191, 127, 0, 0, 0, 127, 0, 0, 129, 0, 0, 0, 52, 86, 79, 116, 192, 249, 206, 228, 63, 168, 127, 99, 191, 127, 0, 0, 0, 127, 0, 0, 129, 0, 0, 0, 52, 86, 79, 116, 192, 147, 104, 222, 63, 7, 243, 228, 191, 127, 0, 0, 0, 127, 0, 0, 129, 0, 0, 0, 0, 86, 79, 116, 192, 166, 251, 79, 191, 7, 243, 228, 191, 127, 0, 0, 0, 127, 0, 0, 129, 0, 0, 0, 0, 86, 79, 116, 192, 249, 206, 228, 63, 168, 127, 99, 191, 127, 0, 0, 0, 127, 0, 0, 129, 0, 0, 0, 52, 86, 79, 116, 192, 249, 206, 228, 63, 160, 140, 222, 191, 127, 0, 0, 0, 127, 0, 0, 129, 0, 0, 28, 35, 86, 79, 116, 192, 147, 104, 222, 63, 7, 243, 228, 191, 127, 0, 0, 0, 127, 0, 0, 129, 0, 0, 0, 0, 117, 212, 127, 192, 218, 46, 67, 191, 160, 140, 222, 191, 139, 47, 0, 0, 127, 0, 0, 127, 0, 0, 28, 35, 18, 142, 128, 192, 166, 251, 79, 191, 168, 127, 99, 191, 139, 47, 0, 0, 127, 0, 0, 127, 0, 0, 0, 52, 18, 142, 128, 192, 166, 251, 79, 191, 7, 243, 228, 191, 139, 47, 0, 0, 127, 0, 0, 127, 0, 0, 0, 0, 117, 212, 127, 192, 218, 46, 67, 191, 160, 140, 222, 191, 139, 47, 0, 0, 127, 0, 0, 127, 0, 0, 28, 35, 117, 212, 127, 192, 218, 46, 67, 191, 117, 76, 112, 191, 139, 47, 0, 0, 127, 0, 0, 127, 0, 0, 142, 51, 18, 142, 128, 192, 166, 251, 79, 191, 168, 127, 99, 191, 139, 47, 0, 0, 127, 0, 0, 127, 0, 0, 0, 52, 117, 212, 127, 192, 218, 46, 67, 191, 117, 76, 112, 191, 139, 0, 209, 0, 127, 0, 0, 127, 0, 0, 142, 51, 18, 142, 128, 192, 249, 206, 228, 63, 168, 127, 99, 191, 139, 0, 209, 0, 127, 0, 0, 127, 0, 0, 0, 52, 18, 142, 128, 192, 166, 251, 79, 191, 168, 127, 99, 191, 139, 0, 209, 0, 127, 0, 0, 127, 0, 0, 0, 52, 117, 212, 127, 192, 147, 104, 222, 63, 117, 76, 112, 191, 139, 0, 209, 0, 127, 0, 0, 127, 0, 0, 142, 51, 18, 142, 128, 192, 249, 206, 228, 63, 168, 127, 99, 191, 139, 0, 209, 0, 127, 0, 0, 127, 0, 0, 0, 52, 117, 212, 127, 192, 218, 46, 67, 191, 117, 76, 112, 191, 139, 0, 209, 0, 127, 0, 0, 127, 0, 0, 142, 51, 18, 142, 128, 192, 147, 104, 222, 63, 7, 243, 228, 191, 139, 223, 33, 0, 127, 0, 0, 129, 0, 0, 0, 0, 117, 212, 127, 192, 147, 104, 222, 63, 251, 229, 219, 191, 139, 223, 33, 0, 127, 0, 0, 129, 0, 0, 7, 37, 117, 212, 127, 192, 237, 193, 219, 63, 160, 140, 222, 191, 139, 223, 33, 0, 127, 0, 0, 129, 0, 0, 28, 35, 18, 142, 128, 192, 249, 206, 228, 63, 160, 140, 222, 191, 139, 223, 33, 0, 127, 0, 0, 129, 0, 0, 28, 35, 117, 212, 127, 192, 147, 104, 222, 63, 251, 229, 219, 191, 139, 223, 33, 0, 127, 0, 0, 129, 0, 0, 7, 37, 18, 142, 128, 192, 147, 104, 222, 63, 7, 243, 228, 191, 139, 223, 33, 0, 127, 0, 0, 129, 0, 0, 0, 0, 18, 142, 128, 192, 147, 104, 222, 63, 7, 243, 228, 191, 139, 0, 47, 0, 127, 0, 0, 129, 0, 0, 0, 0, 117, 212, 127, 192, 218, 46, 67, 191, 160, 140, 222, 191, 139, 0, 47, 0, 127, 0, 0, 129, 0, 0, 28, 35, 18, 142, 128, 192, 166, 251, 79, 191, 7, 243, 228, 191, 139, 0, 47, 0, 127, 0, 0, 129, 0, 0, 0, 0, 18, 142, 128, 192, 147, 104, 222, 63, 7, 243, 228, 191, 139, 0, 47, 0, 127, 0, 0, 129, 0, 0, 0, 0, 117, 212, 127, 192, 237, 193, 219, 63, 160, 140, 222, 191, 139, 0, 47, 0, 127, 0, 0, 129, 0, 0, 28, 35, 117, 212, 127, 192, 218, 46, 67, 191, 160, 140, 222, 191, 139, 0, 47, 0, 127, 0, 0, 129, 0, 0, 28, 35, 18, 142, 128, 192, 249, 206, 228, 63, 160, 140, 222, 191, 139, 209, 0, 0, 127, 0, 0, 127, 0, 0, 28, 35, 117, 212, 127, 192, 147, 104, 222, 63, 117, 76, 112, 191, 139, 209, 0, 0, 127, 0, 0, 127, 0, 0, 142, 51, 117, 212, 127, 192, 147, 104, 222, 63, 251, 229, 219, 191, 139, 209, 0, 0, 127, 0, 0, 127, 0, 0, 7, 37, 18, 142, 128, 192, 249, 206, 228, 63, 160, 140, 222, 191, 139, 209, 0, 0, 127, 0, 0, 127, 0, 0, 28, 35, 18, 142, 128, 192, 249, 206, 228, 63, 168, 127, 99, 191, 139, 209, 0, 0, 127, 0, 0, 127, 0, 0, 0, 52, 117, 212, 127, 192, 147, 104, 222, 63, 117, 76, 112, 191, 139, 209, 0, 0, 127, 0, 0, 127, 0, 0, 142, 51, 86, 79, 116, 192, 249, 206, 228, 63, 192, 176, 57, 60, 127, 0, 0, 0, 127, 0, 0, 127, 0, 0, 0, 56, 86, 79, 116, 192, 164, 251, 79, 191, 163, 127, 99, 191, 127, 0, 0, 0, 127, 0, 0, 127, 0, 0, 0, 52, 86, 79, 116, 192, 164, 251, 79, 191, 192, 176, 57, 60, 127, 0, 0, 0, 127, 0, 0, 127, 0, 0, 0, 56, 86, 79, 116, 192, 249, 206, 228, 63, 192, 176, 57, 60, 127, 0, 0, 0, 127, 0, 0, 127, 0, 0, 0, 56, 86, 79, 116, 192, 249, 206, 228, 63, 163, 127, 99, 191, 127, 0, 0, 0, 127, 0, 0, 127, 0, 0, 0, 52, 86, 79, 116, 192, 164, 251, 79, 191, 163, 127, 99, 191, 127, 0, 0, 0, 127, 0, 0, 127, 0, 0, 0, 52, 117, 212, 127, 192, 149, 104, 222, 63, 214, 178, 86, 191, 129, 0, 0, 0, 127, 0, 0, 127, 0, 0, 56, 52, 117, 212, 127, 192, 216, 46, 67, 191, 160, 96, 30, 189, 129, 0, 0, 0, 127, 0, 0, 127, 0, 0, 199, 55, 117, 212, 127, 192, 216, 46, 67, 191, 214, 178, 86, 191, 129, 0, 0, 0, 127, 0, 0, 127, 0, 0, 56, 52, 117, 212, 127, 192, 149, 104, 222, 63, 214, 178, 86, 191, 129, 0, 0, 0, 127, 0, 0, 127, 0, 0, 56, 52, 117, 212, 127, 192, 149, 104, 222, 63, 160, 96, 30, 189, 129, 0, 0, 0, 127, 0, 0, 127, 0, 0, 199, 55, 117, 212, 127, 192, 216, 46, 67, 191, 160, 96, 30, 189, 129, 0, 0, 0, 127, 0, 0, 127, 0, 0, 199, 55, 86, 79, 116, 192, 249, 206, 228, 63, 192, 176, 57, 60, 0, 127, 0, 0, 127, 0, 0, 127, 0, 0, 0, 56, 17, 142, 128, 192, 249, 206, 228, 63, 163, 127, 99, 191, 0, 127, 0, 0, 127, 0, 0, 127, 0, 0, 0, 52, 86, 79, 116, 192, 249, 206, 228, 63, 163, 127, 99, 191, 0, 127, 0, 0, 127, 0, 0, 127, 0, 0, 0, 52, 86, 79, 116, 192, 249, 206, 228, 63, 192, 176, 57, 60, 0, 127, 0, 0, 127, 0, 0, 127, 0, 0, 0, 56, 17, 142, 128, 192, 249, 206, 228, 63, 192, 176, 57, 60, 0, 127, 0, 0, 127, 0, 0, 127, 0, 0, 0, 56, 17, 142, 128, 192, 249, 206, 228, 63, 163, 127, 99, 191, 0, 127, 0, 0, 127, 0, 0, 127, 0, 0, 0, 52, 17, 142, 128, 192, 249, 206, 228, 63, 192, 176, 57, 60, 0, 0, 127, 0, 127, 0, 0, 129, 0, 0, 0, 56, 86, 79, 116, 192, 164, 251, 79, 191, 192, 176, 57, 60, 0, 0, 127, 0, 127, 0, 0, 129, 0, 0, 0, 56, 17, 142, 128, 192, 164, 251, 79, 191, 192, 176, 57, 60, 0, 0, 127, 0, 127, 0, 0, 129, 0, 0, 0, 56, 17, 142, 128, 192, 249, 206, 228, 63, 192, 176, 57, 60, 0, 0, 127, 0, 127, 0, 0, 129, 0, 0, 0, 56, 86, 79, 116, 192, 249, 206, 228, 63, 192, 176, 57, 60, 0, 0, 127, 0, 127, 0, 0, 129, 0, 0, 0, 56, 86, 79, 116, 192, 164, 251, 79, 191, 192, 176, 57, 60, 0, 0, 127, 0, 127, 0, 0, 129, 0, 0, 0, 56, 86, 79, 116, 192, 249, 206, 228, 63, 163, 127, 99, 191, 0, 0, 129, 0, 127, 0, 0, 127, 0, 0, 0, 52, 17, 142, 128, 192, 164, 251, 79, 191, 163, 127, 99, 191, 0, 0, 129, 0, 127, 0, 0, 127, 0, 0, 0, 52, 86, 79, 116, 192, 164, 251, 79, 191, 163, 127, 99, 191, 0, 0, 129, 0, 127, 0, 0, 127, 0, 0, 0, 52, 86, 79, 116, 192, 249, 206, 228, 63, 163, 127, 99, 191, 0, 0, 129, 0, 127, 0, 0, 127, 0, 0, 0, 52, 17, 142, 128, 192, 249, 206, 228, 63, 163, 127, 99, 191, 0, 0, 129, 0, 127, 0, 0, 127, 0, 0, 0, 52, 17, 142, 128, 192, 164, 251, 79, 191, 163, 127, 99, 191, 0, 0, 129, 0, 127, 0, 0, 127, 0, 0, 0, 52, 17, 142, 128, 192, 164, 251, 79, 191, 192, 176, 57, 60, 0, 129, 0, 0, 127, 0, 0, 127, 0, 0, 0, 56, 86, 79, 116, 192, 164, 251, 79, 191, 163, 127, 99, 191, 0, 129, 0, 0, 127, 0, 0, 127, 0, 0, 0, 52, 17, 142, 128, 192, 164, 251, 79, 191, 163, 127, 99, 191, 0, 129, 0, 0, 127, 0, 0, 127, 0, 0, 0, 52, 17, 142, 128, 192, 164, 251, 79, 191, 192, 176, 57, 60, 0, 129, 0, 0, 127, 0, 0, 127, 0, 0, 0, 56, 86, 79, 116, 192, 164, 251, 79, 191, 192, 176, 57, 60, 0, 129, 0, 0, 127, 0, 0, 127, 0, 0, 0, 56, 86, 79, 116, 192, 164, 251, 79, 191, 163, 127, 99, 191, 0, 129, 0, 0, 127, 0, 0, 127, 0, 0, 0, 52, 17, 142, 128, 192, 249, 206, 228, 63, 163, 127, 99, 191, 139, 209, 0, 0, 127, 0, 0, 127, 0, 0, 0, 52, 117, 212, 127, 192, 149, 104, 222, 63, 160, 96, 30, 189, 139, 209, 0, 0, 127, 0, 0, 127, 0, 0, 199, 55, 117, 212, 127, 192, 149, 104, 222, 63, 214, 178, 86, 191, 139, 209, 0, 0, 127, 0, 0, 127, 0, 0, 56, 52, 17, 142, 128, 192, 249, 206, 228, 63, 163, 127, 99, 191, 139, 209, 0, 0, 127, 0, 0, 127, 0, 0, 0, 52, 17, 142, 128, 192, 249, 206, 228, 63, 192, 176, 57, 60, 139, 209, 0, 0, 127, 0, 0, 127, 0, 0, 0, 56, 117, 212, 127, 192, 149, 104, 222, 63, 160, 96, 30, 189, 139, 209, 0, 0, 127, 0, 0, 127, 0, 0, 199, 55, 117, 212, 127, 192, 216, 46, 67, 191, 214, 178, 86, 191, 139, 47, 0, 0, 127, 0, 0, 127, 0, 0, 56, 52, 17, 142, 128, 192, 164, 251, 79, 191, 192, 176, 57, 60, 139, 47, 0, 0, 127, 0, 0, 127, 0, 0, 0, 56, 17, 142, 128, 192, 164, 251, 79, 191, 163, 127, 99, 191, 139, 47, 0, 0, 127, 0, 0, 127, 0, 0, 0, 52, 117, 212, 127, 192, 216, 46, 67, 191, 214, 178, 86, 191, 139, 47, 0, 0, 127, 0, 0, 127, 0, 0, 56, 52, 117, 212, 127, 192, 216, 46, 67, 191, 160, 96, 30, 189, 139, 47, 0, 0, 127, 0, 0, 127, 0, 0, 199, 55, 17, 142, 128, 192, 164, 251, 79, 191, 192, 176, 57, 60, 139, 47, 0, 0, 127, 0, 0, 127, 0, 0, 0, 56, 117, 212, 127, 192, 216, 46, 67, 191, 160, 96, 30, 189, 139, 0, 209, 0, 127, 0, 0, 127, 0, 0, 199, 55, 17, 142, 128, 192, 249, 206, 228, 63, 192, 176, 57, 60, 139, 0, 209, 0, 127, 0, 0, 127, 0, 0, 0, 56, 17, 142, 128, 192, 164, 251, 79, 191, 192, 176, 57, 60, 139, 0, 209, 0, 127, 0, 0, 127, 0, 0, 0, 56, 117, 212, 127, 192, 149, 104, 222, 63, 160, 96, 30, 189, 139, 0, 209, 0, 127, 0, 0, 127, 0, 0, 199, 55, 17, 142, 128, 192, 249, 206, 228, 63, 192, 176, 57, 60, 139, 0, 209, 0, 127, 0, 0, 127, 0, 0, 0, 56, 117, 212, 127, 192, 216, 46, 67, 191, 160, 96, 30, 189, 139, 0, 209, 0, 127, 0, 0, 127, 0, 0, 199, 55, 17, 142, 128, 192, 249, 206, 228, 63, 163, 127, 99, 191, 139, 0, 47, 0, 127, 0, 0, 129, 0, 0, 0, 52, 117, 212, 127, 192, 216, 46, 67, 191, 214, 178, 86, 191, 139, 0, 47, 0, 127, 0, 0, 129, 0, 0, 56, 52, 17, 142, 128, 192, 164, 251, 79, 191, 163, 127, 99, 191, 139, 0, 47, 0, 127, 0, 0, 129, 0, 0, 0, 52, 17, 142, 128, 192, 249, 206, 228, 63, 163, 127, 99, 191, 139, 0, 47, 0, 127, 0, 0, 129, 0, 0, 0, 52, 117, 212, 127, 192, 149, 104, 222, 63, 214, 178, 86, 191, 139, 0, 47, 0, 127, 0, 0, 129, 0, 0, 56, 52, 117, 212, 127, 192, 216, 46, 67, 191, 214, 178, 86, 191, 139, 0, 47, 0, 127, 0, 0, 129, 0, 0, 56, 52, 86, 79, 116, 192, 147, 104, 222, 63, 197, 217, 231, 63, 127, 0, 0, 0, 127, 0, 0, 127, 0, 0, 0, 60, 86, 79, 116, 192, 166, 251, 79, 191, 36, 77, 105, 63, 127, 0, 0, 0, 127, 0, 0, 127, 0, 0, 0, 58, 86, 79, 116, 192, 166, 251, 79, 191, 197, 217, 231, 63, 127, 0, 0, 0, 127, 0, 0, 127, 0, 0, 0, 60, 86, 79, 116, 192, 147, 104, 222, 63, 197, 217, 231, 63, 127, 0, 0, 0, 127, 0, 0, 127, 0, 0, 0, 60, 86, 79, 116, 192, 249, 206, 228, 63, 36, 77, 105, 63, 127, 0, 0, 0, 127, 0, 0, 127, 0, 0, 0, 58, 86, 79, 116, 192, 166, 251, 79, 191, 36, 77, 105, 63, 127, 0, 0, 0, 127, 0, 0, 127, 0, 0, 0, 58, 86, 79, 116, 192, 249, 206, 228, 63, 94, 115, 225, 63, 127, 0, 0, 0, 127, 0, 0, 127, 0, 0, 227, 59, 86, 79, 116, 192, 249, 206, 228, 63, 36, 77, 105, 63, 127, 0, 0, 0, 127, 0, 0, 127, 0, 0, 0, 58, 86, 79, 116, 192, 147, 104, 222, 63, 197, 217, 231, 63, 127, 0, 0, 0, 127, 0, 0, 127, 0, 0, 0, 60, 117, 212, 127, 192, 147, 104, 222, 63, 241, 25, 118, 63, 129, 0, 0, 0, 127, 0, 0, 127, 0, 0, 28, 58, 117, 212, 127, 192, 218, 46, 67, 191, 94, 115, 225, 63, 129, 0, 0, 0, 127, 0, 0, 127, 0, 0, 227, 59, 117, 212, 127, 192, 218, 46, 67, 191, 241, 25, 118, 63, 129, 0, 0, 0, 127, 0, 0, 127, 0, 0, 28, 58, 117, 212, 127, 192, 147, 104, 222, 63, 241, 25, 118, 63, 129, 0, 0, 0, 127, 0, 0, 127, 0, 0, 28, 58, 117, 212, 127, 192, 237, 193, 219, 63, 94, 115, 225, 63, 129, 0, 0, 0, 127, 0, 0, 127, 0, 0, 227, 59, 117, 212, 127, 192, 218, 46, 67, 191, 94, 115, 225, 63, 129, 0, 0, 0, 127, 0, 0, 127, 0, 0, 227, 59, 117, 212, 127, 192, 147, 104, 222, 63, 241, 25, 118, 63, 129, 0, 0, 0, 127, 0, 0, 127, 0, 0, 28, 58, 117, 212, 127, 192, 147, 104, 222, 63, 185, 204, 222, 63, 129, 0, 0, 0, 127, 0, 0, 127, 0, 0, 215, 59, 117, 212, 127, 192, 237, 193, 219, 63, 94, 115, 225, 63, 129, 0, 0, 0, 127, 0, 0, 127, 0, 0, 227, 59, 18, 142, 128, 192, 147, 104, 222, 63, 197, 217, 231, 63, 0, 0, 127, 0, 127, 0, 0, 129, 0, 0, 0, 60, 86, 79, 116, 192, 166, 251, 79, 191, 197, 217, 231, 63, 0, 0, 127, 0, 127, 0, 0, 129, 0, 0, 0, 60, 18, 142, 128, 192, 166, 251, 79, 191, 197, 217, 231, 63, 0, 0, 127, 0, 127, 0, 0, 129, 0, 0, 0, 60, 18, 142, 128, 192, 147, 104, 222, 63, 197, 217, 231, 63, 0, 0, 127, 0, 127, 0, 0, 129, 0, 0, 0, 60, 86, 79, 116, 192, 147, 104, 222, 63, 197, 217, 231, 63, 0, 0, 127, 0, 127, 0, 0, 129, 0, 0, 0, 60, 86, 79, 116, 192, 166, 251, 79, 191, 197, 217, 231, 63, 0, 0, 127, 0, 127, 0, 0, 129, 0, 0, 0, 60, 18, 142, 128, 192, 166, 251, 79, 191, 197, 217, 231, 63, 0, 129, 0, 0, 127, 0, 0, 127, 0, 0, 0, 60, 86, 79, 116, 192, 166, 251, 79, 191, 36, 77, 105, 63, 0, 129, 0, 0, 127, 0, 0, 127, 0, 0, 0, 58, 18, 142, 128, 192, 166, 251, 79, 191, 36, 77, 105, 63, 0, 129, 0, 0, 127, 0, 0, 127, 0, 0, 0, 58, 18, 142, 128, 192, 166, 251, 79, 191, 197, 217, 231, 63, 0, 129, 0, 0, 127, 0, 0, 127, 0, 0, 0, 60, 86, 79, 116, 192, 166, 251, 79, 191, 197, 217, 231, 63, 0, 129, 0, 0, 127, 0, 0, 127, 0, 0, 0, 60, 86, 79, 116, 192, 166, 251, 79, 191, 36, 77, 105, 63, 0, 129, 0, 0, 127, 0, 0, 127, 0, 0, 0, 58, 86, 79, 116, 192, 249, 206, 228, 63, 36, 77, 105, 63, 0, 0, 129, 0, 127, 0, 0, 127, 0, 0, 0, 58, 18, 142, 128, 192, 166, 251, 79, 191, 36, 77, 105, 63, 0, 0, 129, 0, 127, 0, 0, 127, 0, 0, 0, 58, 86, 79, 116, 192, 166, 251, 79, 191, 36, 77, 105, 63, 0, 0, 129, 0, 127, 0, 0, 127, 0, 0, 0, 58, 86, 79, 116, 192, 249, 206, 228, 63, 36, 77, 105, 63, 0, 0, 129, 0, 127, 0, 0, 127, 0, 0, 0, 58, 18, 142, 128, 192, 249, 206, 228, 63, 36, 77, 105, 63, 0, 0, 129, 0, 127, 0, 0, 127, 0, 0, 0, 58, 18, 142, 128, 192, 166, 251, 79, 191, 36, 77, 105, 63, 0, 0, 129, 0, 127, 0, 0, 127, 0, 0, 0, 58, 18, 142, 128, 192, 249, 206, 228, 63, 94, 115, 225, 63, 0, 89, 89, 0, 127, 0, 0, 129, 0, 0, 227, 59, 86, 79, 116, 192, 147, 104, 222, 63, 197, 217, 231, 63, 0, 89, 89, 0, 127, 0, 0, 129, 0, 0, 0, 60, 18, 142, 128, 192, 147, 104, 222, 63, 197, 217, 231, 63, 0, 89, 89, 0, 127, 0, 0, 129, 0, 0, 0, 60, 18, 142, 128, 192, 249, 206, 228, 63, 94, 115, 225, 63, 0, 89, 89, 0, 127, 0, 0, 129, 0, 0, 227, 59, 86, 79, 116, 192, 249, 206, 228, 63, 94, 115, 225, 63, 0, 89, 89, 0, 127, 0, 0, 129, 0, 0, 227, 59, 86, 79, 116, 192, 147, 104, 222, 63, 197, 217, 231, 63, 0, 89, 89, 0, 127, 0, 0, 129, 0, 0, 0, 60, 86, 79, 116, 192, 249, 206, 228, 63, 94, 115, 225, 63, 0, 127, 0, 0, 127, 0, 0, 127, 0, 0, 227, 59, 18, 142, 128, 192, 249, 206, 228, 63, 36, 77, 105, 63, 0, 127, 0, 0, 127, 0, 0, 127, 0, 0, 0, 58, 86, 79, 116, 192, 249, 206, 228, 63, 36, 77, 105, 63, 0, 127, 0, 0, 127, 0, 0, 127, 0, 0, 0, 58, 86, 79, 116, 192, 249, 206, 228, 63, 94, 115, 225, 63, 0, 127, 0, 0, 127, 0, 0, 127, 0, 0, 227, 59, 18, 142, 128, 192, 249, 206, 228, 63, 94, 115, 225, 63, 0, 127, 0, 0, 127, 0, 0, 127, 0, 0, 227, 59, 18, 142, 128, 192, 249, 206, 228, 63, 36, 77, 105, 63, 0, 127, 0, 0, 127, 0, 0, 127, 0, 0, 0, 58, 117, 212, 127, 192, 218, 46, 67, 191, 241, 25, 118, 63, 139, 47, 0, 0, 127, 0, 0, 127, 0, 0, 28, 58, 18, 142, 128, 192, 166, 251, 79, 191, 197, 217, 231, 63, 139, 47, 0, 0, 127, 0, 0, 127, 0, 0, 0, 60, 18, 142, 128, 192, 166, 251, 79, 191, 36, 77, 105, 63, 139, 47, 0, 0, 127, 0, 0, 127, 0, 0, 0, 58, 117, 212, 127, 192, 218, 46, 67, 191, 241, 25, 118, 63, 139, 47, 0, 0, 127, 0, 0, 127, 0, 0, 28, 58, 117, 212, 127, 192, 218, 46, 67, 191, 94, 115, 225, 63, 139, 47, 0, 0, 127, 0, 0, 127, 0, 0, 227, 59, 18, 142, 128, 192, 166, 251, 79, 191, 197, 217, 231, 63, 139, 47, 0, 0, 127, 0, 0, 127, 0, 0, 0, 60, 18, 142, 128, 192, 249, 206, 228, 63, 36, 77, 105, 63, 139, 0, 47, 0, 127, 0, 0, 129, 0, 0, 0, 58, 117, 212, 127, 192, 218, 46, 67, 191, 241, 25, 118, 63, 139, 0, 47, 0, 127, 0, 0, 129, 0, 0, 28, 58, 18, 142, 128, 192, 166, 251, 79, 191, 36, 77, 105, 63, 139, 0, 47, 0, 127, 0, 0, 129, 0, 0, 0, 58, 18, 142, 128, 192, 249, 206, 228, 63, 36, 77, 105, 63, 139, 0, 47, 0, 127, 0, 0, 129, 0, 0, 0, 58, 117, 212, 127, 192, 147, 104, 222, 63, 241, 25, 118, 63, 139, 0, 47, 0, 127, 0, 0, 129, 0, 0, 28, 58, 117, 212, 127, 192, 218, 46, 67, 191, 241, 25, 118, 63, 139, 0, 47, 0, 127, 0, 0, 129, 0, 0, 28, 58, 117, 212, 127, 192, 147, 104, 222, 63, 185, 204, 222, 63, 139, 223, 223, 0, 127, 0, 0, 127, 0, 0, 215, 59, 18, 142, 128, 192, 147, 104, 222, 63, 197, 217, 231, 63, 139, 223, 223, 0, 127, 0, 0, 127, 0, 0, 0, 60, 117, 212, 127, 192, 237, 193, 219, 63, 94, 115, 225, 63, 139, 223, 223, 0, 127, 0, 0, 127, 0, 0, 227, 59, 18, 142, 128, 192, 249, 206, 228, 63, 94, 115, 225, 63, 139, 223, 223, 0, 127, 0, 0, 127, 0, 0, 227, 59, 18, 142, 128, 192, 147, 104, 222, 63, 197, 217, 231, 63, 139, 223, 223, 0, 127, 0, 0, 127, 0, 0, 0, 60, 117, 212, 127, 192, 147, 104, 222, 63, 185, 204, 222, 63, 139, 223, 223, 0, 127, 0, 0, 127, 0, 0, 215, 59, 18, 142, 128, 192, 249, 206, 228, 63, 36, 77, 105, 63, 139, 209, 0, 0, 127, 0, 0, 127, 0, 0, 0, 58, 117, 212, 127, 192, 147, 104, 222, 63, 185, 204, 222, 63, 139, 209, 0, 0, 127, 0, 0, 127, 0, 0, 215, 59, 117, 212, 127, 192, 147, 104, 222, 63, 241, 25, 118, 63, 139, 209, 0, 0, 127, 0, 0, 127, 0, 0, 28, 58, 18, 142, 128, 192, 249, 206, 228, 63, 36, 77, 105, 63, 139, 209, 0, 0, 127, 0, 0, 127, 0, 0, 0, 58, 18, 142, 128, 192, 249, 206, 228, 63, 94, 115, 225, 63, 139, 209, 0, 0, 127, 0, 0, 127, 0, 0, 227, 59, 117, 212, 127, 192, 147, 104, 222, 63, 185, 204, 222, 63, 139, 209, 0, 0, 127, 0, 0, 127, 0, 0, 215, 59, 117, 212, 127, 192, 218, 46, 67, 191, 94, 115, 225, 63, 139, 0, 209, 0, 127, 0, 0, 127, 0, 0, 227, 59, 18, 142, 128, 192, 147, 104, 222, 63, 197, 217, 231, 63, 139, 0, 209, 0, 127, 0, 0, 127, 0, 0, 0, 60, 18, 142, 128, 192, 166, 251, 79, 191, 197, 217, 231, 63, 139, 0, 209, 0, 127, 0, 0, 127, 0, 0, 0, 60, 117, 212, 127, 192, 237, 193, 219, 63, 94, 115, 225, 63, 139, 0, 209, 0, 127, 0, 0, 127, 0, 0, 227, 59, 18, 142, 128, 192, 147, 104, 222, 63, 197, 217, 231, 63, 139, 0, 209, 0, 127, 0, 0, 127, 0, 0, 0, 60, 117, 212, 127, 192, 218, 46, 67, 191, 94, 115, 225, 63, 139, 0, 209, 0, 127, 0, 0, 127, 0, 0, 227, 59, 86, 79, 116, 192, 249, 206, 228, 63, 35, 77, 105, 63, 127, 0, 0, 0, 127, 0, 0, 127, 0, 0, 0, 58, 86, 79, 116, 192, 164, 251, 79, 191, 64, 175, 57, 60, 127, 0, 0, 0, 127, 0, 0, 127, 0, 0, 0, 56, 86, 79, 116, 192, 164, 251, 79, 191, 35, 77, 105, 63, 127, 0, 0, 0, 127, 0, 0, 127, 0, 0, 0, 58, 86, 79, 116, 192, 249, 206, 228, 63, 35, 77, 105, 63, 127, 0, 0, 0, 127, 0, 0, 127, 0, 0, 0, 58, 86, 79, 116, 192, 249, 206, 228, 63, 64, 175, 57, 60, 127, 0, 0, 0, 127, 0, 0, 127, 0, 0, 0, 56, 86, 79, 116, 192, 164, 251, 79, 191, 64, 175, 57, 60, 127, 0, 0, 0, 127, 0, 0, 127, 0, 0, 0, 56, 117, 212, 127, 192, 149, 104, 222, 63, 160, 56, 123, 61, 129, 0, 0, 0, 127, 0, 0, 127, 0, 0, 28, 56, 117, 212, 127, 192, 216, 46, 67, 191, 86, 128, 92, 63, 129, 0, 0, 0, 127, 0, 0, 127, 0, 0, 227, 57, 117, 212, 127, 192, 216, 46, 67, 191, 160, 56, 123, 61, 129, 0, 0, 0, 127, 0, 0, 127, 0, 0, 28, 56, 117, 212, 127, 192, 149, 104, 222, 63, 160, 56, 123, 61, 129, 0, 0, 0, 127, 0, 0, 127, 0, 0, 28, 56, 117, 212, 127, 192, 149, 104, 222, 63, 86, 128, 92, 63, 129, 0, 0, 0, 127, 0, 0, 127, 0, 0, 227, 57, 117, 212, 127, 192, 216, 46, 67, 191, 86, 128, 92, 63, 129, 0, 0, 0, 127, 0, 0, 127, 0, 0, 227, 57, 86, 79, 116, 192, 249, 206, 228, 63, 35, 77, 105, 63, 0, 127, 0, 0, 127, 0, 0, 127, 0, 0, 0, 58, 17, 142, 128, 192, 249, 206, 228, 63, 64, 175, 57, 60, 0, 127, 0, 0, 127, 0, 0, 127, 0, 0, 0, 56, 86, 79, 116, 192, 249, 206, 228, 63, 64, 175, 57, 60, 0, 127, 0, 0, 127, 0, 0, 127, 0, 0, 0, 56, 86, 79, 116, 192, 249, 206, 228, 63, 35, 77, 105, 63, 0, 127, 0, 0, 127, 0, 0, 127, 0, 0, 0, 58, 17, 142, 128, 192, 249, 206, 228, 63, 35, 77, 105, 63, 0, 127, 0, 0, 127, 0, 0, 127, 0, 0, 0, 58, 17, 142, 128, 192, 249, 206, 228, 63, 64, 175, 57, 60, 0, 127, 0, 0, 127, 0, 0, 127, 0, 0, 0, 56, 86, 79, 116, 192, 249, 206, 228, 63, 64, 175, 57, 60, 0, 0, 129, 0, 127, 0, 0, 127, 0, 0, 0, 56, 17, 142, 128, 192, 164, 251, 79, 191, 64, 175, 57, 60, 0, 0, 129, 0, 127, 0, 0, 127, 0, 0, 0, 56, 86, 79, 116, 192, 164, 251, 79, 191, 64, 175, 57, 60, 0, 0, 129, 0, 127, 0, 0, 127, 0, 0, 0, 56, 86, 79, 116, 192, 249, 206, 228, 63, 64, 175, 57, 60, 0, 0, 129, 0, 127, 0, 0, 127, 0, 0, 0, 56, 17, 142, 128, 192, 249, 206, 228, 63, 64, 175, 57, 60, 0, 0, 129, 0, 127, 0, 0, 127, 0, 0, 0, 56, 17, 142, 128, 192, 164, 251, 79, 191, 64, 175, 57, 60, 0, 0, 129, 0, 127, 0, 0, 127, 0, 0, 0, 56, 17, 142, 128, 192, 164, 251, 79, 191, 35, 77, 105, 63, 0, 129, 0, 0, 127, 0, 0, 127, 0, 0, 0, 58, 86, 79, 116, 192, 164, 251, 79, 191, 64, 175, 57, 60, 0, 129, 0, 0, 127, 0, 0, 127, 0, 0, 0, 56, 17, 142, 128, 192, 164, 251, 79, 191, 64, 175, 57, 60, 0, 129, 0, 0, 127, 0, 0, 127, 0, 0, 0, 56, 17, 142, 128, 192, 164, 251, 79, 191, 35, 77, 105, 63, 0, 129, 0, 0, 127, 0, 0, 127, 0, 0, 0, 58, 86, 79, 116, 192, 164, 251, 79, 191, 35, 77, 105, 63, 0, 129, 0, 0, 127, 0, 0, 127, 0, 0, 0, 58, 86, 79, 116, 192, 164, 251, 79, 191, 64, 175, 57, 60, 0, 129, 0, 0, 127, 0, 0, 127, 0, 0, 0, 56, 17, 142, 128, 192, 249, 206, 228, 63, 35, 77, 105, 63, 0, 0, 127, 0, 127, 0, 0, 129, 0, 0, 0, 58, 86, 79, 116, 192, 164, 251, 79, 191, 35, 77, 105, 63, 0, 0, 127, 0, 127, 0, 0, 129, 0, 0, 0, 58, 17, 142, 128, 192, 164, 251, 79, 191, 35, 77, 105, 63, 0, 0, 127, 0, 127, 0, 0, 129, 0, 0, 0, 58, 17, 142, 128, 192, 249, 206, 228, 63, 35, 77, 105, 63, 0, 0, 127, 0, 127, 0, 0, 129, 0, 0, 0, 58, 86, 79, 116, 192, 249, 206, 228, 63, 35, 77, 105, 63, 0, 0, 127, 0, 127, 0, 0, 129, 0, 0, 0, 58, 86, 79, 116, 192, 164, 251, 79, 191, 35, 77, 105, 63, 0, 0, 127, 0, 127, 0, 0, 129, 0, 0, 0, 58, 17, 142, 128, 192, 249, 206, 228, 63, 64, 175, 57, 60, 139, 209, 0, 0, 127, 0, 0, 127, 0, 0, 0, 56, 117, 212, 127, 192, 149, 104, 222, 63, 86, 128, 92, 63, 139, 209, 0, 0, 127, 0, 0, 127, 0, 0, 227, 57, 117, 212, 127, 192, 149, 104, 222, 63, 160, 56, 123, 61, 139, 209, 0, 0, 127, 0, 0, 127, 0, 0, 28, 56, 17, 142, 128, 192, 249, 206, 228, 63, 64, 175, 57, 60, 139, 209, 0, 0, 127, 0, 0, 127, 0, 0, 0, 56, 17, 142, 128, 192, 249, 206, 228, 63, 35, 77, 105, 63, 139, 209, 0, 0, 127, 0, 0, 127, 0, 0, 0, 58, 117, 212, 127, 192, 149, 104, 222, 63, 86, 128, 92, 63, 139, 209, 0, 0, 127, 0, 0, 127, 0, 0, 227, 57, 117, 212, 127, 192, 216, 46, 67, 191, 160, 56, 123, 61, 139, 47, 0, 0, 127, 0, 0, 127, 0, 0, 28, 56, 17, 142, 128, 192, 164, 251, 79, 191, 35, 77, 105, 63, 139, 47, 0, 0, 127, 0, 0, 127, 0, 0, 0, 58, 17, 142, 128, 192, 164, 251, 79, 191, 64, 175, 57, 60, 139, 47, 0, 0, 127, 0, 0, 127, 0, 0, 0, 56, 117, 212, 127, 192, 216, 46, 67, 191, 160, 56, 123, 61, 139, 47, 0, 0, 127, 0, 0, 127, 0, 0, 28, 56, 117, 212, 127, 192, 216, 46, 67, 191, 86, 128, 92, 63, 139, 47, 0, 0, 127, 0, 0, 127, 0, 0, 227, 57, 17, 142, 128, 192, 164, 251, 79, 191, 35, 77, 105, 63, 139, 47, 0, 0, 127, 0, 0, 127, 0, 0, 0, 58, 117, 212, 127, 192, 216, 46, 67, 191, 86, 128, 92, 63, 139, 0, 209, 0, 127, 0, 0, 127, 0, 0, 227, 57, 17, 142, 128, 192, 249, 206, 228, 63, 35, 77, 105, 63, 139, 0, 209, 0, 127, 0, 0, 127, 0, 0, 0, 58, 17, 142, 128, 192, 164, 251, 79, 191, 35, 77, 105, 63, 139, 0, 209, 0, 127, 0, 0, 127, 0, 0, 0, 58, 117, 212, 127, 192, 149, 104, 222, 63, 86, 128, 92, 63, 139, 0, 209, 0, 127, 0, 0, 127, 0, 0, 227, 57, 17, 142, 128, 192, 249, 206, 228, 63, 35, 77, 105, 63, 139, 0, 209, 0, 127, 0, 0, 127, 0, 0, 0, 58, 117, 212, 127, 192, 216, 46, 67, 191, 86, 128, 92, 63, 139, 0, 209, 0, 127, 0, 0, 127, 0, 0, 227, 57, 17, 142, 128, 192, 249, 206, 228, 63, 64, 175, 57, 60, 139, 0, 47, 0, 127, 0, 0, 129, 0, 0, 0, 56, 117, 212, 127, 192, 216, 46, 67, 191, 160, 56, 123, 61, 139, 0, 47, 0, 127, 0, 0, 129, 0, 0, 28, 56, 17, 142, 128, 192, 164, 251, 79, 191, 64, 175, 57, 60, 139, 0, 47, 0, 127, 0, 0, 129, 0, 0, 0, 56, 17, 142, 128, 192, 249, 206, 228, 63, 64, 175, 57, 60, 139, 0, 47, 0, 127, 0, 0, 129, 0, 0, 0, 56, 117, 212, 127, 192, 149, 104, 222, 63, 160, 56, 123, 61, 139, 0, 47, 0, 127, 0, 0, 129, 0, 0, 28, 56, 117, 212, 127, 192, 216, 46, 67, 191, 160, 56, 123, 61, 139, 0, 47, 0, 127, 0, 0, 129, 0, 0, 28, 56 ),
"array_index_data": PoolByteArray(  ),
"blend_shape_data": [  ],
"format": 97303,
"index_count": 0,
"material": ExtResource( 3 ),
"primitive": 4,
"skeleton_aabb": [  ],
"vertex_count": 276
}

[node name="cargo" type="CollisionShape"]
shape = SubResource( 2 )
script = ExtResource( 2 )

[node name="Cargo" type="MeshInstance" parent="."]
mesh = SubResource( 1 )
material/0 = null
material/1 = null
material/2 = null
