[gd_scene load_steps=3 format=2]

[ext_resource path="res://blokoj/asteroidoj/resursoj/ast_ice_shards_1.glb" type="PackedScene" id=1]

[sub_resource type="ConcavePolygonShape" id=1]
data = PoolVector3Array( 6.1556, -1.9539, -4.3102, 5.5465, 0.2071, -3.356, 4.839, 0.2375, -2.8352, 7.1551, -0.89, -4.6319, 7.9709, -1.074, -2.9562, 7.7501, -0.365, -3.9336, 5.5465, 0.2071, -3.356, 7.5552, -0.9686, -1.4051, 4.839, 0.2375, -2.8352, 7.9709, -1.074, -2.9562, 7.5062, -2.5995, -1.936, 7.5552, -0.9686, -1.4051, 6.1778, -0.9887, -0.0401, 4.2034, -1.2562, -1.4587, 4.839, 0.2375, -2.8352, 6.3526, -2.8598, -1.4997, 6.1778, -0.9887, -0.0401, 7.5062, -2.5995, -1.936, 7.5552, -0.9686, -1.4051, 7.5062, -2.5995, -1.936, 6.1778, -0.9887, -0.0401, 5.8081, -2.7964, -3.6125, 4.839, 0.2375, -2.8352, 4.2034, -1.2562, -1.4587, 4.2034, -1.2562, -1.4587, 5.2094, -1.6145, -0.126, 6.3526, -2.8598, -1.4997, 1.5384, 5.5095, 5.5873, -0.8617, 5.1557, 7.6722, 1.3515, 6.4268, 6.1552, -1.3846, 2.7055, 4.2858, 0.0234, 2.9666, 4.1544, -1.2593, 3.5617, 3.911, 0.8257, 6.0226, 4.6349, -1.8019, 6.1907, 6.5301, -1.2593, 3.5617, 3.911, 1.5384, 5.5095, 5.5873, 0.8257, 6.0226, 4.6349, 0.0234, 2.9666, 4.1544, -0.6816, 4.2491, 8.0363, -0.8617, 5.1557, 7.6722, 0.7625, 4.251, 7.5402, 1.5384, 5.5095, 5.5873, 1.3515, 6.4268, 6.1552, 0.8257, 6.0226, 4.6349, -1.2593, 3.5617, 3.911, -1.8019, 6.1907, 6.5301, -2.3148, 5.1427, 6.6849, -7.0892, -6.8774, 11.2913, -7.753, -6.2819, 9.3787, -8.2969, -6.7419, 12.3346, -7.0892, -6.8774, 11.2913, -6.0201, -5.0468, 12.1477, -6.2672, -4.1465, 10.8952, -8.2969, -6.7419, 12.3346, -8.1299, -5.6194, 13.2436, -7.0892, -6.8774, 11.2913, -9.4876, -4.311, 12.6801, -6.5845, -4.4975, 13.0817, -8.1299, -5.6194, 13.2436, -9.9631, -5.8263, 11.7259, -9.4815, -5.4526, 12.7649, -8.2969, -6.7419, 12.3346, -9.9631, -5.8263, 11.7259, -7.753, -6.2819, 9.3787, -10.2275, -5.1561, 11.4, -8.2969, -6.7419, 12.3346, -7.753, -6.2819, 9.3787, -9.9631, -5.8263, 11.7259, -6.2672, -4.1465, 10.8952, -9.4876, -4.311, 12.6801, -10.2275, -5.1561, 11.4, -4.4009, -4.0744, -10.9443, -3.9801, -6.9632, -10.859, -3.0882, -6.0461, -11.1724, -4.4034, -5.2068, -7.7433, -1.7951, -5.5377, -8.7485, -4.9361, -6.6241, -10.2943, -2.6477, -3.4811, -10.5346, -3.0808, -4.3183, -7.9852, -4.8785, -4.052, -8.2175, -1.7951, -5.5377, -8.7485, -3.0808, -4.3183, -7.9852, -1.837, -4.4537, -9.2913, -1.837, -4.4537, -9.2913, -3.0882, -6.0461, -11.1724, -1.7951, -5.5377, -8.7485, -1.7951, -5.5377, -8.7485, -4.4034, -5.2068, -7.7433, -3.0808, -4.3183, -7.9852, -3.0808, -4.3183, -7.9852, -4.4034, -5.2068, -7.7433, -4.8785, -4.052, -8.2175, -2.6477, -3.4811, -10.5346, -4.8785, -4.052, -8.2175, -4.4009, -4.0744, -10.9443, -4.4034, -5.2068, -7.7433, -5.1962, -5.7766, -8.86, -4.8785, -4.052, -8.2175, -5.1962, -5.7766, -8.86, -4.4034, -5.2068, -7.7433, -4.9361, -6.6241, -10.2943, -3.9801, -6.9632, -10.859, -1.7951, -5.5377, -8.7485, -3.0882, -6.0461, -11.1724, -12.744, -6.3651, -3.0631, -14.7156, -6.376, -2.1355, -12.073, -5.0129, -1.9189, -14.5695, -5.1668, -4.0554, -12.4989, -3.9066, -2.5756, -14.9818, -3.9078, -3.2426, -12.744, -6.3651, -3.0631, -12.4989, -3.9066, -2.5756, -14.5695, -5.1668, -4.0554, -14.1614, -6.1411, -4.1087, -14.267, -6.9258, -2.9037, -12.744, -6.3651, -3.0631, -14.9818, -3.9078, -3.2426, -14.7156, -6.376, -2.1355, -14.5695, -5.1668, -4.0554, -14.755, -4.4656, -0.2173, -14.7156, -6.376, -2.1355, -15.1078, -4.2229, -1.6569, -8.6534, 1.3165, -1.1378, -8.5447, 0.4048, -0.796, -9.0877, 0.6038, -2.8491, -9.0877, 0.6038, -2.8491, -9.4064, -0.394, -1.6394, -9.1164, 0.3737, -4.6886, -8.6534, 1.3165, -1.1378, -9.0877, 0.6038, -2.8491, -8.6436, 1.9991, -2.2243, -9.1164, 0.3737, -4.6886, -7.492, -2.0627, -3.6445, -6.3402, -1.6668, -3.7158, -7.3261, 0.1315, -1.0757, -5.5654, 0.933, -3.3388, -6.3402, -1.6668, -3.7158, -7.9487, 2.6014, -1.8167, -6.9415, 2.028, -1.0968, -7.7828, 2.4481, -1.2741, -7.7828, 2.4481, -1.2741, -6.9415, 2.028, -1.0968, -8.6534, 1.3165, -1.1378, -5.5654, 0.933, -3.3388, -6.9415, 2.028, -1.0968, -5.7, 1.9327, -3.5031, -7.492, -2.0627, -3.6445, -7.3261, 0.1315, -1.0757, -6.3402, -1.6668, -3.7158, -6.3967, 2.1017, -4.28, -9.1164, 0.3737, -4.6886, -6.3402, -1.6668, -3.7158, -5.7, 1.9327, -3.5031, -6.3967, 2.1017, -4.28, -5.5654, 0.933, -3.3388, -8.6436, 1.9991, -2.2243, -7.9487, 2.6014, -1.8167, -7.7828, 2.4481, -1.2741, -9.1164, 0.3737, -4.6886, -8.6436, 1.9991, -2.2243, -9.0877, 0.6038, -2.8491, 4.9263, 4.5722, -7.7929, 3.7176, 3.1887, -8.9283, 3.8616, 2.4306, -8.8542, 3.9714, 5.1821, -8.477, 2.8403, 4.809, -7.3233, 3.0575, 5.0725, -8.3541, 3.7176, 3.1887, -8.9283, 2.3079, 3.6437, -6.6995, 3.8616, 2.4306, -8.8542, 2.8403, 4.809, -7.3233, 3.411, 4.2507, -5.8494, 2.3079, 3.6437, -6.6995, 2.463, 1.9831, -6.2911, 4.3551, 1.5513, -7.2522, 3.8616, 2.4306, -8.8542, 3.9894, 3.3083, -5.6972, 2.463, 1.9831, -6.2911, 3.411, 4.2507, -5.8494, 2.3079, 3.6437, -6.6995, 3.411, 4.2507, -5.8494, 2.463, 1.9831, -6.2911, 5.2308, 4.1292, -6.9304, 3.8616, 2.4306, -8.8542, 4.3551, 1.5513, -7.2522, 4.3551, 1.5513, -7.2522, 3.3638, 1.5313, -6.1106, 3.9894, 3.3083, -5.6972, -14.0938, -9.3748, 1.8487, -13.425, -10.6882, 3.8442, -13.5064, -9.951, 1.1054, -13.6687, -7.9842, 4.8857, -11.258, -8.0664, 2.0204, -11.0685, -9.2967, 2.9657, -11.258, -8.0664, 2.0204, -14.0938, -9.3748, 1.8487, -12.2711, -9.4501, 1.0039, -13.6687, -7.9842, 4.8857, -14.0496, -7.2064, 3.9866, -11.258, -8.0664, 2.0204, -13.2943, -8.839, 5.1191, -13.425, -10.6882, 3.8442, -13.6687, -7.9842, 4.8857, -12.4516, -11.0054, 1.7225, -13.425, -10.6882, 3.8442, -12.0666, -11.3212, 2.5673, -9.3941, 1.9781, 9.5459, -7.711, 0.2041, 10.117, -9.7335, -0.3482, 10.2915, -9.7335, -0.3482, 10.2915, -10.7677, 0.042, 9.8161, -9.3941, 1.9781, 9.5459, -11.101, -1.4066, 8.8343, -9.7335, -0.3482, 10.2915, -7.1027, -0.4332, 8.3538, -8.9648, 1.8781, 8.2668, -7.711, 0.2041, 10.117, -9.3941, 1.9781, 9.5459, -8.9648, 1.8781, 8.2668, -9.1407, -0.3308, 5.6639, -7.8235, -0.685, 6.0405, -11.0601, 1.3366, 7.6785, -10.2863, 2.067, 8.5064, -11.5414, 0.3299, 8.0839, -11.5222, -0.5469, 8.036, -10.7677, 0.042, 9.8161, -11.101, -1.4066, 8.8343, -9.3941, 1.9781, 9.5459, -10.7677, 0.042, 9.8161, -10.2863, 2.067, 8.5064, -8.9648, 1.8781, 8.2668, -7.8235, -0.685, 6.0405, -7.1027, -0.4332, 8.3538, -11.5414, 0.3299, 8.0839, -9.1407, -0.3308, 5.6639, -11.0601, 1.3366, 7.6785, -11.101, -1.4066, 8.8343, -8.5397, -1.7277, 6.1465, -11.5222, -0.5469, 8.036, 8.2007, -2.3932, 5.5715, 9.5445, -2.5192, 7.6208, 8.9426, -2.8105, 5.4329, 7.7974, 0.1854, 7.5236, 7.2402, -0.3919, 6.7866, 8.1489, 0.2009, 6.8928, 8.6437, -1.5948, 5.1844, 10.3822, -1.6036, 6.9776, 8.1489, 0.2009, 6.8928, 8.2007, -2.3932, 5.5715, 8.6437, -1.5948, 5.1844, 7.2402, -0.3919, 6.7866, 9.028, -2.6504, 8.1388, 9.5445, -2.5192, 7.6208, 7.6234, -3.0393, 6.7474, 8.2007, -2.3932, 5.5715, 8.9426, -2.8105, 5.4329, 8.6437, -1.5948, 5.1844, 8.1489, 0.2009, 6.8928, 10.3822, -1.6036, 6.9776, 10.0692, -1.2808, 7.759, 1.2697, -6.6155, 9.128, 1.6602, -4.8766, 7.9981, 2.4398, -6.7314, 10.2739, 1.2697, -6.6155, 9.128, 2.1494, -8.3331, 7.9018, 2.6618, -7.4227, 6.7404, 2.4398, -6.7314, 10.2739, 3.3323, -7.8379, 9.9857, 1.2697, -6.6155, 9.128, 5.0122, -6.9245, 9.5351, 3.1382, -8.8681, 8.3801, 3.3323, -7.8379, 9.9857, 3.9655, -5.5468, 10.1977, 4.1895, -6.7255, 10.3059, 2.4398, -6.7314, 10.2739, 3.9655, -5.5468, 10.1977, 1.6602, -4.8766, 7.9981, 4.5459, -5.2972, 9.7221, 2.4398, -6.7314, 10.2739, 1.6602, -4.8766, 7.9981, 3.9655, -5.5468, 10.1977, 2.6618, -7.4227, 6.7404, 5.0122, -6.9245, 9.5351, 4.5459, -5.2972, 9.7221, 4.4775, -8.9766, -1.0827, 2.3884, -9.5996, -2.7597, 3.1789, -6.3988, -1.3608, 3.9719, -8.2276, -4.6007, 4.2408, -9.7398, -2.439, 5.4884, -8.6038, -1.8303, 2.3884, -9.5996, -2.7597, 4.2408, -9.7398, -2.439, 3.0637, -9.4105, -3.7153, 3.0637, -9.4105, -3.7153, 2.2197, -6.9207, -3.0952, 2.3884, -9.5996, -2.7597, 2.3884, -9.5996, -2.7597, 4.4775, -8.9766, -1.0827, 4.2408, -9.7398, -2.439, 4.2408, -9.7398, -2.439, 4.4775, -8.9766, -1.0827, 5.4884, -8.6038, -1.8303, 3.9719, -8.2276, -4.6007, 5.4884, -8.6038, -1.8303, 4.4857, -6.7685, -3.5653, 4.4775, -8.9766, -1.0827, 4.2908, -7.544, -0.9527, 5.4884, -8.6038, -1.8303, 4.2908, -7.544, -0.9527, 4.4775, -8.9766, -1.0827, 3.1789, -6.3988, -1.3608, 2.2101, -6.4273, -1.9502, 2.3884, -9.5996, -2.7597, 2.2197, -6.9207, -3.0952, 3.4423, -7.6838, -4.8168, 4.4857, -6.7685, -3.5653, 2.2197, -6.9207, -3.0952, -4.1686, -6.6077, -2.2433, -2.7033, -6.2, -0.6859, -3.3183, -8.2137, -2.7965, -2.4004, -5.0583, -2.6251, -2.396, -7.7149, -3.655, -0.9903, -5.7617, -2.7503, -4.1686, -6.6077, -2.2433, -2.396, -7.7149, -3.655, -2.4004, -5.0583, -2.6251, -3.3656, -5.0474, -2.1946, -3.5788, -5.7278, -1.0089, -4.1686, -6.6077, -2.2433, -0.9903, -5.7617, -2.7503, -2.7033, -6.2, -0.6859, -2.4004, -5.0583, -2.6251, -0.8051, -8.1283, -0.7806, -2.7033, -6.2, -0.6859, -0.7551, -6.8556, -1.5766, 3.223, 5.6582, 3.9056, 2.5682, 5.5471, 4.6222, 2.5561, 7.4185, 3.6014, 2.5561, 7.4185, 3.6014, 2.3192, 6.8906, 5.0934, 1.9572, 8.9289, 2.7084, 3.223, 5.6582, 3.9056, 2.5561, 7.4185, 3.6014, 3.454, 6.3447, 2.8432, 1.9572, 8.9289, 2.7084, -0.6077, 7.7494, 4.0136, -1.062, 7.0479, 3.1247, 1.5284, 5.1267, 4.0049, 0.4522, 5.694, 1.2875, -1.062, 7.0479, 3.1247, 3.5574, 5.4835, 2.3336, 2.6542, 4.4721, 2.5714, 3.4722, 4.9995, 2.6559, 3.4722, 4.9995, 2.6559, 2.6542, 4.4721, 2.5714, 3.223, 5.6582, 3.9056, 0.4522, 5.694, 1.2875, 2.6542, 4.4721, 2.5714, 1.2332, 5.666, 0.6275, -0.6077, 7.7494, 4.0136, 1.5284, 5.1267, 4.0049, -1.062, 7.0479, 3.1247, 1.6073, 6.6342, 0.4364, 1.9572, 8.9289, 2.7084, -1.062, 7.0479, 3.1247, 1.2332, 5.666, 0.6275, 1.6073, 6.6342, 0.4364, 0.4522, 5.694, 1.2875, 3.454, 6.3447, 2.8432, 3.5574, 5.4835, 2.3336, 3.4722, 4.9995, 2.6559, 1.9572, 8.9289, 2.7084, 3.454, 6.3447, 2.8432, 2.5561, 7.4185, 3.6014, -1.0486, -9.2213, 3.401, -1.9499, -10.8589, 5.0321, -2.0252, -8.8426, 3.0372, 0.4504, -12.1688, 4.034, -1.831, -11.3005, 1.1994, -2.6862, -11.8166, 2.4209, -1.831, -11.3005, 1.1994, -1.0486, -9.2213, 3.401, -2.4624, -9.5931, 2.021, 0.4504, -12.1688, 4.034, 1.0347, -11.4189, 3.2277, -1.831, -11.3005, 1.1994, -0.357, -12.3715, 4.518, -1.9499, -10.8589, 5.0321, 0.4504, -12.1688, 4.034, -3.3168, -9.6852, 3.5143, -1.9499, -10.8589, 5.0321, -3.5858, -10.4937, 3.9995, 3.5588, -2.2554, 8.5388, 1.3294, -3.2545, 9.1216, 2.442, -1.6532, 11.0103, 2.442, -1.6532, 11.0103, 3.0688, -1.2191, 10.6354, 3.5588, -2.2554, 8.5388, 1.971, 0.0793, 11.1696, 2.442, -1.6532, 11.0103, 0.0456, -2.0754, 8.2015, 2.9007, -1.4785, 7.6476, 1.3294, -3.2545, 9.1216, 3.5588, -2.2554, 8.5388, 2.9007, -1.4785, 7.6476, 0.7523, 1.18, 7.6513, -0.2489, 0.2096, 7.4099, 3.6829, 0.3207, 8.741, 3.9311, -0.9289, 8.3561, 3.3465, 0.5137, 9.8613, 2.678, 0.7474, 10.3808, 3.0688, -1.2191, 10.6354, 1.971, 0.0793, 11.1696, 3.5588, -2.2554, 8.5388, 3.0688, -1.2191, 10.6354, 3.9311, -0.9289, 8.3561, 2.9007, -1.4785, 7.6476, -0.2489, 0.2096, 7.4099, 0.0456, -2.0754, 8.2015, 3.3465, 0.5137, 9.8613, 0.7523, 1.18, 7.6513, 3.6829, 0.3207, 8.741, 1.971, 0.0793, 11.1696, -0.5371, 0.7851, 8.5039, 2.678, 0.7474, 10.3808, 5.5465, 0.2071, -3.356, 6.1556, -1.9539, -4.3102, 7.1551, -0.89, -4.6319, 7.9709, -1.074, -2.9562, 6.7286, -2.6534, -3.4391, 7.5062, -2.5995, -1.936, 6.7286, -2.6534, -3.4391, 7.9709, -1.074, -2.9562, 7.1551, -0.89, -4.6319, 7.7501, -0.365, -3.9336, 7.5552, -0.9686, -1.4051, 5.5465, 0.2071, -3.356, 4.839, 0.2375, -2.8352, 7.5552, -0.9686, -1.4051, 6.1778, -0.9887, -0.0401, 6.1778, -0.9887, -0.0401, 6.3526, -2.8598, -1.4997, 5.2094, -1.6145, -0.126, 7.5552, -0.9686, -1.4051, 7.7501, -0.365, -3.9336, 7.9709, -1.074, -2.9562, 6.7286, -2.6534, -3.4391, 6.3526, -2.8598, -1.4997, 7.5062, -2.5995, -1.936, 5.8081, -2.7964, -3.6125, 6.3526, -2.8598, -1.4997, 6.7286, -2.6534, -3.4391, 4.2034, -1.2562, -1.4587, 6.1778, -0.9887, -0.0401, 5.2094, -1.6145, -0.126, 4.839, 0.2375, -2.8352, 5.8081, -2.7964, -3.6125, 6.1556, -1.9539, -4.3102, 7.7501, -0.365, -3.9336, 5.5465, 0.2071, -3.356, 7.1551, -0.89, -4.6319, 4.2034, -1.2562, -1.4587, 6.3526, -2.8598, -1.4997, 5.8081, -2.7964, -3.6125, 6.1556, -1.9539, -4.3102, 6.7286, -2.6534, -3.4391, 7.1551, -0.89, -4.6319, 5.8081, -2.7964, -3.6125, 6.7286, -2.6534, -3.4391, 6.1556, -1.9539, -4.3102, 0.8257, 6.0226, 4.6349, -1.1735, 6.4117, 7.311, -1.8019, 6.1907, 6.5301, 1.3515, 6.4268, 6.1552, -1.1735, 6.4117, 7.311, 0.8257, 6.0226, 4.6349, 0.0234, 2.9666, 4.1544, -0.4251, 2.8473, 6.7238, 1.135, 3.5157, 6.8132, -0.4251, 2.8473, 6.7238, 0.0234, 2.9666, 4.1544, -1.3846, 2.7055, 4.2858, -0.4251, 2.8473, 6.7238, -2.3148, 5.1427, 6.6849, -0.6816, 4.2491, 8.0363, -2.3148, 5.1427, 6.6849, -0.4251, 2.8473, 6.7238, -1.3846, 2.7055, 4.2858, -1.1735, 6.4117, 7.311, -0.8617, 5.1557, 7.6722, -2.3148, 5.1427, 6.6849, -2.3148, 5.1427, 6.6849, -0.8617, 5.1557, 7.6722, -0.6816, 4.2491, 8.0363, 1.8601, 4.3852, 6.6265, 1.135, 3.5157, 6.8132, 0.7625, 4.251, 7.5402, 0.0234, 2.9666, 4.1544, 1.135, 3.5157, 6.8132, 1.8601, 4.3852, 6.6265, -0.4251, 2.8473, 6.7238, 0.7625, 4.251, 7.5402, 1.135, 3.5157, 6.8132, 0.7625, 4.251, 7.5402, -0.4251, 2.8473, 6.7238, -0.6816, 4.2491, 8.0363, -2.3148, 5.1427, 6.6849, -1.8019, 6.1907, 6.5301, -1.1735, 6.4117, 7.311, -1.1735, 6.4117, 7.311, 1.3515, 6.4268, 6.1552, -0.8617, 5.1557, 7.6722, 0.8257, 6.0226, 4.6349, -1.2593, 3.5617, 3.911, 0.0234, 2.9666, 4.1544, 1.5384, 5.5095, 5.5873, 0.0234, 2.9666, 4.1544, 1.8601, 4.3852, 6.6265, -0.8617, 5.1557, 7.6722, 1.5384, 5.5095, 5.5873, 0.7625, 4.251, 7.5402, 0.7625, 4.251, 7.5402, 1.5384, 5.5095, 5.5873, 1.8601, 4.3852, 6.6265, -1.2593, 3.5617, 3.911, -2.3148, 5.1427, 6.6849, -1.3846, 2.7055, 4.2858, -9.4815, -5.4526, 12.7649, -9.9631, -5.8263, 11.7259, -10.2275, -5.1561, 11.4, -7.0892, -6.8774, 11.2913, -6.2672, -4.1465, 10.8952, -7.753, -6.2819, 9.3787, -9.4815, -5.4526, 12.7649, -10.2275, -5.1561, 11.4, -9.4876, -4.311, 12.6801, -6.5845, -4.4975, 13.0817, -7.0892, -6.8774, 11.2913, -8.1299, -5.6194, 13.2436, -6.0201, -5.0468, 12.1477, -7.0892, -6.8774, 11.2913, -6.5845, -4.4975, 13.0817, -7.0219, -3.5699, 12.7042, -6.0201, -5.0468, 12.1477, -6.5845, -4.4975, 13.0817, -6.0201, -5.0468, 12.1477, -7.0219, -3.5699, 12.7042, -6.2672, -4.1465, 10.8952, -9.4815, -5.4526, 12.7649, -8.1299, -5.6194, 13.2436, -8.2969, -6.7419, 12.3346, -9.4815, -5.4526, 12.7649, -9.4876, -4.311, 12.6801, -8.1299, -5.6194, 13.2436, -10.2275, -5.1561, 11.4, -7.753, -6.2819, 9.3787, -6.2672, -4.1465, 10.8952, -7.0219, -3.5699, 12.7042, -6.5845, -4.4975, 13.0817, -9.4876, -4.311, 12.6801, -9.4876, -4.311, 12.6801, -6.2672, -4.1465, 10.8952, -7.0219, -3.5699, 12.7042, -4.4009, -4.0744, -10.9443, -4.9361, -6.6241, -10.2943, -3.9801, -6.9632, -10.859, -2.4989, -3.8641, -11.2313, -4.4009, -4.0744, -10.9443, -3.0882, -6.0461, -11.1724, -2.4989, -3.8641, -11.2313, -2.6477, -3.4811, -10.5346, -4.4009, -4.0744, -10.9443, -3.9801, -6.9632, -10.859, -4.9361, -6.6241, -10.2943, -1.7951, -5.5377, -8.7485, -3.0882, -6.0461, -11.1724, -1.837, -4.4537, -9.2913, -2.4989, -3.8641, -11.2313, -1.837, -4.4537, -9.2913, -2.6477, -3.4811, -10.5346, -2.4989, -3.8641, -11.2313, -4.4009, -4.0744, -10.9443, -5.1962, -5.7766, -8.86, -4.9361, -6.6241, -10.2943, -5.1962, -5.7766, -8.86, -4.4009, -4.0744, -10.9443, -4.8785, -4.052, -8.2175, -2.6477, -3.4811, -10.5346, -1.837, -4.4537, -9.2913, -3.0808, -4.3183, -7.9852, -12.073, -5.0129, -1.9189, -14.7156, -6.376, -2.1355, -14.755, -4.4656, -0.2173, -14.7156, -6.376, -2.1355, -12.744, -6.3651, -3.0631, -14.267, -6.9258, -2.9037, -12.073, -5.0129, -1.9189, -12.4989, -3.9066, -2.5756, -12.744, -6.3651, -3.0631, -12.4989, -3.9066, -2.5756, -12.073, -5.0129, -1.9189, -14.755, -4.4656, -0.2173, -12.744, -6.3651, -3.0631, -14.5695, -5.1668, -4.0554, -14.1614, -6.1411, -4.1087, -14.9818, -3.9078, -3.2426, -12.4989, -3.9066, -2.5756, -15.1078, -4.2229, -1.6569, -12.4989, -3.9066, -2.5756, -14.755, -4.4656, -0.2173, -15.1078, -4.2229, -1.6569, -14.7156, -6.376, -2.1355, -14.9818, -3.9078, -3.2426, -15.1078, -4.2229, -1.6569, -14.5695, -5.1668, -4.0554, -14.267, -6.9258, -2.9037, -14.1614, -6.1411, -4.1087, -14.267, -6.9258, -2.9037, -14.5695, -5.1668, -4.0554, -14.7156, -6.376, -2.1355, -9.0877, 0.6038, -2.8491, -8.5447, 0.4048, -0.796, -9.4064, -0.394, -1.6394, -7.9487, 2.6014, -1.8167, -8.6436, 1.9991, -2.2243, -6.3967, 2.1017, -4.28, -6.3967, 2.1017, -4.28, -8.6436, 1.9991, -2.2243, -9.1164, 0.3737, -4.6886, -5.5654, 0.933, -3.3388, -7.3261, 0.1315, -1.0757, -6.9415, 2.028, -1.0968, -6.9415, 2.028, -1.0968, -7.9487, 2.6014, -1.8167, -5.7, 1.9327, -3.5031, -5.7, 1.9327, -3.5031, -7.9487, 2.6014, -1.8167, -6.3967, 2.1017, -4.28, -8.5447, 0.4048, -0.796, -8.6534, 1.3165, -1.1378, -6.9415, 2.028, -1.0968, -8.5447, 0.4048, -0.796, -7.3261, 0.1315, -1.0757, -9.4064, -0.394, -1.6394, -9.4064, -0.394, -1.6394, -7.3261, 0.1315, -1.0757, -7.492, -2.0627, -3.6445, -6.3402, -1.6668, -3.7158, -5.5654, 0.933, -3.3388, -6.3967, 2.1017, -4.28, -8.6534, 1.3165, -1.1378, -8.6436, 1.9991, -2.2243, -7.7828, 2.4481, -1.2741, -9.4064, -0.394, -1.6394, -7.492, -2.0627, -3.6445, -9.1164, 0.3737, -4.6886, -6.9415, 2.028, -1.0968, -7.3261, 0.1315, -1.0757, -8.5447, 0.4048, -0.796, 3.7176, 3.1887, -8.9283, 4.9263, 4.5722, -7.7929, 3.9714, 5.1821, -8.477, 2.8403, 4.809, -7.3233, 4.563, 4.6011, -6.7425, 3.411, 4.2507, -5.8494, 4.563, 4.6011, -6.7425, 2.8403, 4.809, -7.3233, 3.9714, 5.1821, -8.477, 3.0575, 5.0725, -8.3541, 2.3079, 3.6437, -6.6995, 3.7176, 3.1887, -8.9283, 3.8616, 2.4306, -8.8542, 2.3079, 3.6437, -6.6995, 2.463, 1.9831, -6.2911, 2.463, 1.9831, -6.2911, 3.9894, 3.3083, -5.6972, 3.3638, 1.5313, -6.1106, 2.3079, 3.6437, -6.6995, 3.0575, 5.0725, -8.3541, 2.8403, 4.809, -7.3233, 4.563, 4.6011, -6.7425, 3.9894, 3.3083, -5.6972, 3.411, 4.2507, -5.8494, 5.2308, 4.1292, -6.9304, 3.9894, 3.3083, -5.6972, 4.563, 4.6011, -6.7425, 4.3551, 1.5513, -7.2522, 2.463, 1.9831, -6.2911, 3.3638, 1.5313, -6.1106, 3.8616, 2.4306, -8.8542, 5.2308, 4.1292, -6.9304, 4.9263, 4.5722, -7.7929, 3.0575, 5.0725, -8.3541, 3.7176, 3.1887, -8.9283, 3.9714, 5.1821, -8.477, 4.3551, 1.5513, -7.2522, 3.9894, 3.3083, -5.6972, 5.2308, 4.1292, -6.9304, 4.9263, 4.5722, -7.7929, 4.563, 4.6011, -6.7425, 3.9714, 5.1821, -8.477, 5.2308, 4.1292, -6.9304, 4.563, 4.6011, -6.7425, 4.9263, 4.5722, -7.7929, -13.6687, -7.9842, 4.8857, -13.425, -10.6882, 3.8442, -14.0938, -9.3748, 1.8487, -13.6687, -7.9842, 4.8857, -14.0938, -9.3748, 1.8487, -14.0496, -7.2064, 3.9866, -12.4516, -11.0054, 1.7225, -12.2711, -9.4501, 1.0039, -13.5064, -9.951, 1.1054, -11.0685, -9.2967, 2.9657, -12.0666, -11.3212, 2.5673, -13.2943, -8.839, 5.1191, -12.4516, -11.0054, 1.7225, -11.0685, -9.2967, 2.9657, -12.2711, -9.4501, 1.0039, -12.2711, -9.4501, 1.0039, -11.0685, -9.2967, 2.9657, -11.258, -8.0664, 2.0204, -11.0685, -9.2967, 2.9657, -12.4516, -11.0054, 1.7225, -12.0666, -11.3212, 2.5673, -12.2711, -9.4501, 1.0039, -14.0938, -9.3748, 1.8487, -13.5064, -9.951, 1.1054, -14.0496, -7.2064, 3.9866, -14.0938, -9.3748, 1.8487, -11.258, -8.0664, 2.0204, -13.425, -10.6882, 3.8442, -13.2943, -8.839, 5.1191, -12.0666, -11.3212, 2.5673, -13.2943, -8.839, 5.1191, -13.6687, -7.9842, 4.8857, -11.0685, -9.2967, 2.9657, -13.425, -10.6882, 3.8442, -12.4516, -11.0054, 1.7225, -13.5064, -9.951, 1.1054, -10.5739, -0.734, 10.0111, -11.101, -1.4066, 8.8343, -10.7677, 0.042, 9.8161, -7.8235, -0.685, 6.0405, -8.5397, -1.7277, 6.1465, -7.1027, -0.4332, 8.3538, -9.1407, -0.3308, 5.6639, -11.5222, -0.5469, 8.036, -8.5397, -1.7277, 6.1465, -8.5397, -1.7277, 6.1465, -7.8235, -0.685, 6.0405, -9.1407, -0.3308, 5.6639, -10.2863, 2.067, 8.5064, -8.9648, 1.8781, 8.2668, -9.3941, 1.9781, 9.5459, -11.101, -1.4066, 8.8343, -7.1027, -0.4332, 8.3538, -8.5397, -1.7277, 6.1465, -7.711, 0.2041, 10.117, -7.1027, -0.4332, 8.3538, -9.7335, -0.3482, 10.2915, -9.7335, -0.3482, 10.2915, -11.101, -1.4066, 8.8343, -10.5739, -0.734, 10.0111, -7.1027, -0.4332, 8.3538, -7.711, 0.2041, 10.117, -8.9648, 1.8781, 8.2668, -9.1407, -0.3308, 5.6639, -8.9648, 1.8781, 8.2668, -11.0601, 1.3366, 7.6785, -11.0601, 1.3366, 7.6785, -8.9648, 1.8781, 8.2668, -10.2863, 2.067, 8.5064, -10.2863, 2.067, 8.5064, -10.7677, 0.042, 9.8161, -11.5414, 0.3299, 8.0839, -10.5739, -0.734, 10.0111, -10.7677, 0.042, 9.8161, -9.7335, -0.3482, 10.2915, -10.7677, 0.042, 9.8161, -11.5222, -0.5469, 8.036, -11.5414, 0.3299, 8.0839, -9.1407, -0.3308, 5.6639, -11.5414, 0.3299, 8.0839, -11.5222, -0.5469, 8.036, 8.6437, -1.5948, 5.1844, 10.332, -2.3869, 6.9863, 10.3822, -1.6036, 6.9776, 8.9426, -2.8105, 5.4329, 10.332, -2.3869, 6.9863, 8.6437, -1.5948, 5.1844, 7.2402, -0.3919, 6.7866, 7.8688, -1.7242, 8.1434, 7.5067, -2.587, 7.2386, 7.8688, -1.7242, 8.1434, 7.2402, -0.3919, 6.7866, 7.7974, 0.1854, 7.5236, 7.8688, -1.7242, 8.1434, 10.0692, -1.2808, 7.759, 9.028, -2.6504, 8.1388, 10.0692, -1.2808, 7.759, 7.8688, -1.7242, 8.1434, 7.7974, 0.1854, 7.5236, 10.332, -2.3869, 6.9863, 9.5445, -2.5192, 7.6208, 10.0692, -1.2808, 7.759, 10.0692, -1.2808, 7.759, 9.5445, -2.5192, 7.6208, 9.028, -2.6504, 8.1388, 7.2402, -0.3919, 6.7866, 7.5067, -2.587, 7.2386, 7.6234, -3.0393, 6.7474, 7.8688, -1.7242, 8.1434, 7.6234, -3.0393, 6.7474, 7.5067, -2.587, 7.2386, 7.6234, -3.0393, 6.7474, 7.8688, -1.7242, 8.1434, 9.028, -2.6504, 8.1388, 10.0692, -1.2808, 7.759, 10.3822, -1.6036, 6.9776, 10.332, -2.3869, 6.9863, 10.332, -2.3869, 6.9863, 8.9426, -2.8105, 5.4329, 9.5445, -2.5192, 7.6208, 8.6437, -1.5948, 5.1844, 8.1489, 0.2009, 6.8928, 7.2402, -0.3919, 6.7866, 8.2007, -2.3932, 5.5715, 7.2402, -0.3919, 6.7866, 7.6234, -3.0393, 6.7474, 9.5445, -2.5192, 7.6208, 8.2007, -2.3932, 5.5715, 7.6234, -3.0393, 6.7474, 8.1489, 0.2009, 6.8928, 10.0692, -1.2808, 7.759, 7.7974, 0.1854, 7.5236, 4.1895, -6.7255, 10.3059, 3.9655, -5.5468, 10.1977, 4.5459, -5.2972, 9.7221, 1.2697, -6.6155, 9.128, 2.6618, -7.4227, 6.7404, 1.6602, -4.8766, 7.9981, 4.1895, -6.7255, 10.3059, 4.5459, -5.2972, 9.7221, 5.0122, -6.9245, 9.5351, 3.1382, -8.8681, 8.3801, 1.2697, -6.6155, 9.128, 3.3323, -7.8379, 9.9857, 2.1494, -8.3331, 7.9018, 1.2697, -6.6155, 9.128, 3.1382, -8.8681, 8.3801, 4.0046, -8.5391, 7.801, 2.1494, -8.3331, 7.9018, 3.1382, -8.8681, 8.3801, 2.1494, -8.3331, 7.9018, 4.0046, -8.5391, 7.801, 2.6618, -7.4227, 6.7404, 4.1895, -6.7255, 10.3059, 3.3323, -7.8379, 9.9857, 2.4398, -6.7314, 10.2739, 4.1895, -6.7255, 10.3059, 5.0122, -6.9245, 9.5351, 3.3323, -7.8379, 9.9857, 4.5459, -5.2972, 9.7221, 1.6602, -4.8766, 7.9981, 2.6618, -7.4227, 6.7404, 4.0046, -8.5391, 7.801, 3.1382, -8.8681, 8.3801, 5.0122, -6.9245, 9.5351, 5.0122, -6.9245, 9.5351, 2.6618, -7.4227, 6.7404, 4.0046, -8.5391, 7.801, 2.2101, -6.4273, -1.9502, 2.2197, -6.9207, -3.0952, 4.4857, -6.7685, -3.5653, 4.4857, -6.7685, -3.5653, 3.1789, -6.3988, -1.3608, 2.2101, -6.4273, -1.9502, 3.4423, -7.6838, -4.8168, 3.9719, -8.2276, -4.6007, 4.4857, -6.7685, -3.5653, 2.2101, -6.4273, -1.9502, 3.1789, -6.3988, -1.3608, 2.3884, -9.5996, -2.7597, 2.2197, -6.9207, -3.0952, 3.0637, -9.4105, -3.7153, 3.4423, -7.6838, -4.8168, 3.0637, -9.4105, -3.7153, 3.9719, -8.2276, -4.6007, 3.4423, -7.6838, -4.8168, 4.4857, -6.7685, -3.5653, 4.2908, -7.544, -0.9527, 3.1789, -6.3988, -1.3608, 4.2908, -7.544, -0.9527, 4.4857, -6.7685, -3.5653, 5.4884, -8.6038, -1.8303, 3.9719, -8.2276, -4.6007, 3.0637, -9.4105, -3.7153, 4.2408, -9.7398, -2.439, -3.3183, -8.2137, -2.7965, -2.7033, -6.2, -0.6859, -0.8051, -8.1283, -0.7806, -2.7033, -6.2, -0.6859, -4.1686, -6.6077, -2.2433, -3.5788, -5.7278, -1.0089, -3.3183, -8.2137, -2.7965, -2.396, -7.7149, -3.655, -4.1686, -6.6077, -2.2433, -2.396, -7.7149, -3.655, -3.3183, -8.2137, -2.7965, -0.8051, -8.1283, -0.7806, -4.1686, -6.6077, -2.2433, -2.4004, -5.0583, -2.6251, -3.3656, -5.0474, -2.1946, -0.9903, -5.7617, -2.7503, -2.396, -7.7149, -3.655, -0.7551, -6.8556, -1.5766, -2.396, -7.7149, -3.655, -0.8051, -8.1283, -0.7806, -0.7551, -6.8556, -1.5766, -2.7033, -6.2, -0.6859, -0.9903, -5.7617, -2.7503, -0.7551, -6.8556, -1.5766, -2.4004, -5.0583, -2.6251, -3.5788, -5.7278, -1.0089, -3.3656, -5.0474, -2.1946, -3.5788, -5.7278, -1.0089, -2.4004, -5.0583, -2.6251, -2.7033, -6.2, -0.6859, 2.5561, 7.4185, 3.6014, 2.5682, 5.5471, 4.6222, 2.3192, 6.8906, 5.0934, 3.5574, 5.4835, 2.3336, 3.454, 6.3447, 2.8432, 1.6073, 6.6342, 0.4364, 1.6073, 6.6342, 0.4364, 3.454, 6.3447, 2.8432, 1.9572, 8.9289, 2.7084, 0.4522, 5.694, 1.2875, 1.5284, 5.1267, 4.0049, 2.6542, 4.4721, 2.5714, 2.6542, 4.4721, 2.5714, 3.5574, 5.4835, 2.3336, 1.2332, 5.666, 0.6275, 1.2332, 5.666, 0.6275, 3.5574, 5.4835, 2.3336, 1.6073, 6.6342, 0.4364, 2.5682, 5.5471, 4.6222, 3.223, 5.6582, 3.9056, 2.6542, 4.4721, 2.5714, 2.5682, 5.5471, 4.6222, 1.5284, 5.1267, 4.0049, 2.3192, 6.8906, 5.0934, 2.3192, 6.8906, 5.0934, 1.5284, 5.1267, 4.0049, -0.6077, 7.7494, 4.0136, -1.062, 7.0479, 3.1247, 0.4522, 5.694, 1.2875, 1.6073, 6.6342, 0.4364, 3.223, 5.6582, 3.9056, 3.454, 6.3447, 2.8432, 3.4722, 4.9995, 2.6559, 2.3192, 6.8906, 5.0934, -0.6077, 7.7494, 4.0136, 1.9572, 8.9289, 2.7084, 2.6542, 4.4721, 2.5714, 1.5284, 5.1267, 4.0049, 2.5682, 5.5471, 4.6222, 0.4504, -12.1688, 4.034, -1.9499, -10.8589, 5.0321, -1.0486, -9.2213, 3.401, 0.4504, -12.1688, 4.034, -1.0486, -9.2213, 3.401, 1.0347, -11.4189, 3.2277, -3.3168, -9.6852, 3.5143, -2.4624, -9.5931, 2.021, -2.0252, -8.8426, 3.0372, -2.6862, -11.8166, 2.4209, -3.5858, -10.4937, 3.9995, -0.357, -12.3715, 4.518, -3.3168, -9.6852, 3.5143, -2.6862, -11.8166, 2.4209, -2.4624, -9.5931, 2.021, -2.4624, -9.5931, 2.021, -2.6862, -11.8166, 2.4209, -1.831, -11.3005, 1.1994, -2.6862, -11.8166, 2.4209, -3.3168, -9.6852, 3.5143, -3.5858, -10.4937, 3.9995, -2.4624, -9.5931, 2.021, -1.0486, -9.2213, 3.401, -2.0252, -8.8426, 3.0372, 1.0347, -11.4189, 3.2277, -1.0486, -9.2213, 3.401, -1.831, -11.3005, 1.1994, -1.9499, -10.8589, 5.0321, -0.357, -12.3715, 4.518, -3.5858, -10.4937, 3.9995, -0.357, -12.3715, 4.518, 0.4504, -12.1688, 4.034, -2.6862, -11.8166, 2.4209, -1.9499, -10.8589, 5.0321, -3.3168, -9.6852, 3.5143, -2.0252, -8.8426, 3.0372, 2.442, -1.6532, 11.0103, 1.971, 0.0793, 11.1696, 3.0688, -1.2191, 10.6354, -0.2489, 0.2096, 7.4099, -0.5371, 0.7851, 8.5039, 0.0456, -2.0754, 8.2015, 0.7523, 1.18, 7.6513, 2.678, 0.7474, 10.3808, -0.5371, 0.7851, 8.5039, -0.5371, 0.7851, 8.5039, -0.2489, 0.2096, 7.4099, 0.7523, 1.18, 7.6513, 3.9311, -0.9289, 8.3561, 2.9007, -1.4785, 7.6476, 3.5588, -2.2554, 8.5388, 1.971, 0.0793, 11.1696, 0.0456, -2.0754, 8.2015, -0.5371, 0.7851, 8.5039, 1.3294, -3.2545, 9.1216, 0.0456, -2.0754, 8.2015, 2.442, -1.6532, 11.0103, 0.0456, -2.0754, 8.2015, 1.3294, -3.2545, 9.1216, 2.9007, -1.4785, 7.6476, 0.7523, 1.18, 7.6513, 2.9007, -1.4785, 7.6476, 3.6829, 0.3207, 8.741, 3.6829, 0.3207, 8.741, 2.9007, -1.4785, 7.6476, 3.9311, -0.9289, 8.3561, 3.9311, -0.9289, 8.3561, 3.0688, -1.2191, 10.6354, 3.3465, 0.5137, 9.8613, 3.0688, -1.2191, 10.6354, 2.678, 0.7474, 10.3808, 3.3465, 0.5137, 9.8613, 0.7523, 1.18, 7.6513, 3.3465, 0.5137, 9.8613, 2.678, 0.7474, 10.3808 )

[node name="ast_ice_shards_1" instance=ExtResource( 1 )]

[node name="StaticBody" type="StaticBody" parent="ast_ice_shards_1" index="0"]

[node name="CollisionShape" type="CollisionShape" parent="ast_ice_shards_1/StaticBody" index="0"]
shape = SubResource( 1 )
