[gd_scene load_steps=3 format=2]

[ext_resource path="res://kerno/fenestroj/tipo_a1.tscn" type="PackedScene" id=2]
[ext_resource path="res://blokoj/objektoj/skriptoj/objekto.gd" type="Script" id=3]

[node name="Objekto" instance=ExtResource( 2 )]
script = ExtResource( 3 )

[node name="MarginContainer" parent="canvas" index="0"]
visible = false

[node name="Label" parent="canvas/MarginContainer/VBoxContainer" index="0"]
text = "Объекты"
